!obliqueFlow and name of variable is thetaMV
!isTex = no ::::isRange = yes Flow Model = Oblique Shock
!
!
!Oblique Shock		k = 0
!
!     theta     delta     Mx   
      18.3    0.3604     3.200
      18.4    0.5630     3.200
      18.4    0.7653     3.200
      18.5    0.9672     3.200
      18.5     1.169     3.200
      18.6     1.370     3.200
      18.6     1.571     3.200
      18.7     1.772     3.200
      18.8     1.972     3.200
      18.8     2.172     3.200
      18.9     2.372     3.200
      18.9     2.571     3.200
       19.     2.770     3.200
      19.0     2.969     3.200
      19.1     3.167     3.200
      19.2     3.366     3.200
      19.2     3.564     3.200
      19.3     3.761     3.200
      19.3     3.958     3.200
      19.4     4.155     3.200
      19.4     4.352     3.200
      19.5     4.548     3.200
      19.5     4.744     3.200
      19.6     4.940     3.200
      19.7     5.135     3.200
      19.7     5.331     3.200
      19.8     5.526     3.200
      19.8     5.720     3.200
      19.9     5.914     3.200
      19.9     6.108     3.200
      20.0     6.302     3.200
      21.0     9.695     3.200
      23.7      18.5     3.200
      26.4      26.7     3.200
      29.1      34.6     3.200
      31.8      42.2     3.200
      34.5      49.5     3.200
      37.2      56.7     3.200
      39.9      63.6     3.200
      42.6      70.4     3.200
      45.3      77.1     3.200
      48.0      83.7     3.200
there is no possible solution for this theta or Mx
there is no possible solution for this theta or Mx
      50.7     -57.3     3.200
there is no possible solution for this theta or Mx
there is no possible solution for this theta or Mx
      53.4     -57.3     3.200
there is no possible solution for this theta or Mx
there is no possible solution for this theta or Mx
      56.1     -57.3     3.200
there is no possible solution for this theta or Mx
there is no possible solution for this theta or Mx
      58.8     -57.3     3.200
there is no possible solution for this theta or Mx
there is no possible solution for this theta or Mx
      61.5     -57.3     3.200
there is no possible solution for this theta or Mx
there is no possible solution for this theta or Mx
      64.2     -57.3     3.200
there is no possible solution for this theta or Mx
there is no possible solution for this theta or Mx
      66.9     -57.3     3.200
there is no possible solution for this theta or Mx
there is no possible solution for this theta or Mx
      69.6     -57.3     3.200
there is no possible solution for this theta or Mx
there is no possible solution for this theta or Mx
      72.3     -57.3     3.200
there is no possible solution for this theta or Mx
there is no possible solution for this theta or Mx
      75.0     -57.3     3.200
there is no possible solution for this theta or Mx
there is no possible solution for this theta or Mx
      75.0     -57.3     3.200
there is no possible solution for this theta or Mx
there is no possible solution for this theta or Mx
      75.7     -57.3     3.200
there is no possible solution for this theta or Mx
there is no possible solution for this theta or Mx
      76.5     -57.3     3.200
there is no possible solution for this theta or Mx
there is no possible solution for this theta or Mx
      77.2     -57.3     3.200
there is no possible solution for this theta or Mx
there is no possible solution for this theta or Mx
       78.     -57.3     3.200
there is no possible solution for this theta or Mx
there is no possible solution for this theta or Mx
      78.7     -57.3     3.200
there is no possible solution for this theta or Mx
there is no possible solution for this theta or Mx
      79.5     -57.3     3.200
there is no possible solution for this theta or Mx
there is no possible solution for this theta or Mx
      80.2     -57.3     3.200
there is no possible solution for this theta or Mx
there is no possible solution for this theta or Mx
       81.     -57.3     3.200
there is no possible solution for this theta or Mx
there is no possible solution for this theta or Mx
      81.7     -57.3     3.200
there is no possible solution for this theta or Mx
there is no possible solution for this theta or Mx
      82.5     -57.3     3.200
there is no possible solution for this theta or Mx
there is no possible solution for this theta or Mx
      83.2     -57.3     3.200
there is no possible solution for this theta or Mx
there is no possible solution for this theta or Mx
       84.     -57.3     3.200
there is no possible solution for this theta or Mx
there is no possible solution for this theta or Mx
      84.7     -57.3     3.200
there is no possible solution for this theta or Mx
there is no possible solution for this theta or Mx
      85.5     -57.3     3.200
there is no possible solution for this theta or Mx
there is no possible solution for this theta or Mx
      86.2     -57.3     3.200
there is no possible solution for this theta or Mx
there is no possible solution for this theta or Mx
       87.     -57.3     3.200
there is no possible solution for this theta or Mx
there is no possible solution for this theta or Mx
      87.7     -57.3     3.200
there is no possible solution for this theta or Mx
there is no possible solution for this theta or Mx
      88.5     -57.3     3.200
there is no possible solution for this theta or Mx
there is no possible solution for this theta or Mx
      89.2     -57.3     3.200
there is no possible solution for this theta or Mx
there is no possible solution for this theta or Mx
       90.     -57.3     3.200
