%!PS-Adobe-3.0
%%BoundingBox: 0 0 612 792
%%LanguageLevel: 2
%%Creator: Grace-5.1.16
%%CreationDate: Fri Apr  8 15:12:07 2005
%%DocumentData: Clean8Bit
%%Orientation: Portrait
%%Pages: 1
%%PageOrder: Ascend
%%Title: nozzleCompareAreaPropety.agr
%%For: genick
%%DocumentNeededResources: (atend)
%%EndComments
%%BeginProlog
/PAGE_OFFSET_X 0 def
/PAGE_OFFSET_Y 0 def
/m {moveto} def
/l {lineto} def
/s {stroke} def
/n {newpath} def
/c {closepath} def
/RL {rlineto} def
/SLW {setlinewidth} def
/GS {gsave} def
/GR {grestore} def
/SC {setcolor} def
/SGRY {setgray} def
/SRGB {setrgbcolor} def
/SD {setdash} def
/SLC {setlinecap} def
/SLJ {setlinejoin} def
/SCS {setcolorspace} def
/FFSF {findfont setfont} def
/CC {concat} def
/PXL {n m 0 0 RL s} def
/Color0 {1.0000 1.0000 1.0000} def
/Color1 {0.0000 0.0000 0.0000} def
/Color2 {1.0000 0.0000 0.0000} def
/Color3 {0.0000 1.0000 0.0000} def
/Color4 {0.0000 0.0000 1.0000} def
/Color5 {1.0000 1.0000 0.0000} def
/Color6 {0.7373 0.5608 0.5608} def
/Color7 {0.8627 0.8627 0.8627} def
/Color8 {0.5804 0.0000 0.8275} def
/Color9 {0.0000 1.0000 1.0000} def
/Color10 {1.0000 0.0000 1.0000} def
/Color11 {1.0000 0.6471 0.0000} def
/Color12 {0.4471 0.1294 0.7373} def
/Color13 {0.4039 0.0275 0.2824} def
/Color14 {0.2510 0.8784 0.8157} def
/Color15 {0.0000 0.5451 0.0000} def
/Color16 {0.7529 0.7529 0.7529} def
/Color17 {0.5059 0.5059 0.5059} def
/Color18 {0.2588 0.2588 0.2588} def
/PTRN {
 /pat_bits exch def 
 <<
  /PaintType 2
  /PatternType 1 /TilingType 1
  /BBox[0 0 16 16]
  /XStep 16 /YStep 16
  /PaintProc {
   pop
   16 16 true [-1 0 0 -1 16 16] pat_bits imagemask
  }
 >>
 [0.0016 0 0 0.0016 0 0]
 makepattern
} def
/Pattern0 {<0000000000000000000000000000000000000000000000000000000000000000> PTRN} bind def
/Pattern1 {<ffffffffffffffffffffffffffffffffffffffffffffffffffffffffffffffff> PTRN} bind def
/Pattern2 {<eeeeffffbbbbffffeeeeffffbbbbffffeeeeffffbbbbffffeeeeffffbbbbffff> PTRN} bind def
/Pattern3 {<eeeebbbbeeeebbbbeeeebbbbeeeebbbbeeeebbbbeeeebbbbeeeebbbbeeeebbbb> PTRN} bind def
/Pattern4 {<5555aaaa5555aaaa5555aaaa5555aaaa5555aaaa5555aaaa5555aaaa5555aaaa> PTRN} bind def
/Pattern5 {<1111444411114444111144441111444411114444111144441111444411114444> PTRN} bind def
/Pattern6 {<1111000044440000111100004444000011110000444400001111000044440000> PTRN} bind def
/Pattern7 {<1010000000000000010100000000000010100000000000000101000000000000> PTRN} bind def
/Pattern8 {<0000000000000000000000000000000000000000000000000000000000000000> PTRN} bind def
/Pattern9 {<1e1e0f0f8787c3c3e1e1f0f078783c3c1e1e0f0f8787c3c3e1e1f0f078783c3c> PTRN} bind def
/Pattern10 {<7878f0f0e1e1c3c387870f0f1e1e3c3c7878f0f0e1e1c3c387870f0f1e1e3c3c> PTRN} bind def
/Pattern11 {<3333333333333333333333333333333333333333333333333333333333333333> PTRN} bind def
/Pattern12 {<ffffffff00000000ffffffff00000000ffffffff00000000ffffffff00000000> PTRN} bind def
/Pattern13 {<8181424224241818181824244242818181814242242418181818242442428181> PTRN} bind def
/Pattern14 {<8080404020201010080804040202010180804040202010100808040402020101> PTRN} bind def
/Pattern15 {<0101020204040808101020204040808001010202040408081010202040408080> PTRN} bind def
/Pattern16 {<2222222222222222222222222222222222222222222222222222222222222222> PTRN} bind def
/Pattern17 {<0000ffff000000000000ffff000000000000ffff000000000000ffff00000000> PTRN} bind def
/Pattern18 {<2222ffff222222222222ffff222222222222ffff222222222222ffff22222222> PTRN} bind def
/Pattern19 {<ffffffff33333333ffffffff33333333ffffffff33333333ffffffff33333333> PTRN} bind def
/Pattern20 {<0f0f0f0f0f0f0f0ff0f0f0f0f0f0f0f00f0f0f0f0f0f0f0ff0f0f0f0f0f0f0f0> PTRN} bind def
/Pattern21 {<ff00ff00ff00ff00ff00ff00ff00ff0000ff00ff00ff00ff00ff00ff00ff00ff> PTRN} bind def
/Pattern22 {<8001800180018001800180018001ffffffff8001800180018001800180018001> PTRN} bind def
/Pattern23 {<c003c003c003c003c003c003ffffffffffffffffc003c003c003c003c003c003> PTRN} bind def
/Pattern24 {<040404040404ffff404040404040ffff040404040404ffff404040404040ffff> PTRN} bind def
/Pattern25 {<180018001800180018001800ffffffff001800180018001800180018ffffffff> PTRN} bind def
/Pattern26 {<1111b8b87c7c3a3a1111a3a3c7c78b8b1111b8b87c7c3a3a1111a3a3c7c78b8b> PTRN} bind def
/Pattern27 {<101010102828c7c70101010182827c7c101010102828c7c70101010182827c7c> PTRN} bind def
/Pattern28 {<1c1c121211112121c1c12121111112121c1c121211112121c1c1212111111212> PTRN} bind def
/Pattern29 {<3e3e414180808080e3e31414080808083e3e414180808080e3e3141408080808> PTRN} bind def
/Pattern30 {<4848888884848383848488884848383848488888848483838484888848483838> PTRN} bind def
/Pattern31 {<03030404080808080c0c12122121c0c003030404080808080c0c12122121c0c0> PTRN} bind def
/ellipsedict 8 dict def
ellipsedict /mtrx matrix put
/EARC {
 ellipsedict begin
  /endangle exch def
  /startangle exch def
  /yrad exch def
  /xrad exch def
  /y exch def
  /x exch def
  /savematrix mtrx currentmatrix def
  x y translate
  xrad yrad scale
  0 0 1 startangle endangle arc
  savematrix setmatrix
 end
} def
/TL {
  /kcomp exch def
  /linewidth exch def
  /offset exch def
  GS
  0 offset rmoveto
  linewidth SLW
  dup stringwidth exch kcomp add exch RL s
  GR
} def
/KINIT
{
 /kvector exch def
 /kid 0 def
} def
/KPROC
{
 pop pop
 kvector kid get
 0 rmoveto
 /kid 1 kid add def
} def
/DefEncoding [
 /.notdef
 /.notdef
 /.notdef
 /.notdef
 /.notdef
 /.notdef
 /.notdef
 /.notdef
 /.notdef
 /.notdef
 /.notdef
 /.notdef
 /.notdef
 /.notdef
 /.notdef
 /.notdef
 /.notdef
 /.notdef
 /.notdef
 /.notdef
 /.notdef
 /.notdef
 /.notdef
 /.notdef
 /.notdef
 /.notdef
 /.notdef
 /.notdef
 /.notdef
 /.notdef
 /.notdef
 /.notdef
 /space
 /exclam
 /quotedbl
 /numbersign
 /dollar
 /percent
 /ampersand
 /quoteright
 /parenleft
 /parenright
 /asterisk
 /plus
 /comma
 /hyphen
 /period
 /slash
 /zero
 /one
 /two
 /three
 /four
 /five
 /six
 /seven
 /eight
 /nine
 /colon
 /semicolon
 /less
 /equal
 /greater
 /question
 /at
 /A
 /B
 /C
 /D
 /E
 /F
 /G
 /H
 /I
 /J
 /K
 /L
 /M
 /N
 /O
 /P
 /Q
 /R
 /S
 /T
 /U
 /V
 /W
 /X
 /Y
 /Z
 /bracketleft
 /backslash
 /bracketright
 /asciicircum
 /underscore
 /grave
 /a
 /b
 /c
 /d
 /e
 /f
 /g
 /h
 /i
 /j
 /k
 /l
 /m
 /n
 /o
 /p
 /q
 /r
 /s
 /t
 /u
 /v
 /w
 /x
 /y
 /z
 /braceleft
 /bar
 /braceright
 /asciitilde
 /.notdef
 /.notdef
 /.notdef
 /.notdef
 /.notdef
 /.notdef
 /.notdef
 /.notdef
 /.notdef
 /.notdef
 /.notdef
 /.notdef
 /.notdef
 /.notdef
 /.notdef
 /.notdef
 /.notdef
 /.notdef
 /.notdef
 /.notdef
 /.notdef
 /.notdef
 /.notdef
 /.notdef
 /.notdef
 /.notdef
 /.notdef
 /.notdef
 /.notdef
 /.notdef
 /.notdef
 /.notdef
 /.notdef
 /space
 /exclamdown
 /cent
 /sterling
 /currency
 /yen
 /brokenbar
 /section
 /dieresis
 /copyright
 /ordfeminine
 /guillemotleft
 /logicalnot
 /hyphen
 /registered
 /macron
 /degree
 /plusminus
 /twosuperior
 /threesuperior
 /acute
 /mu
 /paragraph
 /periodcentered
 /cedilla
 /onesuperior
 /ordmasculine
 /guillemotright
 /onequarter
 /onehalf
 /threequarters
 /questiondown
 /Agrave
 /Aacute
 /Acircumflex
 /Atilde
 /Adieresis
 /Aring
 /AE
 /Ccedilla
 /Egrave
 /Eacute
 /Ecircumflex
 /Edieresis
 /Igrave
 /Iacute
 /Icircumflex
 /Idieresis
 /Eth
 /Ntilde
 /Ograve
 /Oacute
 /Ocircumflex
 /Otilde
 /Odieresis
 /multiply
 /Oslash
 /Ugrave
 /Uacute
 /Ucircumflex
 /Udieresis
 /Yacute
 /Thorn
 /germandbls
 /agrave
 /aacute
 /acircumflex
 /atilde
 /adieresis
 /aring
 /ae
 /ccedilla
 /egrave
 /eacute
 /ecircumflex
 /edieresis
 /igrave
 /iacute
 /icircumflex
 /idieresis
 /eth
 /ntilde
 /ograve
 /oacute
 /ocircumflex
 /otilde
 /odieresis
 /divide
 /oslash
 /ugrave
 /uacute
 /ucircumflex
 /udieresis
 /yacute
 /thorn
 /ydieresis
] def
%%EndProlog
%%BeginSetup
PAGE_OFFSET_X PAGE_OFFSET_Y translate
612.00 612.00 scale
%%EndSetup
%%Page: 1 1
n
0.0000 0.0000 m
0.0000 1.2941 l
1.0000 1.2941 l
1.0000 0.0000 l
c
[/DeviceRGB] SCS
Color0 SC
fill
[/DeviceRGB] SCS
Color9 SC
[] 0 SD
0.0015 SLW
0 SLC
0 SLJ
n
0.1242 0.7394 m
0.1333 0.7394 l
0.1424 0.7394 l
0.1515 0.7394 l
0.1606 0.7394 l
0.1697 0.7393 l
0.1788 0.7393 l
0.1878 0.7393 l
0.1969 0.7392 l
0.2060 0.7392 l
0.2151 0.7392 l
0.2242 0.7391 l
0.2333 0.7391 l
0.2424 0.7391 l
0.2515 0.7390 l
0.2606 0.7390 l
0.2697 0.7389 l
0.2788 0.7388 l
0.2879 0.7387 l
0.2970 0.7386 l
0.3061 0.7386 l
0.3152 0.7385 l
0.3243 0.7383 l
0.3334 0.7381 l
0.3425 0.7380 l
0.3516 0.7377 l
0.3607 0.7375 l
0.3697 0.7372 l
0.3788 0.7368 l
0.3880 0.7363 l
0.3970 0.7358 l
0.4061 0.7350 l
0.4152 0.7340 l
0.4243 0.7326 l
0.4334 0.7307 l
0.4425 0.7279 l
0.4516 0.7236 l
0.4607 0.7164 l
0.4698 0.7026 l
0.4789 0.6701 l
0.4984 0.2725 l
0.5071 0.2348 l
0.5163 0.2175 l
0.5254 0.2077 l
0.5345 0.2016 l
0.5436 0.1975 l
0.5527 0.1945 l
0.5618 0.1923 l
0.5709 0.1906 l
0.5800 0.1892 l
0.5891 0.1881 l
0.5982 0.1872 l
0.6073 0.1865 l
0.6165 0.1859 l
0.6256 0.1853 l
0.6347 0.1849 l
0.6438 0.1845 l
0.6529 0.1841 l
0.6620 0.1838 l
0.6711 0.1835 l
0.6802 0.1833 l
0.6893 0.1831 l
0.6984 0.1829 l
0.7076 0.1827 l
0.7167 0.1825 l
0.7258 0.1824 l
0.7349 0.1823 l
0.7436 0.1821 l
0.7527 0.1820 l
0.7618 0.1819 l
0.7710 0.1818 l
0.7801 0.1817 l
0.7892 0.1817 l
0.7983 0.1816 l
0.8074 0.1815 l
0.8165 0.1814 l
0.8256 0.1814 l
0.8347 0.1813 l
0.8438 0.1813 l
0.8529 0.1812 l
s
[/DeviceRGB] SCS
Color2 SC
n
0.1242 0.7396 m
0.1333 0.7396 l
0.1424 0.7396 l
0.1515 0.7396 l
0.1606 0.7396 l
0.1697 0.7396 l
0.1788 0.7396 l
0.1878 0.7396 l
0.1969 0.7396 l
0.2060 0.7396 l
0.2151 0.7396 l
0.2242 0.7396 l
0.2333 0.7396 l
0.2424 0.7395 l
0.2515 0.7395 l
0.2606 0.7395 l
0.2697 0.7395 l
0.2788 0.7395 l
0.2879 0.7395 l
0.2970 0.7394 l
0.3061 0.7394 l
0.3152 0.7394 l
0.3243 0.7394 l
0.3334 0.7393 l
0.3425 0.7392 l
0.3516 0.7392 l
0.3607 0.7391 l
0.3697 0.7390 l
0.3788 0.7389 l
0.3880 0.7388 l
0.3970 0.7386 l
0.4061 0.7384 l
0.4152 0.7381 l
0.4243 0.7377 l
0.4334 0.7372 l
0.4425 0.7363 l
0.4516 0.7351 l
0.4607 0.7330 l
0.4698 0.7289 l
0.4789 0.7189 l
0.4984 0.5147 l
0.5071 0.4683 l
0.5163 0.4388 l
0.5254 0.4177 l
0.5345 0.4015 l
0.5436 0.3885 l
0.5527 0.3779 l
0.5618 0.3689 l
0.5709 0.3611 l
0.5800 0.3543 l
0.5891 0.3484 l
0.5982 0.3430 l
0.6073 0.3382 l
0.6165 0.3339 l
0.6256 0.3299 l
0.6347 0.3263 l
0.6438 0.3229 l
0.6529 0.3198 l
0.6620 0.3169 l
0.6711 0.3143 l
0.6802 0.3117 l
0.6893 0.3094 l
0.6984 0.3071 l
0.7076 0.3051 l
0.7167 0.3031 l
0.7258 0.3012 l
0.7349 0.2994 l
0.7436 0.2977 l
0.7527 0.2961 l
0.7618 0.2945 l
0.7710 0.2931 l
0.7801 0.2917 l
0.7892 0.2903 l
0.7983 0.2890 l
0.8074 0.2878 l
0.8165 0.2866 l
0.8256 0.2854 l
0.8347 0.2843 l
0.8438 0.2832 l
0.8529 0.2822 l
s
[/DeviceRGB] SCS
Color1 SC
n
0.1242 0.7395 m
0.1333 0.7395 l
0.1424 0.7395 l
0.1515 0.7395 l
0.1606 0.7395 l
0.1697 0.7394 l
0.1788 0.7394 l
0.1879 0.7394 l
0.1971 0.7394 l
0.2062 0.7394 l
0.2153 0.7394 l
0.2244 0.7393 l
0.2335 0.7393 l
0.2426 0.7392 l
0.2517 0.7392 l
0.2608 0.7392 l
0.2699 0.7391 l
0.2790 0.7391 l
0.2882 0.7390 l
0.2973 0.7390 l
0.3064 0.7389 l
0.3155 0.7388 l
0.3246 0.7387 l
0.3337 0.7386 l
0.3428 0.7384 l
0.3519 0.7383 l
0.3610 0.7381 l
0.3701 0.7378 l
0.3792 0.7376 l
0.3884 0.7372 l
0.3975 0.7368 l
0.4066 0.7362 l
0.4157 0.7354 l
0.4248 0.7344 l
0.4339 0.7330 l
0.4430 0.7309 l
0.4521 0.7277 l
0.4612 0.7221 l
0.4703 0.7115 l
0.4795 0.6859 l
0.4886 0.5316 l
0.4886 0.5071 l
0.4977 0.3146 l
0.5068 0.2691 l
0.5159 0.2462 l
0.5250 0.2324 l
0.5341 0.2232 l
0.5432 0.2166 l
0.5523 0.2117 l
0.5614 0.2079 l
0.5705 0.2049 l
0.5797 0.2024 l
0.5888 0.2004 l
0.5979 0.1987 l
0.6070 0.1972 l
0.6161 0.1959 l
0.6252 0.1948 l
0.6343 0.1939 l
0.6434 0.1930 l
0.6525 0.1923 l
0.6616 0.1916 l
0.6708 0.1910 l
0.6799 0.1904 l
0.6890 0.1899 l
0.6981 0.1894 l
0.7072 0.1890 l
0.7163 0.1886 l
0.7254 0.1883 l
0.7345 0.1879 l
0.7436 0.1876 l
0.7527 0.1873 l
0.7618 0.1871 l
0.7710 0.1868 l
0.7801 0.1866 l
0.7892 0.1864 l
0.7983 0.1862 l
0.8074 0.1860 l
0.8165 0.1858 l
0.8256 0.1856 l
0.8347 0.1854 l
0.8438 0.1853 l
0.8529 0.1851 l
s
[/DeviceRGB] SCS
Color4 SC
n
0.1242 0.7398 m
0.1625 0.7398 l
0.2009 0.7398 l
0.2393 0.7398 l
0.2776 0.7398 l
0.3160 0.7398 l
0.3543 0.7398 l
0.3927 0.7398 l
0.4310 0.7398 l
0.4694 0.7398 l
0.5077 0.7398 l
0.5461 0.7398 l
0.5845 0.7398 l
0.6228 0.7398 l
0.6612 0.7398 l
0.6995 0.7398 l
0.7379 0.7398 l
0.7762 0.7398 l
0.8146 0.7398 l
0.8529 0.7398 l
s
[/DeviceRGB] SCS
Color1 SC
n
0.1242 0.1797 m
0.8529 0.1797 l
s
n
0.1242 0.7958 m
0.8529 0.7958 l
s
n
0.2153 0.1797 m
0.2153 0.1897 l
s
n
0.2153 0.7958 m
0.2153 0.7858 l
s
n
0.3975 0.1797 m
0.3975 0.1897 l
s
n
0.3975 0.7958 m
0.3975 0.7858 l
s
n
0.5797 0.1797 m
0.5797 0.1897 l
s
n
0.5797 0.7958 m
0.5797 0.7858 l
s
n
0.7618 0.1797 m
0.7618 0.1897 l
s
n
0.7618 0.7958 m
0.7618 0.7858 l
s
n
0.1242 0.1797 m
0.1242 0.1997 l
s
n
0.1242 0.7958 m
0.1242 0.7758 l
s
n
0.3064 0.1797 m
0.3064 0.1997 l
s
n
0.3064 0.7958 m
0.3064 0.7758 l
s
n
0.4886 0.1797 m
0.4886 0.1997 l
s
n
0.4886 0.7958 m
0.4886 0.7758 l
s
n
0.6708 0.1797 m
0.6708 0.1997 l
s
n
0.6708 0.7958 m
0.6708 0.7758 l
s
n
0.8529 0.1797 m
0.8529 0.1997 l
s
n
0.8529 0.7958 m
0.8529 0.7758 l
s
/Times-Roman findfont
dup length dict begin
 {1 index /FID ne {def} {pop pop} ifelse} forall
 /Encoding DefEncoding def
 currentdict
end
/Font0 exch definefont pop
/Font0 FFSF
0.1175 0.1509 m
GS
[0.0280 0.0000 0.0000 0.0280 0 0] CC
(0) show
GR
/Font0 FFSF
0.2897 0.1505 m
GS
[0.0280 0.0000 0.0000 0.0280 0 0] CC
(0.5) show
GR
/Font0 FFSF
0.4831 0.1509 m
GS
[0.0280 0.0000 0.0000 0.0280 0 0] CC
(1) show
GR
/Font0 FFSF
0.6541 0.1505 m
GS
[0.0280 0.0000 0.0000 0.0280 0 0] CC
(1.5) show
GR
/Font0 FFSF
0.8463 0.1509 m
GS
[0.0280 0.0000 0.0000 0.0280 0 0] CC
(2) show
GR
/Font0 FFSF
0.2537 0.1209 m
GS
[0.0280 0.0000 0.0000 0.0280 0 0] CC
(Distance \(normalized distance two scales\)) show
GR
n
0.1242 0.1797 m
0.1242 0.7958 l
s
n
0.8529 0.1797 m
0.8529 0.7958 l
s
n
0.1242 0.2357 m
0.1342 0.2357 l
s
n
0.8529 0.2357 m
0.8429 0.2357 l
s
n
0.1242 0.3477 m
0.1342 0.3477 l
s
n
0.8529 0.3477 m
0.8429 0.3477 l
s
n
0.1242 0.4597 m
0.1342 0.4597 l
s
n
0.8529 0.4597 m
0.8429 0.4597 l
s
n
0.1242 0.5717 m
0.1342 0.5717 l
s
n
0.8529 0.5717 m
0.8429 0.5717 l
s
n
0.1242 0.6837 m
0.1342 0.6837 l
s
n
0.8529 0.6837 m
0.8429 0.6837 l
s
n
0.1242 0.7958 m
0.1342 0.7958 l
s
n
0.8529 0.7958 m
0.8429 0.7958 l
s
n
0.1242 0.1797 m
0.1442 0.1797 l
s
n
0.8529 0.1797 m
0.8329 0.1797 l
s
n
0.1242 0.2917 m
0.1442 0.2917 l
s
n
0.8529 0.2917 m
0.8329 0.2917 l
s
n
0.1242 0.4037 m
0.1442 0.4037 l
s
n
0.8529 0.4037 m
0.8329 0.4037 l
s
n
0.1242 0.5157 m
0.1442 0.5157 l
s
n
0.8529 0.5157 m
0.8329 0.5157 l
s
n
0.1242 0.6277 m
0.1442 0.6277 l
s
n
0.8529 0.6277 m
0.8329 0.6277 l
s
n
0.1242 0.7398 m
0.1442 0.7398 l
s
n
0.8529 0.7398 m
0.8329 0.7398 l
s
/Font0 FFSF
0.1008 0.1705 m
GS
[0.0280 0.0000 0.0000 0.0280 0 0] CC
(0) show
GR
/Font0 FFSF
0.0797 0.2825 m
GS
[0.0280 0.0000 0.0000 0.0280 0 0] CC
(0.2) show
GR
/Font0 FFSF
0.0797 0.3945 m
GS
[0.0280 0.0000 0.0000 0.0280 0 0] CC
(0.4) show
GR
/Font0 FFSF
0.0801 0.5063 m
GS
[0.0280 0.0000 0.0000 0.0280 0 0] CC
(0.6) show
GR
/Font0 FFSF
0.0805 0.6185 m
GS
[0.0280 0.0000 0.0000 0.0280 0 0] CC
(0.8) show
GR
/Font0 FFSF
0.1032 0.7303 m
GS
[0.0280 0.0000 0.0000 0.0280 0 0] CC
(1) show
GR
n
0.1242 0.1797 m
0.1242 0.7958 l
0.8529 0.7958 l
0.8529 0.1797 l
0.1242 0.1797 l
c
s
n
0.5797 0.6837 m
0.5797 0.5042 l
0.8165 0.5042 l
0.8165 0.6837 l
c
[/DeviceRGB] SCS
Color0 SC
fill
/Font0 FFSF
[/DeviceRGB] SCS
Color1 SC
0.6504 0.6549 m
GS
[0.0280 0.0000 0.0000 0.0280 0 0] CC
(P / P) show
GR
/Font0 FFSF
0.7033 0.6437 m
GS
[0.0198 0.0000 0.0000 0.0198 0 0] CC
(0 isentropic) show
GR
[/DeviceRGB] SCS
Color9 SC
n
0.5904 0.6566 m
0.6304 0.6566 l
s
/Font0 FFSF
[/DeviceRGB] SCS
Color1 SC
0.6504 0.6106 m
GS
[0.0280 0.0000 0.0000 0.0280 0 0] CC
(T / T) show
GR
/Font0 FFSF
0.7065 0.5994 m
GS
[0.0198 0.0000 0.0000 0.0198 0 0] CC
(0 isentropic) show
GR
[/DeviceRGB] SCS
Color2 SC
n
0.5904 0.6122 m
0.6304 0.6122 l
s
/Font0 FFSF
[/DeviceRGB] SCS
Color1 SC
0.6504 0.5663 m
GS
[0.0280 0.0000 0.0000 0.0280 0 0] CC
(P / P) show
GR
/Font0 FFSF
0.7033 0.5551 m
GS
[0.0198 0.0000 0.0000 0.0198 0 0] CC
(0  isothermal) show
GR
n
0.5904 0.5699 m
0.6304 0.5699 l
s
/Font0 FFSF
0.6504 0.5258 m
GS
[0.0280 0.0000 0.0000 0.0280 0 0] CC
(T/T) show
GR
/Font0 FFSF
0.6924 0.5146 m
GS
[0.0198 0.0000 0.0000 0.0198 0 0] CC
(0 isothermal) show
GR
[/DeviceRGB] SCS
Color4 SC
n
0.5904 0.5295 m
0.6304 0.5295 l
s
/Font0 FFSF
[/DeviceRGB] SCS
Color1 SC
0.1725 0.8648 m
GS
[0.0420 0.0000 0.0000 0.0420 0 0] CC
(Comparison between the two  models ) show
GR
/Font0 FFSF
0.4495 0.8158 m
GS
[0.0280 0.0000 0.0000 0.0280 0 0] CC
(k = 1 4) show
GR
/Font0 FFSF
0.0300 0.0300 m
GS
[0.0280 0.0000 0.0000 0.0280 0 0] CC
(Fri Apr  8 15:11:44 2005) show
GR
showpage
%%PageTrailer
%%Trailer
%%DocumentNeededResources: font Times-Roman
%%EOF
