%!PS-Adobe-3.0 EPSF-3.0
%%BoundingBox: (atend)
%%LanguageLevel: 2
%%Creator: Grace-5.1.19
%%CreationDate: Thu Aug  3 18:54:52 2006
%%DocumentData: Clean8Bit
%%Orientation: Portrait
%%Title: shockDnamics.agr
%%For: genick
%%DocumentNeededResources: (atend)
%%EndComments
%%BeginProlog
/m {moveto} def
/l {lineto} def
/s {stroke} def
/n {newpath} def
/c {closepath} def
/RL {rlineto} def
/SLW {setlinewidth} def
/GS {gsave} def
/GR {grestore} def
/SC {setcolor} def
/SGRY {setgray} def
/SRGB {setrgbcolor} def
/SD {setdash} def
/SLC {setlinecap} def
/SLJ {setlinejoin} def
/SCS {setcolorspace} def
/FFSF {findfont setfont} def
/CC {concat} def
/PXL {n m 0 0 RL s} def
/Color0 {1.0000 1.0000 1.0000} def
/Color1 {0.0000 0.0000 0.0000} def
/Color2 {1.0000 0.0000 0.0000} def
/Color3 {0.0000 1.0000 0.0000} def
/Color4 {0.0000 0.0000 1.0000} def
/Color5 {1.0000 1.0000 0.0000} def
/Color6 {0.7373 0.5608 0.5608} def
/Color7 {0.8627 0.8627 0.8627} def
/Color8 {0.5804 0.0000 0.8275} def
/Color9 {0.0000 1.0000 1.0000} def
/Color10 {1.0000 0.0000 1.0000} def
/Color11 {1.0000 0.6471 0.0000} def
/Color12 {0.4471 0.1294 0.7373} def
/Color13 {0.4039 0.0275 0.2824} def
/Color14 {0.2510 0.8784 0.8157} def
/Color15 {0.0000 0.5451 0.0000} def
/Color16 {0.7529 0.7529 0.7529} def
/Color17 {0.5059 0.5059 0.5059} def
/Color18 {0.2588 0.2588 0.2588} def
/PTRN {
 /pat_bits exch def 
 <<
  /PaintType 2
  /PatternType 1 /TilingType 1
  /BBox[0 0 16 16]
  /XStep 16 /YStep 16
  /PaintProc {
   pop
   16 16 true [-1 0 0 -1 16 16] pat_bits imagemask
  }
 >>
 [0.0016 0 0 0.0016 0 0]
 makepattern
} def
/Pattern0 {<0000000000000000000000000000000000000000000000000000000000000000> PTRN} bind def
/Pattern1 {<ffffffffffffffffffffffffffffffffffffffffffffffffffffffffffffffff> PTRN} bind def
/Pattern2 {<eeeeffffbbbbffffeeeeffffbbbbffffeeeeffffbbbbffffeeeeffffbbbbffff> PTRN} bind def
/Pattern3 {<eeeebbbbeeeebbbbeeeebbbbeeeebbbbeeeebbbbeeeebbbbeeeebbbbeeeebbbb> PTRN} bind def
/Pattern4 {<5555aaaa5555aaaa5555aaaa5555aaaa5555aaaa5555aaaa5555aaaa5555aaaa> PTRN} bind def
/Pattern5 {<1111444411114444111144441111444411114444111144441111444411114444> PTRN} bind def
/Pattern6 {<1111000044440000111100004444000011110000444400001111000044440000> PTRN} bind def
/Pattern7 {<1010000000000000010100000000000010100000000000000101000000000000> PTRN} bind def
/Pattern8 {<0000000000000000000000000000000000000000000000000000000000000000> PTRN} bind def
/Pattern9 {<1e1e0f0f8787c3c3e1e1f0f078783c3c1e1e0f0f8787c3c3e1e1f0f078783c3c> PTRN} bind def
/Pattern10 {<7878f0f0e1e1c3c387870f0f1e1e3c3c7878f0f0e1e1c3c387870f0f1e1e3c3c> PTRN} bind def
/Pattern11 {<3333333333333333333333333333333333333333333333333333333333333333> PTRN} bind def
/Pattern12 {<ffffffff00000000ffffffff00000000ffffffff00000000ffffffff00000000> PTRN} bind def
/Pattern13 {<8181424224241818181824244242818181814242242418181818242442428181> PTRN} bind def
/Pattern14 {<8080404020201010080804040202010180804040202010100808040402020101> PTRN} bind def
/Pattern15 {<0101020204040808101020204040808001010202040408081010202040408080> PTRN} bind def
/Pattern16 {<2222222222222222222222222222222222222222222222222222222222222222> PTRN} bind def
/Pattern17 {<0000ffff000000000000ffff000000000000ffff000000000000ffff00000000> PTRN} bind def
/Pattern18 {<2222ffff222222222222ffff222222222222ffff222222222222ffff22222222> PTRN} bind def
/Pattern19 {<ffffffff33333333ffffffff33333333ffffffff33333333ffffffff33333333> PTRN} bind def
/Pattern20 {<0f0f0f0f0f0f0f0ff0f0f0f0f0f0f0f00f0f0f0f0f0f0f0ff0f0f0f0f0f0f0f0> PTRN} bind def
/Pattern21 {<ff00ff00ff00ff00ff00ff00ff00ff0000ff00ff00ff00ff00ff00ff00ff00ff> PTRN} bind def
/Pattern22 {<8001800180018001800180018001ffffffff8001800180018001800180018001> PTRN} bind def
/Pattern23 {<c003c003c003c003c003c003ffffffffffffffffc003c003c003c003c003c003> PTRN} bind def
/Pattern24 {<040404040404ffff404040404040ffff040404040404ffff404040404040ffff> PTRN} bind def
/Pattern25 {<180018001800180018001800ffffffff001800180018001800180018ffffffff> PTRN} bind def
/Pattern26 {<1111b8b87c7c3a3a1111a3a3c7c78b8b1111b8b87c7c3a3a1111a3a3c7c78b8b> PTRN} bind def
/Pattern27 {<101010102828c7c70101010182827c7c101010102828c7c70101010182827c7c> PTRN} bind def
/Pattern28 {<1c1c121211112121c1c12121111112121c1c121211112121c1c1212111111212> PTRN} bind def
/Pattern29 {<3e3e414180808080e3e31414080808083e3e414180808080e3e3141408080808> PTRN} bind def
/Pattern30 {<4848888884848383848488884848383848488888848483838484888848483838> PTRN} bind def
/Pattern31 {<03030404080808080c0c12122121c0c003030404080808080c0c12122121c0c0> PTRN} bind def
/ellipsedict 8 dict def
ellipsedict /mtrx matrix put
/EARC {
 ellipsedict begin
  /endangle exch def
  /startangle exch def
  /yrad exch def
  /xrad exch def
  /y exch def
  /x exch def
  /savematrix mtrx currentmatrix def
  x y translate
  xrad yrad scale
  0 0 1 startangle endangle arc
  savematrix setmatrix
 end
} def
/TL {
  /kcomp exch def
  /linewidth exch def
  /offset exch def
  GS
  0 offset rmoveto
  linewidth SLW
  dup stringwidth exch kcomp add exch RL s
  GR
} def
/KINIT
{
 /kvector exch def
 /kid 0 def
} def
/KPROC
{
 pop pop
 kvector kid get
 0 rmoveto
 /kid 1 kid add def
} def
/DefEncoding [
 /.notdef
 /.notdef
 /.notdef
 /.notdef
 /.notdef
 /.notdef
 /.notdef
 /.notdef
 /.notdef
 /.notdef
 /.notdef
 /.notdef
 /.notdef
 /.notdef
 /.notdef
 /.notdef
 /.notdef
 /.notdef
 /.notdef
 /.notdef
 /.notdef
 /.notdef
 /.notdef
 /.notdef
 /.notdef
 /.notdef
 /.notdef
 /.notdef
 /.notdef
 /.notdef
 /.notdef
 /.notdef
 /space
 /exclam
 /quotedbl
 /numbersign
 /dollar
 /percent
 /ampersand
 /quoteright
 /parenleft
 /parenright
 /asterisk
 /plus
 /comma
 /hyphen
 /period
 /slash
 /zero
 /one
 /two
 /three
 /four
 /five
 /six
 /seven
 /eight
 /nine
 /colon
 /semicolon
 /less
 /equal
 /greater
 /question
 /at
 /A
 /B
 /C
 /D
 /E
 /F
 /G
 /H
 /I
 /J
 /K
 /L
 /M
 /N
 /O
 /P
 /Q
 /R
 /S
 /T
 /U
 /V
 /W
 /X
 /Y
 /Z
 /bracketleft
 /backslash
 /bracketright
 /asciicircum
 /underscore
 /grave
 /a
 /b
 /c
 /d
 /e
 /f
 /g
 /h
 /i
 /j
 /k
 /l
 /m
 /n
 /o
 /p
 /q
 /r
 /s
 /t
 /u
 /v
 /w
 /x
 /y
 /z
 /braceleft
 /bar
 /braceright
 /asciitilde
 /.notdef
 /.notdef
 /.notdef
 /.notdef
 /.notdef
 /.notdef
 /.notdef
 /.notdef
 /.notdef
 /.notdef
 /.notdef
 /.notdef
 /.notdef
 /.notdef
 /.notdef
 /.notdef
 /.notdef
 /.notdef
 /.notdef
 /.notdef
 /.notdef
 /.notdef
 /.notdef
 /.notdef
 /.notdef
 /.notdef
 /.notdef
 /.notdef
 /.notdef
 /.notdef
 /.notdef
 /.notdef
 /.notdef
 /space
 /exclamdown
 /cent
 /sterling
 /currency
 /yen
 /brokenbar
 /section
 /dieresis
 /copyright
 /ordfeminine
 /guillemotleft
 /logicalnot
 /hyphen
 /registered
 /macron
 /degree
 /plusminus
 /twosuperior
 /threesuperior
 /acute
 /mu
 /paragraph
 /periodcentered
 /cedilla
 /onesuperior
 /ordmasculine
 /guillemotright
 /onequarter
 /onehalf
 /threequarters
 /questiondown
 /Agrave
 /Aacute
 /Acircumflex
 /Atilde
 /Adieresis
 /Aring
 /AE
 /Ccedilla
 /Egrave
 /Eacute
 /Ecircumflex
 /Edieresis
 /Igrave
 /Iacute
 /Icircumflex
 /Idieresis
 /Eth
 /Ntilde
 /Ograve
 /Oacute
 /Ocircumflex
 /Otilde
 /Odieresis
 /multiply
 /Oslash
 /Ugrave
 /Uacute
 /Ucircumflex
 /Udieresis
 /Yacute
 /Thorn
 /germandbls
 /agrave
 /aacute
 /acircumflex
 /atilde
 /adieresis
 /aring
 /ae
 /ccedilla
 /egrave
 /eacute
 /ecircumflex
 /edieresis
 /igrave
 /iacute
 /icircumflex
 /idieresis
 /eth
 /ntilde
 /ograve
 /oacute
 /ocircumflex
 /otilde
 /odieresis
 /divide
 /oslash
 /ugrave
 /uacute
 /ucircumflex
 /udieresis
 /yacute
 /thorn
 /ydieresis
] def
%%EndProlog
%%BeginSetup
%%EndSetup
612.00 612.00 scale
n
0.0000 0.0000 m
0.0000 1.2941 l
1.0000 1.2941 l
1.0000 0.0000 l
c
[/DeviceRGB] SCS
Color0 SC
fill
[/DeviceRGB] SCS
Color2 SC
[] 0 SD
0.0015 SLW
0 SLC
0 SLJ
n
0.1241 0.4276 m
0.1242 0.4276 l
0.1685 0.4287 l
0.2028 0.4299 l
0.2309 0.4312 l
0.2547 0.4323 l
0.2752 0.4334 l
0.2934 0.4345 l
0.3096 0.4358 l
0.3096 0.4358 l
0.4163 0.4479 l
0.4788 0.4607 l
0.5231 0.4741 l
0.5574 0.4882 l
0.5855 0.5029 l
0.6092 0.5181 l
0.6298 0.5337 l
0.6479 0.5498 l
0.6642 0.5666 l
0.6788 0.5836 l
0.6922 0.6011 l
0.7046 0.6189 l
0.7160 0.6371 l
0.7266 0.6555 l
0.7365 0.6743 l
0.7459 0.6932 l
0.7547 0.7125 l
0.7630 0.7319 l
0.7709 0.7515 l
s
[/DeviceRGB] SCS
Color9 SC
n
0.1241 0.4210 m
0.1242 0.4210 l
0.1685 0.4199 l
0.2028 0.4189 l
0.2309 0.4178 l
0.2547 0.4168 l
0.2752 0.4157 l
0.2934 0.4147 l
0.3096 0.4137 l
0.3096 0.4137 l
0.4163 0.4041 l
0.4788 0.3954 l
0.5231 0.3876 l
0.5574 0.3806 l
0.5855 0.3742 l
0.6092 0.3685 l
0.6298 0.3633 l
0.6479 0.3587 l
0.6642 0.3545 l
0.6788 0.3507 l
0.6922 0.3474 l
0.7046 0.3443 l
0.7160 0.3415 l
0.7266 0.3391 l
0.7365 0.3368 l
0.7459 0.3348 l
0.7547 0.3329 l
0.7630 0.3313 l
0.7709 0.3297 l
s
[/DeviceRGB] SCS
Color1 SC
n
0.1242 0.2386 m
0.8333 0.2386 l
s
n
0.1242 0.7958 m
0.8333 0.7958 l
s
n
0.1242 0.2386 m
0.1242 0.2486 l
s
n
0.1242 0.7958 m
0.1242 0.7858 l
s
n
0.1685 0.2386 m
0.1685 0.2486 l
s
n
0.1685 0.7958 m
0.1685 0.7858 l
s
n
0.2028 0.2386 m
0.2028 0.2486 l
s
n
0.2028 0.7958 m
0.2028 0.7858 l
s
n
0.2309 0.2386 m
0.2309 0.2486 l
s
n
0.2309 0.7958 m
0.2309 0.7858 l
s
n
0.2547 0.2386 m
0.2547 0.2486 l
s
n
0.2547 0.7958 m
0.2547 0.7858 l
s
n
0.2752 0.2386 m
0.2752 0.2486 l
s
n
0.2752 0.7958 m
0.2752 0.7858 l
s
n
0.2934 0.2386 m
0.2934 0.2486 l
s
n
0.2934 0.7958 m
0.2934 0.7858 l
s
n
0.3096 0.2386 m
0.3096 0.2486 l
s
n
0.3096 0.7958 m
0.3096 0.7858 l
s
n
0.4163 0.2386 m
0.4163 0.2486 l
s
n
0.4163 0.7958 m
0.4163 0.7858 l
s
n
0.4788 0.2386 m
0.4788 0.2486 l
s
n
0.4788 0.7958 m
0.4788 0.7858 l
s
n
0.5231 0.2386 m
0.5231 0.2486 l
s
n
0.5231 0.7958 m
0.5231 0.7858 l
s
n
0.5574 0.2386 m
0.5574 0.2486 l
s
n
0.5574 0.7958 m
0.5574 0.7858 l
s
n
0.5855 0.2386 m
0.5855 0.2486 l
s
n
0.5855 0.7958 m
0.5855 0.7858 l
s
n
0.6092 0.2386 m
0.6092 0.2486 l
s
n
0.6092 0.7958 m
0.6092 0.7858 l
s
n
0.6298 0.2386 m
0.6298 0.2486 l
s
n
0.6298 0.7958 m
0.6298 0.7858 l
s
n
0.6479 0.2386 m
0.6479 0.2486 l
s
n
0.6479 0.7958 m
0.6479 0.7858 l
s
n
0.6642 0.2386 m
0.6642 0.2486 l
s
n
0.6642 0.7958 m
0.6642 0.7858 l
s
n
0.7709 0.2386 m
0.7709 0.2486 l
s
n
0.7709 0.7958 m
0.7709 0.7858 l
s
n
0.8333 0.2386 m
0.8333 0.2486 l
s
n
0.8333 0.7958 m
0.8333 0.7858 l
s
n
0.3096 0.2386 m
0.3096 0.2586 l
s
n
0.3096 0.7958 m
0.3096 0.7758 l
s
n
0.6642 0.2386 m
0.6642 0.2586 l
s
n
0.6642 0.7958 m
0.6642 0.7758 l
s
/Times-Roman findfont
dup length dict begin
 {1 index /FID ne {def} {pop pop} ifelse} forall
 /Encoding DefEncoding def
 currentdict
end
/Font0 exch definefont pop
/Font0 FFSF
0.2935 0.2093 m
GS
[0.0280 0.0000 0.0000 0.0280 0 0] CC
(0.1) show
GR
/Font0 FFSF
0.6587 0.2093 m
GS
[0.0280 0.0000 0.0000 0.0280 0 0] CC
(1) show
GR
/Font0 FFSF
0.4615 0.1801 m
GS
[0.0280 0.0000 0.0000 0.0280 0 0] CC
(M) show
GR
/Font0 FFSF
0.4866 0.1689 m
GS
[0.0198 0.0000 0.0000 0.0198 0 0] CC
(x) show
GR
n
0.1242 0.2386 m
0.1242 0.7958 l
s
n
0.8333 0.2386 m
0.8333 0.7958 l
s
n
0.1242 0.3005 m
0.1342 0.3005 l
s
n
0.8333 0.3005 m
0.8233 0.3005 l
s
n
0.1242 0.3624 m
0.1342 0.3624 l
s
n
0.8333 0.3624 m
0.8233 0.3624 l
s
n
0.1242 0.4862 m
0.1342 0.4862 l
s
n
0.8333 0.4862 m
0.8233 0.4862 l
s
n
0.1242 0.5481 m
0.1342 0.5481 l
s
n
0.8333 0.5481 m
0.8233 0.5481 l
s
n
0.1242 0.6719 m
0.1342 0.6719 l
s
n
0.8333 0.6719 m
0.8233 0.6719 l
s
n
0.1242 0.7338 m
0.1342 0.7338 l
s
n
0.8333 0.7338 m
0.8233 0.7338 l
s
n
0.1242 0.2386 m
0.1442 0.2386 l
s
n
0.8333 0.2386 m
0.8133 0.2386 l
s
n
0.1242 0.4243 m
0.1442 0.4243 l
s
n
0.8333 0.4243 m
0.8133 0.4243 l
s
n
0.1242 0.6100 m
0.1442 0.6100 l
s
n
0.8333 0.6100 m
0.8133 0.6100 l
s
n
0.1242 0.7958 m
0.1442 0.7958 l
s
n
0.8333 0.7958 m
0.8133 0.7958 l
s
/Font0 FFSF
0.1008 0.2292 m
GS
[0.0280 0.0000 0.0000 0.0280 0 0] CC
(0) show
GR
/Font0 FFSF
0.1032 0.4147 m
GS
[0.0280 0.0000 0.0000 0.0280 0 0] CC
(1) show
GR
/Font0 FFSF
0.1008 0.6004 m
GS
[0.0280 0.0000 0.0000 0.0280 0 0] CC
(2) show
GR
/Font0 FFSF
0.1020 0.7863 m
GS
[0.0280 0.0000 0.0000 0.0280 0 0] CC
(3) show
GR
n
0.1242 0.2386 m
0.1242 0.7958 l
0.8333 0.7958 l
0.8333 0.2386 l
0.1242 0.2386 l
c
s
n
0.3367 0.7700 m
0.3367 0.6752 l
0.4598 0.6752 l
0.4598 0.7700 l
c
[/DeviceRGB] SCS
Color0 SC
fill
/Font0 FFSF
[/DeviceRGB] SCS
Color1 SC
0.4074 0.7412 m
GS
[0.0280 0.0000 0.0000 0.0280 0 0] CC
(M) show
GR
/Font0 FFSF
0.4325 0.7300 m
GS
[0.0198 0.0000 0.0000 0.0198 0 0] CC
(sx) show
GR
[/DeviceRGB] SCS
Color2 SC
n
0.3474 0.7448 m
0.3874 0.7448 l
s
/Font0 FFSF
[/DeviceRGB] SCS
Color1 SC
0.4074 0.7008 m
GS
[0.0280 0.0000 0.0000 0.0280 0 0] CC
(M) show
GR
/Font0 FFSF
0.4325 0.6896 m
GS
[0.0198 0.0000 0.0000 0.0198 0 0] CC
(sy) show
GR
[/DeviceRGB] SCS
Color9 SC
n
0.3474 0.7024 m
0.3874 0.7024 l
s
/Font0 FFSF
[/DeviceRGB] SCS
Color1 SC
0.1915 0.8652 m
GS
[0.0420 0.0000 0.0000 0.0420 0 0] CC
(Shock in A Suddenly Close Valve) show
GR
/Font0 FFSF
0.4397 0.8158 m
GS
[0.0280 0.0000 0.0000 0.0280 0 0] CC
(k = 1 4) show
GR
n
0.8775 0.7729 m
0.8775 0.7727 l
0.8778 0.7727 l
0.8778 0.7729 l
0.8775 0.7729 l
c
s
/Font0 FFSF
0.0300 0.0900 m
GS
[0.0280 0.0000 0.0000 0.0280 0 0] CC
(Thu Aug  3 18:54:21 2006) show
GR
%%Trailer
%%BoundingBox: 17 50 539 549
%%DocumentNeededResources: font Times-Roman
%%EOF
