set terminal png size 500,300; set zeroaxis;; 
set term png
set out "/home/genick/maxout_3.png"
set xlabel "k1"
set ylabel "k5"
set zlabel "Ms1"
set xrange [1.1     : 2.    ]
set yrange [1.1     : 2.    ]
set datafile missing "NaN"
splot "-" title "Function" with pm3d
1.1     1.1     21.047511554864478     
1.1300000000000001     1.1     16.227282068175604     
1.1600000000000001     1.1     13.221859007445563     
1.1900000000000002     1.1     11.17139263645962     
1.2200000000000002     1.1     9.685043586913638     
1.2500000000000002     1.1     8.55957657653785     
1.2800000000000002     1.1     7.678858295840129     
1.3100000000000003     1.1     6.9717114468735     
1.3400000000000003     1.1     6.392081403620207     
1.3700000000000003     1.1     5.908851554319191     
1.4000000000000004     1.1     5.500241752905371     
1.4300000000000004     1.1     5.1505516058433365     
1.4600000000000004     1.1     4.848178117898725     
1.4900000000000004     1.1     4.58436153731255     
1.5200000000000005     1.1     4.352365316066654     
1.5500000000000005     1.1     4.146924429917208     
1.5800000000000005     1.1     3.963864892302139     
1.6100000000000005     1.1     3.7998355262173873     
1.6400000000000006     1.1     3.6521151597065695     
1.6700000000000006     1.1     3.5184716054243483     
1.7000000000000006     1.1     3.397056890004348     
1.7300000000000006     1.1     3.286328306298677     
1.7600000000000007     1.1     3.184988154369351     
1.7900000000000007     1.1     3.0919372044757325     
1.8200000000000007     1.1     3.006238368979067     
1.8500000000000008     1.1     2.9270880619752155     
1.8800000000000008     1.1     2.8537934130059743     
1.9100000000000008     1.1     2.7857539847302952     
1.9400000000000008     1.1     2.722446989073679     
1.9700000000000009     1.1     2.6634152450781725     
2.000000000000001     1.1     2.608257303229507     

1.1     1.1300000000000001     21.331316767752245     
1.1300000000000001     1.1300000000000001     16.44542257854571     
1.1600000000000001     1.1300000000000001     13.398920399213543     
1.1900000000000002     1.1300000000000001     11.320315043351064     
1.2200000000000002     1.1300000000000001     9.813474181210573     
1.2500000000000002     1.1300000000000001     8.67241050805475     
1.2800000000000002     1.1300000000000001     7.779418364101946     
1.3100000000000003     1.1300000000000001     7.0623569211964785     
1.3400000000000003     1.1300000000000001     6.474548209157328     
1.3700000000000003     1.1300000000000001     5.98445451347126     
1.4000000000000004     1.1300000000000001     5.570000959914715     
1.4300000000000004     1.1300000000000001     5.215274695525423     
1.4600000000000004     1.1300000000000001     4.908515689994624     
1.4900000000000004     1.1300000000000001     4.640845600167504     
1.5200000000000005     1.1300000000000001     4.405436629851099     
1.5500000000000005     1.1300000000000001     4.196952384314404     
1.5800000000000005     1.1300000000000001     4.011162237343748     
1.6100000000000005     1.1300000000000001     3.844669476548075     
1.6400000000000006     1.1300000000000001     3.6947158935462965     
1.6700000000000006     1.1300000000000001     3.5590388592317797     
1.7000000000000006     1.1300000000000001     3.4357651393876543     
1.7300000000000006     1.1300000000000001     3.3233308824616046     
1.7600000000000007     1.1300000000000001     3.220420548740025     
1.7900000000000007     1.1300000000000001     3.1259197468959927     
1.8200000000000007     1.1300000000000001     3.038878417263205     
1.8500000000000008     1.1300000000000001     2.9584818065211764     
1.8800000000000008     1.1300000000000001     2.884027375334507     
1.9100000000000008     1.1300000000000001     2.814906270572809     
1.9400000000000008     1.1300000000000001     2.75058834304473     
1.9700000000000009     1.1300000000000001     2.6906099437527526     
2.000000000000001     1.1300000000000001     2.63456391568812     

1.1     1.1600000000000001     21.611395243416922     
1.1300000000000001     1.1600000000000001     16.660707041250607     
1.1600000000000001     1.1600000000000001     13.573672031978079     
1.1900000000000002     1.1600000000000001     11.46730313776797     
1.2200000000000002     1.1600000000000001     9.940244849955658     
1.2500000000000002     1.1600000000000001     8.783794116652988     
1.2800000000000002     1.1600000000000001     7.878693649113997     
1.3100000000000003     1.1600000000000001     7.15185178497705     
1.3400000000000003     1.1600000000000001     6.555975423317989     
1.3700000000000003     1.1600000000000001     6.05911129675275     
1.4000000000000004     1.1600000000000001     5.638893689498272     
1.4300000000000004     1.1600000000000001     5.279200093807708     
1.4600000000000004     1.1600000000000001     4.9681155206257195     
1.4900000000000004     1.1600000000000001     4.696644606957845     
1.5200000000000005     1.1600000000000001     4.457869521216008     
1.5500000000000005     1.1600000000000001     4.246383450257328     
1.5800000000000005     1.1600000000000001     4.05789988710516     
1.6100000000000005     1.1600000000000001     3.888977197182937     
1.6400000000000006     1.1600000000000001     3.7368206372658546     
1.6700000000000006     1.1600000000000001     3.599137551305768     
1.7000000000000006     1.1600000000000001     3.4740297907215587     
1.7300000000000006     1.1600000000000001     3.359912651566858     
1.7600000000000007     1.1600000000000001     3.2554530024468784     
1.7900000000000007     1.1600000000000001     3.1595215027733774     
1.8200000000000007     1.1600000000000001     3.0711553037649915     
1.8500000000000008     1.1600000000000001     2.989528643199088     
1.8800000000000008     1.1600000000000001     2.9139294509740497     
1.9100000000000008     1.1600000000000001     2.843740579091339     
1.9400000000000008     1.1600000000000001     2.7784246235820267     
1.9700000000000009     1.1600000000000001     2.7175115613006673     
2.000000000000001     1.1600000000000001     2.660588610948482     

1.1     1.1900000000000002     21.887890050130178     
1.1300000000000001     1.1900000000000002     16.873244788375022     
1.1600000000000001     1.1900000000000002     13.746202016906027     
1.1900000000000002     1.1900000000000002     11.612430406739296     
1.2200000000000002     1.1900000000000002     10.065418363786398     
1.2500000000000002     1.1900000000000002     8.893781966762331     
1.2800000000000002     1.1900000000000002     7.9767322210573965     
1.3100000000000003     1.1900000000000002     7.2402388369861175     
1.3400000000000003     1.1900000000000002     6.636401479725306     
1.3700000000000003     1.1900000000000002     6.132856664769661     
1.4000000000000004     1.1900000000000002     5.706951571158409     
1.4300000000000004     1.1900000000000002     5.342356732323334     
1.4600000000000004     1.1900000000000002     5.027004196051171     
1.4900000000000004     1.1900000000000002     4.751783089681133     
1.5200000000000005     1.1900000000000002     4.509686711387056     
1.5500000000000005     1.1900000000000002     4.295238744075286     
1.5800000000000005     1.1900000000000002     4.104097528711595     
1.6100000000000005     1.1900000000000002     3.932777097173539     
1.6400000000000006     1.1900000000000002     3.7784466527373577     
1.6700000000000006     1.1900000000000002     3.638783910378083     
1.7000000000000006     1.1900000000000002     3.5118661394625486     
1.7300000000000006     1.1900000000000002     3.396088063640746     
1.7600000000000007     1.1900000000000002     3.290099197662741     
1.7900000000000007     1.1900000000000002     3.1927554551753032     
1.8200000000000007     1.1900000000000002     3.1030813735610647     
1.8500000000000008     1.1900000000000002     3.0202403335768815     
1.8800000000000008     1.1900000000000002     2.9435108666780883     
1.9100000000000008     1.1900000000000002     2.872267645849323     
1.9400000000000008     1.1900000000000002     2.8059661142274304     
1.9700000000000009     1.1900000000000002     2.7441299644825756     
2.000000000000001     1.1900000000000002     2.6863408707583245     

1.1     1.2200000000000002     22.16093532983607     
1.1300000000000001     1.2200000000000002     17.08313834918386     
1.1600000000000001     1.2200000000000002     13.91659300106263     
1.1900000000000002     1.2200000000000002     11.75576579779078     
1.2200000000000002     1.2200000000000002     10.189053632693739     
1.2500000000000002     1.2200000000000002     9.002425282779301     
1.2800000000000002     1.2200000000000002     8.073579222428847     
1.3100000000000003     1.2200000000000002     7.3275582830345805     
1.3400000000000003     1.2200000000000002     6.71586249599602     
1.3700000000000003     1.2200000000000002     6.2057232947599905     
1.4000000000000004     1.2200000000000002     5.774204348820025     
1.4300000000000004     1.2200000000000002     5.404771826947894     
1.4600000000000004     1.2200000000000002     5.0852067337571265     
1.4900000000000004     1.2200000000000002     4.806284139638664     
1.5200000000000005     1.2200000000000002     4.560909593130063     
1.5500000000000005     1.2200000000000002     4.343538152473553     
1.5800000000000005     1.2200000000000002     4.149773707071012     
1.6100000000000005     1.2200000000000002     3.976086520946903     
1.6400000000000006     1.2200000000000002     3.8196102063256148     
1.6700000000000006     1.2200000000000002     3.6779932314354773     
1.7000000000000006     1.2200000000000002     3.5492886026754182     
1.7300000000000006     1.2200000000000002     3.4318707400665605     
1.7600000000000007     1.2200000000000002     3.3243720327494075     
1.7900000000000007     1.2200000000000002     3.2256338438649053     
1.8200000000000007     1.2200000000000002     3.1346682651159123     
1.8500000000000008     1.2200000000000002     3.0506279659302966     
1.8800000000000008     1.2200000000000002     2.972782206240267     
1.9100000000000008     1.2200000000000002     2.90049759113026     
1.9400000000000008     1.2200000000000002     2.8332225085630967     
1.9700000000000009     1.2200000000000002     2.770474453316323     
2.000000000000001     1.2200000000000002     2.711829631460933     

1.1     1.2500000000000002     22.430657058939723     
1.1300000000000001     1.2500000000000002     17.290484028396463     
1.1600000000000001     1.2500000000000002     14.084922630400575     
1.1900000000000002     1.2500000000000002     11.897374102170682     
1.2200000000000002     1.2500000000000002     10.311206030605618     
1.2500000000000002     1.2500000000000002     9.109772228646436     
1.2800000000000002     1.2500000000000002     8.169277111977628     
1.3100000000000003     1.2500000000000002     7.413847951006204     
1.3400000000000003     1.2500000000000002     6.794392464904161     
1.3700000000000003     1.2500000000000002     6.277741951765351     
1.4000000000000004     1.2500000000000002     5.840680035069315     
1.4300000000000004     1.2500000000000002     5.466471017567345     
1.4600000000000004     1.2500000000000002     5.142746709767167     
1.4900000000000004     1.2500000000000002     4.860169523956394     
1.5200000000000005     1.2500000000000002     4.6115583378787415     
1.5500000000000005     1.2500000000000002     4.391300431446906     
1.5800000000000005     1.2500000000000002     4.194945916575685     
1.6100000000000005     1.2500000000000002     4.018921833651998     
1.6400000000000006     1.2500000000000002     3.8603266486155015     
1.6700000000000006     1.2500000000000002     3.716779950462543     
1.7000000000000006     1.2500000000000002     3.586310789340599     
1.7300000000000006     1.2500000000000002     3.467273539932686     
1.7600000000000007     1.2500000000000002     3.358283685060888     
1.7900000000000007     1.2500000000000002     3.258168224920694     
1.8200000000000007     1.2500000000000002     3.1659269670336867     
1.8500000000000008     1.2500000000000002     3.0807020094034065     
1.8800000000000008     1.2500000000000002     3.0017534623063815     
1.9100000000000008     1.2500000000000002     2.9284399696147045     
1.9400000000000008     1.2500000000000002     2.860202957941748     
1.9700000000000009     1.2500000000000002     2.7965538070268385     
2.000000000000001     1.2500000000000002     2.737063328311998     

1.1     1.2800000000000002     22.697173727702847     
1.1300000000000001     1.2800000000000002     17.49537242275143     
1.1600000000000001     1.2800000000000002     14.251263963493834     
1.1900000000000002     1.2800000000000002     12.037316297448974     
1.2200000000000002     1.2800000000000002     10.431927685693037     
1.2500000000000002     1.2800000000000002     9.215868158026927     
1.2800000000000002     1.2800000000000002     8.263865883094047     
1.3100000000000003     1.2800000000000002     7.499143483463566     
1.3400000000000003     1.2800000000000002     6.872023425688575     
1.3700000000000003     1.2800000000000002     6.348941642091741     
1.4000000000000004     1.2800000000000002     5.906405049490552     
1.4300000000000004     1.2800000000000002     5.527478493481696     
1.4600000000000004     1.2800000000000002     5.199646372904526     
1.4900000000000004     1.2800000000000002     4.913459790190198     
1.5200000000000005     1.2800000000000002     4.661651991926181     
1.5500000000000005     1.2800000000000002     4.438543295107477     
1.5800000000000005     1.2800000000000002     4.239630683459732     
1.6100000000000005     1.2800000000000002     4.061298497811264     
1.6400000000000006     1.2800000000000002     3.900610486014502     
1.6700000000000006     1.2800000000000002     3.755157711562303     
1.7000000000000006     1.2800000000000002     3.622945563483843     
1.7300000000000006     1.2800000000000002     3.502308619597849     
1.7600000000000007     1.2800000000000002     3.391845667315579     
1.7900000000000007     1.2800000000000002     3.2903695242398183     
1.8200000000000007     1.2800000000000002     3.196867868976148     
1.8500000000000008     1.2800000000000002     3.1104723625898774     
1.8800000000000008     1.2800000000000002     3.030434082837394     
1.9100000000000008     1.2800000000000002     2.956103814917389     
1.9400000000000008     1.2800000000000002     2.8869161142676107     
1.9700000000000009     1.2800000000000002     2.8223763252209615     
2.000000000000001     1.2800000000000002     2.7620499351813295     

1.1     1.3100000000000003     22.960596948642713     
1.1300000000000001     1.3100000000000003     17.69788888372506     
1.1600000000000001     1.3100000000000003     14.415685842273858     
1.1900000000000002     1.3100000000000003     12.175649854634102     
1.2200000000000002     1.3100000000000003     10.551267740723143     
1.2500000000000002     1.3100000000000003     9.320755838770445     
1.2800000000000002     1.3100000000000003     8.3573832598483     
1.3100000000000003     1.3100000000000003     7.583478510624696     
1.3400000000000003     1.3100000000000003     6.948785617972501     
1.3700000000000003     1.3100000000000003     6.419349751253966     
1.4000000000000004     1.3100000000000003     5.971404343065702     
1.4300000000000004     1.3100000000000003     5.587817106215071     
1.4600000000000004     1.3100000000000003     5.255926747611535     
1.4900000000000004     1.3100000000000003     4.9661743604796715     
1.5200000000000005     1.3100000000000003     4.711208563022928     
1.5500000000000005     1.3100000000000003     4.4852834956650725     
1.5800000000000005     1.3100000000000003     4.283843639960058     
1.6100000000000005     1.3100000000000003     4.103231142345681     
1.6400000000000006     1.3100000000000003     3.940475445229952     
1.6700000000000006     1.3100000000000003     3.793139427393601     
1.7000000000000006     1.3100000000000003     3.6592051010140403     
1.7300000000000006     1.3100000000000003     3.536987486312149     
1.7600000000000007     1.3100000000000003     3.4250688783341503     
1.7900000000000007     1.3100000000000003     3.3222480856843375     
1.8200000000000007     1.3100000000000003     3.227500807472603     
1.8500000000000008     1.3100000000000003     3.1399483972306146     
1.8800000000000008     1.3100000000000003     3.0588330128918253     
1.9100000000000008     1.3100000000000003     2.9834976796279973     
1.9400000000000008     1.3100000000000003     2.913370168448901     
1.9700000000000009     1.3100000000000003     2.8479498648873283     
2.000000000000001     1.3100000000000003     2.7867970002204796     

1.1     1.3400000000000003     23.221032002797187     
1.1300000000000001     1.3400000000000003     17.898113933109048     
1.1600000000000001     1.3400000000000003     14.578253225107234     
1.1900000000000002     1.3400000000000003     12.312429014198832     
1.2200000000000002     1.3400000000000003     10.66927258715333     
1.2500000000000002     1.3400000000000003     9.424475654828859     
1.2800000000000002     1.3400000000000003     8.449864873415349     
1.3100000000000003     1.3400000000000003     7.666884806104148     
1.3400000000000003     1.3400000000000003     7.024707620408211     
1.3700000000000003     1.3400000000000003     6.488992168283193     
1.4000000000000004     1.3400000000000003     6.035701510320251     
1.4300000000000004     1.3400000000000003     5.647508471249619     
1.4600000000000004     1.3400000000000003     5.311607726702422     
1.4900000000000004     1.3400000000000003     5.01833161650565     
1.5200000000000005     1.3400000000000003     4.760245098532815     
1.5500000000000005     1.3400000000000003     4.531536895621283     
1.5800000000000005     1.3400000000000003     4.327599591264053     
1.6100000000000005     1.3400000000000003     4.144733624888896     
1.6400000000000006     1.3400000000000003     3.9799345314772183     
1.6700000000000006     1.3400000000000003     3.8307373337294672     
1.7000000000000006     1.3400000000000003     3.695100941027505     
1.7300000000000006     1.3400000000000003     3.5713210466115948     
1.7600000000000007     1.3400000000000003     3.4579636488247836     
1.7900000000000007     1.3400000000000003     3.3538137145199065     
1.8200000000000007     1.3400000000000003     3.2578351072423843     
1.8500000000000008     1.3400000000000003     3.169138997622359     
1.8800000000000008     1.3400000000000003     3.086958732298564     
1.9100000000000008     1.3400000000000003     3.0106296714052467     
1.9400000000000008     1.3400000000000003     2.9395728850520197     
1.9700000000000009     1.3400000000000003     2.873281873733627     
2.000000000000001     1.3400000000000003     2.8113116779921774     

1.1     1.3700000000000003     23.478578331440097     
1.1300000000000001     1.3700000000000003     18.09612363718782     
1.1600000000000001     1.3700000000000003     14.739027486787661     
1.1900000000000002     1.3700000000000003     12.44770503477832     
1.2200000000000002     1.3700000000000003     10.785986076133545     
1.2500000000000002     1.3700000000000003     9.527065788331763     
1.2800000000000002     1.3700000000000003     8.541344421234097     
1.3100000000000003     1.3700000000000003     7.749392427474483     
1.3400000000000003     1.3700000000000003     7.099816475862409     
1.3700000000000003     1.3700000000000003     6.557893398013354     
1.4000000000000004     1.3700000000000003     6.099318890662892     
1.4300000000000004     1.3700000000000003     5.706573059988567     
1.4600000000000004     1.3700000000000003     5.3667081552335105     
1.4900000000000004     1.3700000000000003     5.069948976331532     
1.5200000000000005     1.3700000000000003     4.808777756137089     
1.5500000000000005     1.3700000000000003     4.577318533090536     
1.5800000000000005     1.3700000000000003     4.370912576090077     
1.6100000000000005     1.3700000000000003     4.185819088177915     
1.6400000000000006     1.3700000000000003     4.019000081155119     
1.6700000000000006     1.3700000000000003     3.867963038827812     
1.7000000000000006     1.3700000000000003     3.7306440322304106     
1.7300000000000006     1.3700000000000003     3.6053196501027553     
1.7600000000000007     1.3700000000000003     3.490539782801157     
1.7900000000000007     1.3700000000000003     3.385075716704465     
1.8200000000000007     1.3700000000000003     3.2878796185624766     
1.8500000000000008     1.3700000000000003     3.198052596247345     
1.8800000000000008     1.3700000000000003     3.1148192897098497     
1.9100000000000008     1.3700000000000003     3.037507485595618     
1.9400000000000008     1.3700000000000003     2.9655316336119624     
1.9700000000000009     1.3700000000000003     2.898379420300329     
2.000000000000001     1.3700000000000003     2.835600758486498     

1.1     1.4000000000000004     23.73332997976058     
1.1300000000000001     1.4000000000000004     18.291989944447785     
1.1600000000000001     1.4000000000000004     14.898066689372836     
1.1900000000000002     1.4000000000000004     12.581526417776784     
1.2200000000000002     1.4000000000000004     10.901449709142039     
1.2500000000000002     1.4000000000000004     9.628562384154831     
1.2800000000000002     1.4000000000000004     8.631853810923678     
1.3100000000000003     1.4000000000000004     7.8310298434200885     
1.3400000000000003     1.4000000000000004     7.17413780470796     
1.3700000000000003     1.4000000000000004     6.626076662740169     
1.4000000000000004     1.4000000000000004     6.162277660168375     
1.4300000000000004     1.4000000000000004     5.765030283075188     
1.4600000000000004     1.4000000000000004     5.421245906512986     
1.4900000000000004     1.4000000000000004     5.121042964060926     
1.5200000000000005     1.4000000000000004     4.856821867942159     
1.5500000000000005     1.4000000000000004     4.622642681036583     
1.5800000000000005     1.4000000000000004     4.41379592163115     
1.6100000000000005     1.4000000000000004     4.226500011200124     
1.6400000000000006     1.4000000000000004     4.057683809624004     
1.6700000000000006     1.4000000000000004     3.90482756821091     
1.7000000000000006     1.4000000000000004     3.7658447750414963     
1.7300000000000006     1.4000000000000004     3.6389931291692066     
1.7600000000000007     1.4000000000000004     3.522806595137827     
1.7900000000000007     1.4000000000000004     3.4160429345073875     
1.8200000000000007     1.4000000000000004     3.3176427511390814     
1.8500000000000008     1.4000000000000004     3.2266972060633083     
1.8800000000000008     1.4000000000000004     3.142422333456126     
1.9100000000000008     1.4000000000000004     3.064138434782376     
1.9400000000000008     1.4000000000000004     2.9912534169900136     
1.9700000000000009     1.4000000000000004     2.9232492212285868     
2.000000000000001     1.4000000000000004     2.859670693389233     

1.1     1.4300000000000004     23.985375998120432     
1.1300000000000001     1.4300000000000004     18.485780991070772     
1.1600000000000001     1.4300000000000004     15.055425827256645     
1.1900000000000002     1.4300000000000004     12.713939110675582     
1.2200000000000002     1.4300000000000004     11.015702810607605     
1.2500000000000002     1.4300000000000004     9.728999698996407     
1.2800000000000002     1.4300000000000004     8.721423290705179     
1.3100000000000003     1.4300000000000004     7.911824049015588     
1.3400000000000003     1.4300000000000004     7.247695907576532     
1.3700000000000003     1.4300000000000004     6.693563994459244     
1.4000000000000004     1.4300000000000004     6.224597914885169     
1.4300000000000004     1.4300000000000004     5.822898566043567     
1.4600000000000004     1.4300000000000004     5.4752379511358376     
1.4900000000000004     1.4300000000000004     5.17162927311966     
1.5200000000000005     1.4300000000000004     4.904391998732061     
1.5500000000000005     1.4300000000000004     4.667522901107567     
1.5800000000000005     1.4300000000000004     4.456262293494597     
1.6100000000000005     1.4300000000000004     4.266788255685437     
1.6400000000000006     1.4300000000000004     4.0959968546368     
1.6700000000000006     1.4300000000000004     3.9413414053701357     
1.7000000000000006     1.4300000000000004     3.800713059861609     
1.7300000000000006     1.4300000000000004     3.672350835059859     
1.7600000000000007     1.4300000000000004     3.5547729456995274     
1.7900000000000007     1.4300000000000004     3.446723778874574     
1.8200000000000007     1.4300000000000004     3.347132504879778     
1.8500000000000008     1.4300000000000004     3.2550804498335295     
1.8800000000000008     1.4300000000000004     3.169775139567073     
1.9100000000000008     1.4300000000000004     3.09052947561529     
1.9400000000000008     1.4300000000000004     3.0167448971164226     
1.9700000000000009     1.4300000000000004     2.947897666008431     
2.000000000000001     1.4300000000000004     2.88352761991789     

1.1     1.4600000000000004     24.234800805744147     
1.1300000000000001     1.4600000000000004     18.677561377890292     
1.1600000000000001     1.4600000000000004     15.211157049410744     
1.1900000000000002     1.4600000000000004     12.84498669146071     
1.2200000000000002     1.4600000000000004     11.128782684556555     
1.2500000000000002     1.4600000000000004     9.828410236709122     
1.2800000000000002     1.4600000000000004     8.810081567844938     
1.3100000000000003     1.4600000000000004     7.991800670458266     
1.3400000000000003     1.4600000000000004     7.320513858747828     
1.3700000000000003     1.4600000000000004     6.760376318730684     
1.4000000000000004     1.4600000000000004     6.286298746607562     
1.4300000000000004     1.4600000000000004     5.880195418149092     
1.4600000000000004     1.4600000000000004     5.52870041981352     
1.4900000000000004     1.4600000000000004     5.221722823864382     
1.5200000000000005     1.4600000000000004     4.951501999009818     
1.5500000000000005     1.4600000000000004     4.711972092663481     
1.5800000000000005     1.4600000000000004     4.498323741187634     
1.6100000000000005     1.4600000000000004     4.306695108455277     
1.6400000000000006     1.4600000000000004     4.133949815901173     
1.6700000000000006     1.4600000000000004     3.977514528844526     
1.7000000000000006     1.4600000000000004     3.8352583019325968     
1.7300000000000006     1.4600000000000004     3.705401670758587     
1.7600000000000007     1.4600000000000004     3.5864472704232386     
1.7900000000000007     1.4600000000000004     3.4771262589000216     
1.8200000000000007     1.4600000000000004     3.37635649791031     
1.8500000000000008     1.4600000000000004     3.2832095868261235     
1.8800000000000008     1.4600000000000004     3.196884637274651     
1.9100000000000008     1.4600000000000004     3.116687233224732     
1.9400000000000008     1.4600000000000004     3.0420124184106836     
1.9700000000000009     1.4600000000000004     2.9723308394897145     
2.000000000000001     1.4600000000000004     2.907177382498513     

1.1     1.4900000000000004     24.48168452105314     
1.1300000000000001     1.4900000000000004     18.867392422002663     
1.1600000000000001     1.4900000000000004     15.365309861342507     
1.1900000000000002     1.4900000000000004     12.97471053626986     
1.2200000000000002     1.4900000000000004     11.240724757055524     
1.2500000000000002     1.4900000000000004     9.92682487140502     
1.2800000000000002     1.4900000000000004     8.897855916437955     
1.3100000000000003     1.4900000000000004     8.070984060411288     
1.3400000000000003     1.4900000000000004     7.392613591198933     
1.3700000000000003     1.4900000000000004     6.826533531082678     
1.4000000000000004     1.4900000000000004     6.347398311930792     
1.4300000000000004     1.4900000000000004     5.936937495117642     
1.4600000000000004     1.4900000000000004     5.581648660669203     
1.4900000000000004     1.4900000000000004     5.27133781613008     
1.5200000000000005     1.4900000000000004     4.998165053389341     
1.5500000000000005     1.4900000000000004     4.75600253751376     
1.5800000000000005     1.4900000000000004     4.539991739628414     
1.6100000000000005     1.4900000000000004     4.346231320074456     
1.6400000000000006     1.4900000000000004     4.171552791189501     
1.6700000000000006     1.4900000000000004     4.0133564460641304     
1.7000000000000006     1.4900000000000004     3.8694894731537     
1.7300000000000006     1.4900000000000004     3.738154120983066     
1.7600000000000007     1.4900000000000004     3.617837609682952     
1.7900000000000007     1.4900000000000004     3.5072580087176797     
1.8200000000000007     1.4900000000000004     3.4053219921354096     
1.8500000000000008     1.4900000000000004     3.311091537169009     
1.8800000000000008     1.4900000000000004     3.223757432272849     
1.9100000000000008     1.4900000000000004     3.142618023484193     
1.9400000000000008     1.4900000000000004     3.067062029133755     
1.9700000000000009     1.4900000000000004     2.996554542401324     
2.000000000000001     1.4900000000000004     2.930625552520692     

1.1     1.5200000000000005     24.72610326230869     
1.1300000000000001     1.5200000000000005     19.05533238581166     
1.1600000000000001     1.5200000000000005     15.517931308987405     
1.1900000000000002     1.5200000000000005     13.10314997208846     
1.2200000000000002     1.5200000000000005     11.351562705993635     
1.2500000000000002     1.5200000000000005     10.024272959658296     
1.2800000000000002     1.5200000000000005     8.984772275681863     
1.3100000000000003     1.5200000000000005     8.149397384967385     
1.3400000000000003     1.5200000000000005     7.464015974207558     
1.3700000000000003     1.5200000000000005     6.892054566750949     
1.4000000000000004     1.5200000000000005     6.407913895304575     
1.4300000000000004     1.5200000000000005     5.993140656459405     
1.4600000000000004     1.5200000000000005     5.634097291585149     
1.4900000000000004     1.5200000000000005     5.320487777251857     
1.5200000000000005     1.5200000000000005     5.044393724829034     
1.5500000000000005     1.5200000000000005     4.79962594081777     
1.5800000000000005     1.5200000000000005     4.581277227101795     
1.6100000000000005     1.5200000000000005     4.38540714019595     
1.6400000000000006     1.5200000000000005     4.208815409361039     
1.6700000000000006     1.5200000000000005     4.048876224299807     
1.7000000000000006     1.5200000000000005     3.9034151311770846     
1.7300000000000006     1.5200000000000005     3.77061627961673     
1.7600000000000007     1.5200000000000005     3.6489516342252504     
1.7900000000000007     1.5200000000000005     3.537126312087594     
1.8200000000000007     1.5200000000000005     3.434035916605014     
1.8500000000000008     1.5200000000000005     3.338732904110498     
1.8800000000000008     1.5200000000000005     3.25039982797379     
1.9100000000000008     1.5200000000000005     3.168327873351527     
1.9400000000000008     1.5200000000000005     3.091899500894027     
1.9700000000000009     1.5200000000000005     3.02057431009266     
2.000000000000001     1.5200000000000005     2.953877446377633     

1.1     1.5500000000000005     24.96812942176169     
1.1300000000000001     1.5500000000000005     19.241436685932197     
1.1600000000000001     1.5500000000000005     15.669066146472613     
1.1900000000000002     1.5500000000000005     13.230342416092945     
1.2200000000000002     1.5500000000000005     11.461328579553193     
1.2500000000000002     1.5500000000000005     10.1207824429635     
1.2800000000000002     1.5500000000000005     9.070855339647778     
1.3100000000000003     1.5500000000000005     8.22706270311668     
1.3400000000000003     1.5500000000000005     7.534740884291719     
1.3700000000000003     1.5500000000000005     6.956957464452206     
1.4000000000000004     1.5500000000000005     6.467861966711834     
1.4300000000000004     1.5500000000000005     6.048820017913509     
1.4600000000000004     1.5500000000000005     5.6860602481163705     
1.4900000000000004     1.5500000000000005     5.369185606030424     
1.5200000000000005     1.5500000000000005     5.090199995137817     
1.5500000000000005     1.5500000000000005     4.842853468545238     
1.5800000000000005     1.5500000000000005     4.622190640027524     
1.6100000000000005     1.5500000000000005     4.424232349940598     
1.6400000000000006     1.5500000000000005     4.245746860615635     
1.6700000000000006     1.5500000000000005     4.08408251901899     
1.7000000000000006     1.5500000000000005     3.9370434460644708     
1.7300000000000006     1.5500000000000005     3.8027958748401707     
1.7600000000000007     1.5500000000000005     3.679796668928081     
1.7900000000000007     1.5500000000000005     3.56673812491633     
1.8200000000000007     1.5500000000000005     3.4625048889146717     
1.8500000000000008     1.5500000000000005     3.3661399944042856     
1.8800000000000008     1.5500000000000005     3.2768178449698837     
1.9100000000000008     1.5500000000000005     3.19382253949039     
1.9400000000000008     1.5500000000000005     3.1165303465010172     
1.9700000000000009     1.5500000000000005     3.0443954296845255     
2.000000000000001     1.5500000000000005     2.9769381419721688     

1.1     1.5800000000000005     25.207831916108063     
1.1300000000000001     1.5800000000000005     19.425758084076328     
1.1600000000000001     1.5800000000000005     15.818756989447893     
1.1900000000000002     1.5800000000000005     13.356323503041514     
1.2200000000000002     1.5800000000000005     11.570052904551249     
1.2500000000000002     1.5800000000000005     10.216379941464329     
1.2800000000000002     1.5800000000000005     9.156128639430834     
1.3100000000000003     1.5800000000000005     8.304001039494228     
1.3400000000000003     1.5800000000000005     7.604807270172926     
1.3700000000000003     1.5800000000000005     7.021259424804747     
1.4000000000000004     1.5800000000000005     6.527258234523382     
1.4300000000000004     1.5800000000000005     6.1039899995210165     
1.4600000000000004     1.5800000000000005     5.737550827422651     
1.4900000000000004     1.5800000000000005     5.4174436130540435     
1.5200000000000005     1.5800000000000005     5.135595302132292     
1.5500000000000005     1.5800000000000005     4.885695781845751     
1.5800000000000005     1.5800000000000005     4.662741944864186     
1.6100000000000005     1.5800000000000005     4.462716291612384     
1.6400000000000006     1.5800000000000005     4.282355924259842     
1.6700000000000006     1.5800000000000005     4.118983599910706     
1.7000000000000006     1.5800000000000005     3.9703822247525733     
1.7300000000000006     1.5800000000000005     3.8347002921959406     
1.7600000000000007     1.5800000000000005     3.710379714604449     
1.7900000000000007     1.5800000000000005     3.5961000959223592     
1.8200000000000007     1.5800000000000005     3.490735234841026     
1.8500000000000008     1.5800000000000005     3.393318837010849     
1.8800000000000008     1.5800000000000005     3.303017238886037     
1.9100000000000008     1.5800000000000005     3.219107525348614     
1.9400000000000008     1.5800000000000005     3.140959836336907     
1.9700000000000009     1.5800000000000005     3.0680229557935164     
2.000000000000001     1.5800000000000005     2.999812493847233     

1.1     1.6100000000000005     25.445276415705692     
1.1300000000000001     1.6100000000000005     19.608346861785463     
1.1600000000000001     1.6100000000000005     15.967044455473118     
1.1900000000000002     1.6100000000000005     13.481127201942131     
1.2200000000000002     1.6100000000000005     11.677764785691117     
1.2500000000000002     1.6100000000000005     10.311090839845592     
1.2800000000000002     1.6100000000000005     9.240614618456858     
1.3100000000000003     1.6100000000000005     8.380232451089567     
1.3400000000000003     1.6100000000000005     7.674233212367704     
1.3700000000000003     1.6100000000000005     7.084976863936168     
1.4000000000000004     1.6100000000000005     6.58611769401368     
1.4300000000000004     1.6100000000000005     6.158664369764743     
1.4600000000000004     1.6100000000000005     5.788581728617251     
1.4900000000000004     1.6100000000000005     5.465273557740765     
1.5200000000000005     1.6100000000000005     5.180590573778925     
1.5500000000000005     1.6100000000000005     4.928163068635202     
1.5800000000000005     1.6100000000000005     4.702940667433916     
1.6100000000000005     1.6100000000000005     4.500867896014396     
1.6400000000000006     1.6100000000000005     4.318650994232928     
1.6700000000000006     1.6100000000000005     4.153587374811855     
1.7000000000000006     1.6100000000000005     4.003438933545696     
1.7300000000000006     1.6100000000000005     3.8663365957928866     
1.7600000000000007     1.6100000000000005     3.7407074680462684     
1.7900000000000007     1.6100000000000005     3.6252185856320045     
1.8200000000000007     1.6100000000000005     3.5187330063892235     
1.8500000000000008     1.6100000000000005     3.4202752002842596     
1.8800000000000008     1.6100000000000005     3.329003516783831     
1.9100000000000008     1.6100000000000005     3.2441880968490002     
1.9400000000000008     1.6100000000000005     3.1651930133955575     
1.9700000000000009     1.6100000000000005     3.091461724974177     
2.000000000000001     1.6100000000000005     3.022505147080197     

1.1     1.6400000000000006     25.680525554713494     
1.1300000000000001     1.6400000000000006     19.78925098064868     
1.1600000000000001     1.6400000000000006     16.11396729277333     
1.1900000000000002     1.6400000000000006     13.604785923080918     
1.2200000000000002     1.6400000000000006     11.78449199663907     
1.2500000000000002     1.6400000000000006     10.404939366174808     
1.2800000000000002     1.6400000000000006     9.324334701629766     
1.3100000000000003     1.6400000000000006     8.455776088520267     
1.3400000000000003     1.6400000000000006     7.743035977941119     
1.3700000000000003     1.6400000000000006     7.148125462754795     
1.4000000000000004     1.6400000000000006     6.644454671966077     
1.4300000000000004     1.6400000000000006     6.212856286163177     
1.4600000000000004     1.6400000000000006     5.839165089884306     
1.4900000000000004     1.6400000000000006     5.51268668242245     
1.5200000000000005     1.6400000000000006     5.225196259616328     
1.5500000000000005     1.6400000000000006     4.970265072671136     
1.5800000000000005     1.6400000000000006     4.742795919919841     
1.6100000000000005     1.6400000000000006     4.538695707599734     
1.6400000000000006     1.6400000000000006     4.354640102611529     
1.6700000000000006     1.6400000000000006     4.187901411739774     
1.7000000000000006     1.6400000000000006     4.036220718828321     
1.7300000000000006     1.6400000000000006     3.8977115478320785     
1.7600000000000007     1.6400000000000006     3.770786340480829     
1.7900000000000007     1.6400000000000006     3.6540996838697475     
1.8200000000000007     1.6400000000000006     3.5465039984083346     
1.8500000000000008     1.6400000000000006     3.447014607793529     
1.8800000000000008     1.6400000000000006     3.3547819522604976     
1.9100000000000008     1.6400000000000006     3.2690692968296435     
1.9400000000000008     1.6400000000000006     3.1892347071209355     
1.9700000000000009     1.6400000000000006     3.114716369006127     
2.000000000000001     1.6400000000000006     3.0450205500639114     

1.1     1.6700000000000006     25.91363912405827     
1.1300000000000001     1.6700000000000006     19.968516229454202     
1.1600000000000001     1.6700000000000006     16.259562498518214     
1.1900000000000002     1.6700000000000006     13.727330616366855     
1.2200000000000002     1.6700000000000006     11.890261063734687     
1.2500000000000002     1.6700000000000006     10.497948664388424     
1.2800000000000002     1.6700000000000006     9.407309358924698     
1.3100000000000003     1.6700000000000006     8.530650252401635     
1.3400000000000003     1.6700000000000006     7.811232070894383     
1.3700000000000003     1.6700000000000006     7.210720212306587     
1.4000000000000004     1.6700000000000006     6.70228286774673     
1.4300000000000004     1.6700000000000006     6.266578332661398     
1.4600000000000004     1.6700000000000006     5.88931252267665     
1.4900000000000004     1.6700000000000006     5.559693743755356     
1.5200000000000005     1.6700000000000006     5.269422359719015     
1.5500000000000005     1.6700000000000006     5.012011120358102     
1.5800000000000005     1.6700000000000006     4.782316425759417     
1.6100000000000005     1.6700000000000006     4.576207907664917     
1.6400000000000006     1.6700000000000006     4.390330941286705     
1.6700000000000006     1.6700000000000006     4.2219329592126815     
1.7000000000000006     1.6700000000000006     4.068734426168499     
1.7300000000000006     1.6700000000000006     3.928831626615539     
1.7600000000000007     1.6700000000000006     3.8006224745925157     
1.7900000000000007     1.6700000000000006     3.6827492258878767     
1.8200000000000007     1.6700000000000006     3.574053763912885     
1.8500000000000008     1.6700000000000006     3.4735423529104144     
1.8800000000000008     1.6700000000000006     3.38035759936902     
1.9100000000000008     1.6700000000000006     3.2937559583550597     
1.9400000000000008     1.6700000000000006     3.213089546161582     
1.9700000000000009     1.6700000000000006     3.137791327138568     
2.000000000000001     1.6700000000000006     3.067362966282994     

1.1     1.7000000000000006     26.144674248913915     
1.1300000000000001     1.7000000000000006     20.146186359553255     
1.1600000000000001     1.7000000000000006     16.40386542764929     
1.1900000000000002     1.7000000000000006     13.84879086183899     
1.2200000000000002     1.7000000000000006     11.99509734305022     
1.2500000000000002     1.7000000000000006     10.590140861037995     
1.2800000000000002     1.7000000000000006     9.489558163962954     
1.3100000000000003     1.7000000000000006     8.604872445284245     
1.3400000000000003     1.7000000000000006     7.878837278605074     
1.3700000000000003     1.7000000000000006     7.272775455591601     
1.4000000000000004     1.7000000000000006     6.75961539118363     
1.4300000000000004     1.7000000000000006     6.319842554123271     
1.4600000000000004     1.7000000000000006     5.939035143270702     
1.4900000000000004     1.7000000000000006     5.6063050417101294     
1.5200000000000005     1.7000000000000006     5.313278451434777     
1.5500000000000005     1.7000000000000006     5.053410145496992     
1.5800000000000005     1.7000000000000006     4.821510542631869     
1.6100000000000005     1.7000000000000006     4.613412335770075     
1.6400000000000006     1.7000000000000006     4.425730881985445     
1.6700000000000006     1.7000000000000006     4.2556889650192     
1.7000000000000006     1.7000000000000006     4.100986617963648     
1.7300000000000006     1.7000000000000006     3.9597030431808267     
1.7600000000000007     1.7000000000000006     3.8302217602452133     
1.7900000000000007     1.7000000000000006     3.7111728072641212     
1.8200000000000007     1.7000000000000006     3.601387628233029     
1.8500000000000008     1.7000000000000006     3.499863512280658     
1.8800000000000008     1.7000000000000006     3.405735305471341     
1.9100000000000008     1.7000000000000006     3.3182527170055574     
1.9400000000000008     1.7000000000000006     3.2367619701444625     
1.9700000000000009     1.7000000000000006     3.1606908573917676     
2.000000000000001     1.7000000000000006     3.0895364851815335     

1.1     1.7300000000000006     26.373685552185666     
1.1300000000000001     1.7300000000000006     20.32230320957044     
1.1600000000000001     1.7300000000000006     16.546909893162013     
1.1900000000000002     1.7300000000000006     13.969194953086138     
1.2200000000000002     1.7300000000000006     12.099025091433923     
1.2500000000000002     1.7300000000000006     10.681537126842404     
1.2800000000000002     1.7300000000000006     9.571099848044613     
1.3100000000000003     1.7300000000000006     8.678459419578223     
1.3400000000000003     1.7300000000000006     7.94586671469183     
1.3700000000000003     1.7300000000000006     7.334304926172457     
1.4000000000000004     1.7300000000000006     6.816464797549838     
1.4300000000000004     1.7300000000000006     6.372660488195582     
1.4600000000000004     1.7300000000000006     5.9883436019246075     
1.4900000000000004     1.7300000000000006     5.652530446366123     
1.5200000000000005     1.7300000000000006     5.356773714102166     
1.5500000000000005     1.7300000000000006     5.094470712168834     
1.5800000000000005     1.7300000000000006     4.860386283716135     
1.6100000000000005     1.7300000000000006     4.650316509549949     
1.6400000000000006     1.7300000000000006     4.460846994789711     
1.6700000000000006     1.7300000000000006     4.289176093580417     
1.7000000000000006     1.7300000000000006     4.13298358976364     
1.7300000000000006     1.7300000000000006     3.9903317566887533     
1.7600000000000007     1.7300000000000006     3.859589849025878     
1.7900000000000007     1.7300000000000006     3.7393757976816153     
1.8200000000000007     1.7300000000000006     3.628510702102224     
1.8500000000000008     1.7300000000000006     3.5259829582826407     
1.8800000000000008     1.7300000000000006     3.430919723124212     
1.9100000000000008     1.7300000000000006     3.3425640222403534     
1.9400000000000008     1.7300000000000006     3.2602562405600195     
1.9700000000000009     1.7300000000000006     3.183419047003954     
2.000000000000001     1.7300000000000006     3.111545032207556     

1.1     1.7600000000000007     26.60072530532511     
1.1300000000000001     1.7600000000000007     20.496906820467743     
1.1600000000000001     1.7600000000000007     16.68872825864894     
1.1900000000000002     1.7600000000000007     14.088569974246107     
1.2200000000000002     1.7600000000000007     12.20206753210163     
1.2500000000000002     1.7600000000000007     10.772157733531989     
1.2800000000000002     1.7600000000000007     9.651952350062222     
1.3100000000000003     1.7600000000000007     8.751427221837174     
1.3400000000000003     1.7600000000000007     8.012334858634697     
1.3700000000000003     1.7600000000000007     7.395321783870978     
1.4000000000000004     1.7600000000000007     6.872843119917475     
1.4300000000000004     1.7600000000000007     6.4250431947853     
1.4600000000000004     1.7600000000000007     6.037248109859028     
1.4900000000000004     1.7600000000000007     5.698379422710661     
1.5200000000000005     1.7600000000000007     5.3999169519322985     
1.5500000000000005     1.7600000000000007     5.135201035922938     
1.5800000000000005     1.7600000000000007     4.898951337376603     
1.6100000000000005     1.7600000000000007     4.686927643061957     
1.6400000000000006     1.7600000000000007     4.495686065289574     
1.6700000000000006     1.7600000000000007     4.3224007420323876     
1.7000000000000006     1.7600000000000007     4.164731385391451     
1.7300000000000006     1.7600000000000007     4.020723488677684     
1.7600000000000007     1.7600000000000007     3.888732167716627     
1.7900000000000007     1.7600000000000007     3.7673633536931486     
1.8200000000000007     1.7600000000000007     3.65542789377946     
1.8500000000000008     1.7600000000000007     3.5519053705660455     
1.8800000000000008     1.7600000000000007     3.4559153210862887     
1.9100000000000008     1.7600000000000007     3.366694147919418     
1.9400000000000008     1.7600000000000007     3.283576450840119     
1.9700000000000009     1.7600000000000007     3.205979822102337     
2.000000000000001     1.7600000000000007     3.1333923781102335     

1.1     1.7900000000000007     26.82584356765564     
1.1300000000000001     1.7900000000000007     20.67003554185884     
1.1600000000000001     1.7900000000000007     16.829351523821487     
1.1900000000000002     1.7900000000000007     14.20694187117826     
1.2200000000000002     1.7900000000000007     12.304246915279446     
1.2500000000000002     1.7900000000000007     10.862022106417387     
1.2800000000000002     1.7900000000000007     9.732132862673215     
1.3100000000000003     1.7900000000000007     8.823791233734351     
1.3400000000000003     1.7900000000000007     8.0782555924465     
1.3700000000000003     1.7900000000000007     7.455838647817312     
1.4000000000000004     1.7900000000000007     6.928761899120405     
1.4300000000000004     1.7900000000000007     6.4770012833653965     
1.4600000000000004     1.7900000000000007     6.0857584642566085     
1.4900000000000004     1.7900000000000007     5.743861053622418     
1.5200000000000005     1.7900000000000007     5.442716615219559     
1.5500000000000005     1.7900000000000007     5.175609003421143     
1.5800000000000005     1.7900000000000007     4.937213085417253     
1.6100000000000005     1.7900000000000007     4.723252663802086     
1.6400000000000006     1.7900000000000007     4.530254610492458     
1.6700000000000006     1.7900000000000007     4.355369055143416     
1.7000000000000006     1.7900000000000007     4.196235810968823     
1.7300000000000006     1.7900000000000007     4.05088373628577     
1.7600000000000007     1.7900000000000007     3.9176539307912734     
1.7900000000000007     1.7900000000000007     3.7951404305606844     
1.8200000000000007     1.7900000000000007     3.6821439202926802     
1.8500000000000008     1.7900000000000007     3.577635246753239     
1.8800000000000008     1.7900000000000007     3.480726394525587     
1.9100000000000008     1.7900000000000007     3.3906472020599234     
1.9400000000000008     1.7900000000000007     3.3067265357018125     
1.9700000000000009     1.7900000000000007     3.2283769566684684     
2.000000000000001     1.7900000000000007     3.1550821475575574     

1.1     1.8200000000000007     27.049088315260313     
1.1300000000000001     1.8200000000000007     20.841726130373363     
1.1600000000000001     1.8200000000000007     16.968809403650848     
1.1900000000000002     1.8200000000000007     14.324335517339446     
1.2200000000000002     1.8200000000000007     12.405584574346578     
1.2500000000000002     1.8200000000000007     10.951148873069855     
1.2800000000000002     1.8200000000000007     9.811657875068235     
1.3100000000000003     1.8200000000000007     8.895566210028287     
1.3400000000000003     1.8200000000000007     8.143642234659465     
1.3700000000000003     1.8200000000000007     7.5158676270879665     
1.4000000000000004     1.8200000000000007     6.984232211538502     
1.4300000000000004     1.8200000000000007     6.52854493830199     
1.4600000000000004     1.8200000000000007     6.133884071455564     
1.4900000000000004     1.8200000000000007     5.788984061199378     
1.5200000000000005     1.8200000000000007     5.485180820028563     
1.5500000000000005     1.8200000000000007     5.21570219067416     
1.5800000000000005     1.8200000000000007     4.975178620030115     
1.6100000000000005     1.8200000000000007     4.759298228505656     
1.6400000000000006     1.8200000000000007     4.564558893597743     
1.6700000000000006     1.8200000000000007     4.388086939168424     
1.7000000000000006     1.8200000000000007     4.227502447943155     
1.7300000000000006     1.8200000000000007     4.080817784531853     
1.7600000000000007     1.8200000000000007     3.946360152022126     
1.7900000000000007     1.8200000000000007     3.8227117932516355     
1.8200000000000007     1.8200000000000007     3.7086633178808794     
1.8500000000000008     1.8200000000000007     3.603176912377289     
1.8800000000000008     1.8200000000000007     3.505357074498034     
1.9100000000000008     1.8200000000000007     3.4144271358951155     
1.9400000000000008     1.8200000000000007     3.3297102798220792     
1.9700000000000009     1.8200000000000007     3.2506140808606925     
2.000000000000001     1.8200000000000007     3.1766178271350256     

1.1     1.8500000000000008     27.270505560372396     
1.1300000000000001     1.8500000000000008     21.01201384078595     
1.1600000000000001     1.8500000000000008     17.107130401700395     
1.1900000000000002     1.8500000000000008     14.440774774837365     
1.2200000000000002     1.8500000000000008     12.506100977879727     
1.2500000000000002     1.8500000000000008     11.039555908459     
1.2800000000000002     1.8500000000000008     9.890543212637365     
1.3100000000000003     1.8500000000000008     8.966766313784087     
1.3400000000000003     1.8500000000000008     8.208507571863654     
1.3700000000000003     1.8500000000000008     7.575420349144542     
1.4000000000000004     1.8500000000000008     7.039264694894315     
1.4300000000000004     1.8500000000000008     6.579683942375632     
1.4600000000000004     1.8500000000000008     6.181633968494714     
1.4900000000000004     1.8500000000000008     5.833756826575234     
1.5200000000000005     1.8500000000000008     5.527317366489565     
1.5500000000000005     1.8500000000000008     5.255487879991923     
1.5800000000000005     1.8500000000000008     5.012854759550986     
1.6100000000000005     1.8500000000000008     4.795070737837999     
1.6400000000000006     1.8500000000000008     4.598604937734794     
1.6700000000000006     1.8500000000000008     4.420560074732281     
1.7000000000000006     1.8500000000000008     4.258536665201911     
1.7300000000000006     1.8500000000000008     4.110530717736426     
1.7600000000000007     1.8500000000000008     3.9748556552740486     
1.7900000000000007     1.8500000000000008     3.8500820266649174     
1.8200000000000007     1.8500000000000008     3.7349904517043884     
1.8500000000000008     1.8500000000000008     3.628534530122953     
1.8800000000000008     1.8500000000000008     3.529811336760521     
1.9100000000000008     1.8500000000000008     3.438037752296368     
1.9400000000000008     1.8500000000000008     3.3525313259019334     
1.9700000000000009     1.8500000000000008     3.2726946887498687     
2.000000000000001     1.8500000000000008     3.1980027727795455     

1.1     1.8800000000000008     27.490139462110026     
1.1300000000000001     1.8800000000000008     21.180932510550093     
1.1600000000000001     1.8800000000000008     17.244341878162214     
1.1900000000000002     1.8800000000000008     14.556282551085909     
1.2200000000000002     1.8800000000000008     12.605815777959089     
1.2500000000000002     1.8800000000000008     11.127260376858068     
1.2800000000000002     1.8800000000000008     9.968804073805009     
1.3100000000000003     1.8800000000000008     9.03740514908916     
1.3400000000000003     1.8800000000000008     8.272863888009555     
1.3700000000000003     1.8800000000000008     7.634507986263349     
1.4000000000000004     1.8800000000000008     7.093869572233445     
1.4300000000000004     1.8800000000000008     6.63042769865197     
1.4600000000000004     1.8800000000000008     6.2290168431512845     
1.4900000000000004     1.8800000000000008     5.878187408353566     
1.5200000000000005     1.8800000000000008     5.569133755821132     
1.5500000000000005     1.8800000000000008     5.294973075757562     
1.5800000000000005     1.8800000000000008     5.050248063123931     
1.6100000000000005     1.8800000000000008     4.830576350069464     
1.6400000000000006     1.8800000000000008     4.632398538752473     
1.6700000000000006     1.8800000000000008     4.452793928824561     
1.7000000000000006     1.8800000000000008     4.2893436303521275     
1.7300000000000006     1.8800000000000008     4.1400274301557625     
1.7600000000000007     1.8800000000000008     4.003145084554932     
1.7900000000000007     1.8800000000000008     3.8772555451523765     
1.8200000000000007     1.8800000000000008     3.7611295248857664     
1.8500000000000008     1.8800000000000008     3.6537121084301107     
1.8800000000000008     1.8800000000000008     3.5540930099753605     
1.9100000000000008     1.8800000000000008     3.461482713612998     
1.9400000000000008     1.8800000000000008     3.37519318217229     
1.9700000000000009     1.8800000000000008     3.2946221455188405     
2.000000000000001     1.8800000000000008     3.219240216697176     

1.1     1.9100000000000008     27.70803242930994     
1.1300000000000001     1.9100000000000008     21.34851463831096     
1.1600000000000001     1.9100000000000008     17.380470113058095     
1.1900000000000002     1.9100000000000008     14.670880851443775     
1.2200000000000002     1.9100000000000008     12.704747855058951     
1.2500000000000002     1.9100000000000008     11.21427877079542     
1.2800000000000002     1.9100000000000008     10.046455064276662     
1.3100000000000003     1.9100000000000008     9.107495791477948     
1.3400000000000003     1.9100000000000008     8.33672299166571     
1.3700000000000003     1.9100000000000008     7.693141280126884     
1.4000000000000004     1.9100000000000008     7.148056674242774     
1.4300000000000004     1.9100000000000008     6.6807852508414545     
1.4600000000000004     1.9100000000000008     6.276041052598735     
1.4900000000000004     1.9100000000000008     5.922283559776149     
1.5200000000000005     1.9100000000000008     5.610637206187009     
1.5500000000000005     1.9100000000000008     5.334164519123703     
1.5800000000000005     1.9100000000000008     5.087364844366036     
1.6100000000000005     1.9100000000000008     4.865820993819764     
1.6400000000000006     1.9100000000000008     4.665945277139552     
1.6700000000000006     1.9100000000000008     4.484793765980111     
1.7000000000000006     1.9100000000000008     4.319928320234845     
1.7300000000000006     1.9100000000000008     4.169312635895085     
1.7600000000000007     1.9100000000000008     4.03123291338486     
1.7900000000000007     1.9100000000000008     3.9042366013946896     
1.8200000000000007     1.9100000000000008     3.7870845869374343     
1.8500000000000008     1.9100000000000008     3.6787135095132677     
1.8800000000000008     1.9100000000000008     3.5782057833573653     
1.9100000000000008     1.9100000000000008     3.4847655489788703     
1.9400000000000008     1.9100000000000008     3.3976992293887083     
1.9700000000000009     1.9100000000000008     3.3163996941709373     
2.000000000000001     1.9100000000000008     3.240333273808439     

1.1     1.9400000000000008     27.924225216138517     
1.1300000000000001     1.9400000000000008     21.514791456913148     
1.1600000000000001     1.9400000000000008     17.515540365018282     
1.1900000000000002     1.9400000000000008     14.784590828178906     
1.2200000000000002     1.9400000000000008     12.802915359813634     
1.2500000000000002     1.9400000000000008     11.300626947302774     
1.2800000000000002     1.9400000000000008     10.123510228916533     
1.3100000000000003     1.9400000000000008     9.177050816258845     
1.3400000000000003     1.9400000000000008     8.400096241403302     
1.3700000000000003     1.9400000000000008     7.751330564731199     
1.4000000000000004     1.9400000000000008     7.201835460045418     
1.4300000000000004     1.9400000000000008     6.730765302273995     
1.4600000000000004     1.9400000000000008     6.322714640799247     
1.4900000000000004     1.9400000000000008     5.966052744730384     
1.5200000000000005     1.9400000000000008     5.651834667483671     
1.5500000000000005     1.9400000000000008     5.373068701720116     
1.5800000000000005     1.9400000000000008     5.124211184114834     
1.6100000000000005     1.9400000000000008     4.900810379948374     
1.6400000000000006     1.9400000000000008     4.699250529147544     
1.6700000000000006     1.9400000000000008     4.516564658712419     
1.7000000000000006     1.9400000000000008     4.350295530737433     
1.7300000000000006     1.9400000000000008     4.198390878160113     
1.7600000000000007     1.9400000000000008     4.059123453540097     
1.7900000000000007     1.9400000000000008     3.9310292946849184     
1.8200000000000007     1.9400000000000008     3.81285954162671     
1.8500000000000008     1.9400000000000008     3.7035424568453372     
1.8800000000000008     1.9400000000000008     3.6021532138096886     
1.9100000000000008     1.9400000000000008     3.507889661130037     
1.9400000000000008     1.9400000000000008     3.4200527273574712     
1.9700000000000009     1.9400000000000008     3.3380304617883954     
2.000000000000001     1.9400000000000008     3.2612849477605415     

1.1     1.9700000000000009     28.138757011090686     
1.1300000000000001     1.9700000000000009     21.67979300136803     
1.1600000000000001     1.9700000000000009     17.64957692601056     
1.1900000000000002     1.9700000000000009     14.897432826067531     
1.2200000000000002     1.9700000000000009     12.900335751920476     
1.2500000000000002     1.9700000000000009     11.386320161686093     
1.2800000000000002     1.9700000000000009     10.199983081453352     
1.3100000000000003     1.9700000000000009     9.246082324917612     
1.3400000000000003     1.9700000000000009     8.46299456946274     
1.3700000000000003     1.9700000000000009     7.8090857877482     
1.4000000000000004     1.9700000000000009     7.255215036597755     
1.4300000000000004     1.9700000000000009     6.7803762336022055     
1.4600000000000004     1.9700000000000009     6.369045354734459     
1.4900000000000004     1.9700000000000009     6.009502152690609     
1.5200000000000005     1.9700000000000009     5.692732835145661     
1.5500000000000005     1.9700000000000009     5.411691878453114     
1.5800000000000005     1.9700000000000009     5.160792942332956     
1.6100000000000005     1.9700000000000009     4.93555001266025     
1.6400000000000006     1.9700000000000009     4.7323194771806545     
1.6700000000000006     1.9700000000000009     4.5481114972603445     
1.7000000000000006     1.9700000000000009     4.380449885960756     
1.7300000000000006     1.9700000000000009     4.227266537900662     
1.7600000000000007     1.9700000000000009     4.086820863222614     
1.7900000000000007     1.9700000000000009     3.957637578667859     
1.8200000000000007     1.9700000000000009     3.8384581543239595     
1.8500000000000008     1.9700000000000009     3.7282025421493366     
1.8800000000000008     1.9700000000000009     3.6259387325900656     
1.9100000000000008     1.9700000000000009     3.5308583327732728     
1.9400000000000008     1.9700000000000009     3.442256821031263     
1.9700000000000009     1.9700000000000009     3.3595174653775004     
2.000000000000001     1.9700000000000009     3.2820981365420345     

1.1     2.000000000000001     28.351665519927145     
1.1300000000000001     2.000000000000001     21.84354817219952     
1.1600000000000001     2.000000000000001     17.782603172355508     
1.1900000000000002     2.000000000000001     15.009426424906351     
1.2200000000000002     2.000000000000001     12.997025836416274     
1.2500000000000002     2.000000000000001     11.47137309902303     
1.2800000000000002     2.000000000000001     10.275886632192604     
1.3100000000000003     2.000000000000001     9.314601969754513     
1.3400000000000003     2.000000000000001     8.525428503842397     
1.3700000000000003     2.000000000000001     7.866416530468473     
1.4000000000000004     2.000000000000001     7.308204176801858     
1.4300000000000004     2.000000000000001     6.829626119336018     
1.4600000000000004     2.000000000000001     6.415040659568117     
1.4900000000000004     2.000000000000001     6.052638712679055     
1.5200000000000005     2.000000000000001     5.733338163047594     
1.5500000000000005     2.000000000000001     5.450040079469491     
1.5800000000000005     2.000000000000001     5.19711576923742     
1.6100000000000005     2.000000000000001     4.9700451998895945     
1.6400000000000006     2.000000000000001     4.765157119511387     
1.6700000000000006     2.000000000000001     4.579438998703062     
1.7000000000000006     2.000000000000001     4.410395846792646     
1.7300000000000006     2.000000000000001     4.255943841894799     
1.7600000000000007     2.000000000000001     4.114329154701044     
1.7900000000000007     2.000000000000001     3.9840652685786537     
1.8200000000000007     2.000000000000001     3.863884058875213     
1.8500000000000008     2.000000000000001     3.752697231937396     
1.8800000000000008     2.000000000000001     3.6495656515451365     
1.9100000000000008     2.000000000000001     3.553674732541607     
1.9400000000000008     2.000000000000001     3.464314546209116     
1.9700000000000009     2.000000000000001     3.380863617333773     
2.000000000000001     2.000000000000001     3.3027756377319926     

