%!PS-Adobe-3.0 EPSF-3.0
%%BoundingBox: 68 553 325 757
%%Title: openValvePipe
%%CreationDate: Thu Oct 19 13:36:45 2006
%%Creator: Tgif-4.1.45-QPL written by William Chia-Wei Cheng (bill.cheng@acm.org)
%%ProducedBy: (unknown)
%%Pages: 1
%%DocumentFonts: (atend)
%%EndComments
%%BeginPreview: 257 204 1 408
% 0000000000000000000000000000000000000000000000000000000000000000
% 00
% 1000000000000000000000000000000000000000000000000000000000000000
% 00
% 3000000000000000000000000000000000000000000000000000000000000000
% 00
% 3000000000000000000000000000000000000000000000000000000000000000
% 00
% 3800000000000000000000000000000000000000000000000000000000000000
% 00
% 7800000000000000000000000000000000000000000000000000000000000000
% 00
% 7c00000000000000000000000000000000000000000000000000000000000000
% 00
% 7c00000000000000000000000000000000000000000000000000000000000000
% 00
% 3000000000000000000000000000000000000000000000000000000000000000
% 00
% 3000000000000000000000000000000000000000000000000000000000000000
% 00
% 3000000000000000000000000000000000000000000000000000000000000000
% 00
% 3000000000000000000000000000000000000000000000000000000000000000
% 00
% 3000000000000000000000000000000000000000000000000000000000000000
% 00
% 3000000000000000000000000000000000000000000000000000000000000000
% 00
% 3000000000000000000000000000000000000000000000000000000000000000
% 00
% 3000000000000000000000000000000000000000000000000000000000000000
% 00
% 3000000000000000000000000000000000000000000000000000000000000000
% 00
% 3000000000000000000000000000000000000000000000000000000000000000
% 00
% 3000000000000000000000000000000000000000000000000000000000000000
% 00
% 3000000000000000000000000000000000000000000000000000000000000000
% 00
% 3000000000000000000000000000000000000000000000000000000000000000
% 00
% 3000000000000000000000000000000000000000000000000000000000000000
% 00
% 3000000000000000000000000000000000000000000000000000000000000000
% 00
% 3000000000000000000000000000000000000000000000000000000000000000
% 00
% 3000000000000000000000000000000000000000000000000000000000000000
% 00
% 3000000000000000000000000000000000000000000000000000000000000000
% 00
% 3000000000000000000000000000000000000000000000000000000000000000
% 00
% 3000000000000000000000000000000000000000000000000000000000000000
% 00
% 3000000000000000000000000000000000000000000000000000000000000000
% 00
% 3000000000000000000000000000000000000000000000000000000000000000
% 00
% 3000000000000000000000000000000000000000000000000000000000000000
% 00
% 3000000000000000000000000000000000000000000000000000000000000000
% 00
% 3000000000000000000000000000000000000000000000000000000000000000
% 00
% 3000000000000000000000000000000000000000000000000000000000000000
% 00
% 3000000000000000000000000000000000000000000000000000000000000000
% 00
% 3000000000000000000000000000000000000000000000000000000000000000
% 00
% 3000000000000000000000000000000000000000000000000000000000000000
% 00
% 3000000000000000000000000000000000000000000000000000000000000000
% 00
% 3000000000000000000000000000000000000000000000000000000000000000
% 00
% 3000000000000000000000000000000000000000000000000000000000000000
% 00
% 3000000000000000000000000000000000000000000000000000000000000000
% 00
% 3000000000000000000000000000000000000000000000000000000000000000
% 00
% 3000000000000000000000000000000000000000000000000000000000000000
% 00
% 3000000000000000000000000000000000000000000000000000000000000000
% 00
% 3000000000000000000000000000000000000000000000000000000000000000
% 00
% 3000000000000000000000000000000000000000000000000000000000000000
% 00
% 3000000000000000000000000000000000000000000000000000000000000000
% 00
% 3000000000000000000000000000000000000000000000000000000000000000
% 00
% 3000000000000000000000000000000000000000000000000000000000000000
% 00
% 3000000000000000000000000000000000000000000000000000000000000000
% 00
% 3000000000000000000000000000000000000000000000000000000000000000
% 00
% 3000000000000000000000000000000000000000000000000000000000000000
% 00
% 3000000000000000000000000000000000000000000000000000000000000000
% 00
% 3000000000000000000000000000000000000000000000000000000000000000
% 00
% 3000000000000000000000000000000000000000000000000000000000000000
% 00
% 3000000000000000000000000000000000000000000000000000c00000000000
% 00
% 30000000000000000000000000000000000000186000000003f8400000000000
% 00
% 300000000000000000000000000000000000000cc00000000108400000000000
% 00
% 300000000000000000000000000000000000000cc783a1a001084071ce000000
% 00
% 300000000000000000000000000000000000000cc4c662600120419924000000
% 00
% 300000000000000000000000000000000000000b43c3038001e04104ac000000
% 00
% 30000000000000000000000000000000000000084c40e0e001204104bc000000
% 00
% 3000000000000000000000000000000000000008484422300100418cdc000000
% 00
% 300000000000000000000000000000000000001cefe7e3e003c1f9f8c8000000
% 00
% 3000000000000000000000000000000000000000000000000000000000000000
% 00
% 3000000000000000000000000000000000000000000000000000000000000000
% 00
% 3000000000000000000000000000000000000000000000000000000000000000
% 00
% 3000000000000000000000000000000000000000000000000000000000000000
% 00
% 3000000000000000000000000000000000000000000000000000000000000000
% 00
% 3000000000000000000000000000000000000000000000000000000000000000
% 00
% 30000000000000000000000000000000000000000000fc001000000000000000
% 00
% 3000000000000000000000000000000000000000000046001000000000000000
% 00
% 3000000000000000000000000000000000000000000042387e0e000000000000
% 00
% 3000000000000000000000000000000000000000000046661033000000000000
% 00
% 30000000000000000000000000000000000000000000781e1020800000000000
% 00
% 300000000000000000000000000000000000000000004c7e103f800000000000
% 00
% 3000000000000000000000000000000000000000000044461030000000000000
% 00
% 30000000000000000000000000000000000000000000e37f1f3f800000000000
% 00
% 3000000000000000000000000000000000000000000000000000000000000000
% 00
% 3000000000000000000000000000000000000000000000000000000000000000
% 00
% 3000000000000000000000000000000000000000000000000000000000000000
% 00
% 3000000000000000000000000000000000000000000000000000000000000000
% 00
% 3000000000000000000000000000000000000000000000000000000000000000
% 00
% 3000000000000000000000000000000000000000000000000000000000000000
% 00
% 3000000000000000000000000000000000000000000000000000000000000000
% 00
% 3000000000000000000000000000000000000000000000000000000000000000
% 00
% 3000000000000000000000000000000000000000000000000000000000000000
% 00
% 3000000000000000000000000000000000000000000000000000000000000000
% 00
% 3000000000000000000000000000000000000000000000000000000000000000
% 00
% 3000000000000000000000000000000000000000000000000000000000000000
% 00
% 3000000000000000000000000000000000000000000000000000000000000000
% 00
% 30000000000000000000000000000000001ffffffffffffffffffffffffc0000
% 00
% 3000000000000000000000000000000000000000000000000000000000000000
% 00
% 3000000000000000000000000000000000000000000000000000000000000000
% 00
% 3000000000000000000000000000000000000000000000000000000000000000
% 00
% 3000000000000000000000000000000000000000000000000000000000000000
% 00
% 3000000000000000000000000000000000000000000000000000000000000000
% 00
% 3000000000000000000000000000000000000000000000000000000000000000
% 00
% 3000000000000000000000000000000000000000000000000000000000000000
% 00
% 3000000000000000000000000000000000000000000000000000000000000000
% 00
% 3000000000000000000000000000000000000000000000000000000000000000
% 00
% 3000000000000000000000000000000000000000000000000000000000000000
% 00
% 3000000000000000000000000000000000000000000000000000000000000000
% 00
% 3000000000000000000000000000000000000000000000000000000000000000
% 00
% 3000000000000000000000000000000000000000000000000000000000000000
% 00
% 3000000000000000000000000000000000000000000000000000000000000000
% 00
% 3000000000000000000000000000000000000000000000000000000000000000
% 00
% 3000000000000000000000000000000000000000000000000000000000000000
% 00
% 3000000000000000000000000000000000000000000000000000000000000000
% 00
% 3000000000000000000000000000000000000000000000000000000000000000
% 00
% 3000000000000000000000000000000000000000000000000000000000000000
% 00
% 3000000000000000000000000000000000000000000000000000000000000000
% 00
% 3000000000000000000000000000000000000000000000000000000000000000
% 00
% 3000000000000000000000000000000000000000000000000000000000000000
% 00
% 3000000000000000000000000000000000000000000000000000000000000000
% 00
% 3000000000000000000000000000000000000000000000000000000000000000
% 00
% 3000000000000000000000000000000000000000000000000000000000000000
% 00
% 3000000000000000000000000000000000000000000000000000000000000000
% 00
% 3000000000000000000000000000000000000000000000000000000000000000
% 00
% 3000000000000000000000000000000000000000000000000000000000000000
% 00
% 3000000000000000000000000000000000000000000000000000000000000000
% 00
% 3000000000000000000000000000000000000000000000000000000000000000
% 00
% 3000000000000000000000000000000000000000000000000000000000000000
% 00
% 3000000000000000000000000000000000000000000000000000000000000000
% 00
% 3000000000000000000000000000000000000000000000000000000000000000
% 00
% 3000000000000000000000000000000000000000000000000000000000000000
% 00
% 3000000000000000000000000000000000000000000000000000000000000000
% 00
% 3000000000000000000000000000000000000000000000000000000000000000
% 00
% 3000000000000000000000000000000000000000039c00e00000182000000000
% 00
% 3000000000000000000000000000000000000000020800200000002000000000
% 00
% 3000000000000000000000000000000000000000020800200000002000000000
% 00
% 30000000000000000000000000000000000000000111f820fc7e387e73800000
% 00
% 300000000000000000000000000000000000000001910c2084c6182033000000
% 00
% 30000000000000000000000000000000000000000191fc208480182012000000
% 00
% 300000000000000000000000000000000000000000a1fc208480182012000000
% 00
% 300000000000000000000000000000000000000000618c20cc4318320c000000
% 00
% 30000000000000000000000000000000000000000060f0f8783c7e1c0c000000
% 00
% 3000000000000000000000000000000000000000000000000000000008000000
% 00
% 300000000000000000000000000000000000000000000000000000003c000000
% 00
% 300000000000000000000000000000000000000000000000000000003c000000
% 00
% 3000000000000000000000000000000000000000000000000000000000000000
% 00
% 3000000000000000000000000000000000000000000000000000000000000000
% 00
% 3000000000000000000000000000000000000000000000000000000000000000
% 00
% 3000000000000000000000000000000000000000000000000000000000000000
% 00
% 3000000000000000000000000000000000000000000000000000000000000000
% 00
% 3000000000000000000000000000000000000000000000000000000000000000
% 00
% 3000000000000000000000000000000000000000000000000000000000000000
% 00
% 3000000000000000000000000000000000000000000000000000000000000000
% 00
% 3000000000000000000000000000000000000000000000000000000000000000
% 00
% 3000000000000000000000000000000000000000000000000000000000000000
% 00
% 3000000000000000000000000000000000000000000000000000000000000000
% 00
% 3000000000000000000000000000000000000000000000000000000000000000
% 00
% 3000000000000000000000000000000000000000000000000000000000000000
% 00
% 3000000000000000000000000000000000000000000000000000000000000000
% 00
% 3000000000000000000000000000000000000000000000000000000000000000
% 00
% 3000000000000000000000000000000000000000000000000000000000000000
% 00
% 3000000000000000000000000000000000000000000000000000000000000000
% 00
% 3000000000000000000000000000000000000000000000000000000000000000
% 00
% 3000000000000000000000000000000000000000000000000000000000000000
% 00
% 3000000000000000000000000000000000000000000000000000000000000000
% 00
% 3000000000000000000000000000000000000000000000000000000000000000
% 00
% 3000000000000000000000000000000000000000000000000000000000000000
% 00
% 3000000000000000000000000000000000000000000000000000000000000000
% 00
% 3000000000000000000000000000000000000000000000000000000000000000
% 00
% 3000000000000000000000000000000000000000000000000000000000000000
% 00
% 3000000000000000000000000000000000000000000000000000000000000000
% 00
% 3000000000000000000000000000000000000000000000000000000000000000
% 00
% 3000000000000000000000000000000000000000000000000000000000000000
% 00
% 3000000000000000000000000000000000000000000000000000000000000000
% 00
% 3000000000000000000000000000000000000000000000000000000000000000
% 00
% 3000000000000000000000000000000000000000000000000000000000000000
% 00
% 3000000000000000000000000000000000000000000000000000000000000000
% 00
% 3000000000000000000000000000000000000000000000000000000000000000
% 00
% 3000000000000000001000000000000000000000000000000000000000000000
% 00
% 3000000000000000001000000000000000000000000000000000000000000000
% 00
% 3000000000000000001000000000000000000000000000000000000000000000
% 00
% 3000000000000000001000000000000000000000000000000000000000000000
% 00
% 3000000000000000001000000000000000000000000000000000000000000000
% 00
% 3000000000000000001000000000000000000000000000000000000000000000
% 00
% 3000000000000000001000000000000000000000000000000000000000000000
% 00
% 3000000000000000001000000000000000000000000000000000000000000070
% 00
% 300000000000000000100000000000000000000000000000000000000000007c
% 00
% 1fffffffffffffffffffffffffffffffffffffffffffffffffffffffffffffff
% 00
% 000000000000000000100000000000000000000000000000000000000000007c
% 00
% 0000000000000000001000000000000000000000000000000000000000000060
% 00
% 0000000000000000001000000000000000000000000000000000000000000000
% 00
% 0000000000000000001000000000000000000000000000000000000000000000
% 00
% 0000000000000000001000000000000000000000000000000000000000000000
% 00
% 0000000000000000001000000000000000000000000000000000000000000000
% 00
% 0000000000000000001000000000000000000000000000000000000000000000
% 00
% 0000000000000000001000000000000000000000000000000000000000000000
% 00
% 000000000000000000000000000000000000000000006000001c000000000c00
% 00
% 000000000000000000000000000000000000000003f860000010c30000000400
% 00
% 0000000000000000000000000000000000000000024800000010660000000400
% 00
% 00000000000000000000000000000000000000000248e16c7810661e1e0e8400
% 00
% 000000000000000000000000000000000000000000402096cc10662233118400
% 00
% 00000000000000000000000000000000000000000040209684105a3821208400
% 00
% 000000000000000000000000000000000000000000402096fc1042063f200400
% 00
% 0000000000000000000000000000000000000000004020968010422320300400
% 00
% 000000000000000000000000000000000000000001f1f99ffc10e73e3f1f8400
% 00
% 0000000000000000000000000000000000000000000000000010000000000400
% 00
% 000000000000000000000000000000000000000000000000001c000000000c00
% 00
% 000000000000000000000000000000000000000000000000001c000000000c00
% 00
% 0000000000000000000000000000000000000000000000000000000000000000
% 00
%%EndImage
%%EndPreview
%%BeginProlog

/tgifdict 53 dict def
tgifdict begin

/tgifarrowtipdict 8 dict def
tgifarrowtipdict /mtrx matrix put

/TGAT % tgifarrowtip
 { tgifarrowtipdict begin
      /dy exch def
      /dx exch def
      /h exch def
      /w exch def
      /y exch def
      /x exch def
      /savematrix mtrx currentmatrix def
      x y translate
      dy dx atan rotate
      0 0 moveto
      w neg h lineto
      w neg h neg lineto
      savematrix setmatrix
   end
 } def

/TGMAX
 { exch dup 3 1 roll exch dup 3 1 roll gt { pop } { exch pop } ifelse
 } def
/TGMIN
 { exch dup 3 1 roll exch dup 3 1 roll lt { pop } { exch pop } ifelse
 } def
/TGSW { stringwidth pop } def

/bd { bind def } bind def

/GS { gsave } bd
/GR { grestore } bd
/NP { newpath } bd
/CP { closepath } bd
/CHP { charpath } bd
/CT { curveto } bd
/L { lineto } bd
/RL { rlineto } bd
/M { moveto } bd
/RM { rmoveto } bd
/S { stroke } bd
/F { fill } bd
/TR { translate } bd
/RO { rotate } bd
/SC { scale } bd
/MU { mul } bd
/DI { div } bd
/DU { dup } bd
/NE { neg } bd
/AD { add } bd
/SU { sub } bd
/PO { pop } bd
/EX { exch } bd
/CO { concat } bd
/CL { clip } bd
/EC { eoclip } bd
/EF { eofill } bd
/IM { image } bd
/IMM { imagemask } bd
/ARY { array } bd
/SG { setgray } bd
/RG { setrgbcolor } bd
/SD { setdash } bd
/W { setlinewidth } bd
/SM { setmiterlimit } bd
/SLC { setlinecap } bd
/SLJ { setlinejoin } bd
/SH { show } bd
/FF { findfont } bd
/MS { makefont setfont } bd
/AR { arcto 4 {pop} repeat } bd
/CURP { currentpoint } bd
/FLAT { flattenpath strokepath clip newpath } bd
/TGSM { tgiforigctm setmatrix } def
/TGRM { savematrix setmatrix } def

end

%%EndProlog
%%Page: 1 1

%%PageBoundingBox: 68 553 325 757
tgifdict begin
/tgifsavedpage save def

1 SM
1 W

0 SG

72 0 MU 72 11 MU TR
72 128 DI 100.000 MU 100 DI DU NE SC

GS

/tgiforigctm matrix currentmatrix def

% POLY/OPEN-SPLINE
0 SG
GS
   NP
      128 64 M
      320 0 atan DU cos 12.000 MU exch sin 12.000 MU RM
      128 384 L
   TGSM
   3 W
   S
   1 W
GR
GS
   TGSM
   NP
      128 64 12.000 5.000 0 -320 TGAT
   1 SG CP F
   0 SG
   NP
      128 64 12.000 5.000 0 -320 TGAT
   CP F
GR

% POLY/OPEN-SPLINE
0 SG
GS
   NP
      128 384 M
      0 448 atan DU cos 12.000 MU 576 exch SU
      exch sin 12.000 MU 384 exch SU L
   TGSM
   3 W
   S
   1 W
GR
GS
   TGSM
   NP
      576 384 12.000 5.000 448 0 TGAT
   1 SG CP F
   0 SG
   NP
      576 384 12.000 5.000 448 0 TGAT
   CP F
GR

% POLY/OPEN-SPLINE
0 SG
GS
   NP
      256 368 M
      256 400 L
   TGSM
   1 W
   S
GR

% POLY/OPEN-SPLINE
0 SG
GS
   NP
      368 368 M
      368 400 L
   TGSM
   1 W
   S
GR

% POLY/OPEN-SPLINE
1.000 0.000 0.000 RG
GS
   [4 4] 0 SD
   NP
      256 272 M
      512 272 L
   TGSM
   1 W
   S
   [] 0 SD
GR

% TEXT
NP
1.000 0.000 0.000 RG
   GS
      1 W
      416 304 M
      GS
            1.000 0.000 0.000 RG
            /Courier-Bold FF [24 0 0 -24 0 0] MS
            (Velocity) SH
      GR
   GR

% POLY/OPEN-SPLINE
0.000 0.000 1.000 RG
GS
   NP
      256 320 M
      368 320 L
   TGSM
   1 W
   S
GR

% POLY/OPEN-SPLINE
0.000 0.000 1.000 RG
GS
   NP
      368 224 M
      544 224 L
   TGSM
   1 W
   S
GR

% TEXT
NP
0.000 0.000 1.000 RG
   GS
      1 W
      464 176 M
      GS
        GS
        0
            /Courier-Bold FF [24 0 0 -24 0 0] MS
            (Mass Flow) TGSW 
        AD
        GR
      2 DI NE 0 RM
            0.000 0.000 1.000 RG
            /Courier-Bold FF [24 0 0 -24 0 0] MS
            (Mass Flow) SH
      GR
      0 25 RM
      GS
        GS
        0
            /Courier-Bold FF [24 0 0 -24 0 0] MS
            (Rate) TGSW 
        AD
        GR
      2 DI NE 0 RM
            0.000 0.000 1.000 RG
            /Courier-Bold FF [24 0 0 -24 0 0] MS
            (Rate) SH
      GR
   GR

% TEXT
NP
0.000 0.000 1.000 RG
   GS
      1 W
      416 416 M
      GS
            0.000 0.000 1.000 RG
            /Courier-Bold FF [24 0 0 -24 0 0] MS
            (Time[Msec]) SH
      GR
   GR

GR
tgifsavedpage restore
end
showpage

%%Trailer
%MatchingCreationDate: Thu Oct 19 13:36:45 2006
%%DocumentFonts: Courier-Bold
%%EOF
