%!PS-Adobe-3.0 EPSF-3.0
%%BoundingBox: 17 50 539 548
%%LanguageLevel: 2
%%Creator: Grace-5.1.16
%%CreationDate: Wed Aug 23 17:46:38 2006
%%DocumentData: Clean8Bit
%%Orientation: Portrait
%%Title: cont/shock/OpenSuddenlyConvergence1.3.agr
%%For: genick
%%DocumentNeededResources: (atend)
%%EndComments
%%BeginProlog
/m {moveto} def
/l {lineto} def
/s {stroke} def
/n {newpath} def
/c {closepath} def
/RL {rlineto} def
/SLW {setlinewidth} def
/GS {gsave} def
/GR {grestore} def
/SC {setcolor} def
/SGRY {setgray} def
/SRGB {setrgbcolor} def
/SD {setdash} def
/SLC {setlinecap} def
/SLJ {setlinejoin} def
/SCS {setcolorspace} def
/FFSF {findfont setfont} def
/CC {concat} def
/PXL {n m 0 0 RL s} def
/Color0 {1.0000 1.0000 1.0000} def
/Color1 {0.0000 0.0000 0.0000} def
/Color2 {1.0000 0.0000 0.0000} def
/Color3 {0.0000 1.0000 0.0000} def
/Color4 {0.0000 0.0000 1.0000} def
/Color5 {1.0000 1.0000 0.0000} def
/Color6 {0.7373 0.5608 0.5608} def
/Color7 {0.8627 0.8627 0.8627} def
/Color8 {0.5804 0.0000 0.8275} def
/Color9 {0.0000 1.0000 1.0000} def
/Color10 {1.0000 0.0000 1.0000} def
/Color11 {1.0000 0.6471 0.0000} def
/Color12 {0.4471 0.1294 0.7373} def
/Color13 {0.4039 0.0275 0.2824} def
/Color14 {0.2510 0.8784 0.8157} def
/Color15 {0.0000 0.5451 0.0000} def
/Color16 {0.7529 0.7529 0.7529} def
/Color17 {0.5059 0.5059 0.5059} def
/Color18 {0.2588 0.2588 0.2588} def
/PTRN {
 /pat_bits exch def 
 <<
  /PaintType 2
  /PatternType 1 /TilingType 1
  /BBox[0 0 16 16]
  /XStep 16 /YStep 16
  /PaintProc {
   pop
   16 16 true [-1 0 0 -1 16 16] pat_bits imagemask
  }
 >>
 [0.0016 0 0 0.0016 0 0]
 makepattern
} def
/Pattern0 {<0000000000000000000000000000000000000000000000000000000000000000> PTRN} bind def
/Pattern1 {<ffffffffffffffffffffffffffffffffffffffffffffffffffffffffffffffff> PTRN} bind def
/Pattern2 {<eeeeffffbbbbffffeeeeffffbbbbffffeeeeffffbbbbffffeeeeffffbbbbffff> PTRN} bind def
/Pattern3 {<eeeebbbbeeeebbbbeeeebbbbeeeebbbbeeeebbbbeeeebbbbeeeebbbbeeeebbbb> PTRN} bind def
/Pattern4 {<5555aaaa5555aaaa5555aaaa5555aaaa5555aaaa5555aaaa5555aaaa5555aaaa> PTRN} bind def
/Pattern5 {<1111444411114444111144441111444411114444111144441111444411114444> PTRN} bind def
/Pattern6 {<1111000044440000111100004444000011110000444400001111000044440000> PTRN} bind def
/Pattern7 {<1010000000000000010100000000000010100000000000000101000000000000> PTRN} bind def
/Pattern8 {<0000000000000000000000000000000000000000000000000000000000000000> PTRN} bind def
/Pattern9 {<1e1e0f0f8787c3c3e1e1f0f078783c3c1e1e0f0f8787c3c3e1e1f0f078783c3c> PTRN} bind def
/Pattern10 {<7878f0f0e1e1c3c387870f0f1e1e3c3c7878f0f0e1e1c3c387870f0f1e1e3c3c> PTRN} bind def
/Pattern11 {<3333333333333333333333333333333333333333333333333333333333333333> PTRN} bind def
/Pattern12 {<ffffffff00000000ffffffff00000000ffffffff00000000ffffffff00000000> PTRN} bind def
/Pattern13 {<8181424224241818181824244242818181814242242418181818242442428181> PTRN} bind def
/Pattern14 {<8080404020201010080804040202010180804040202010100808040402020101> PTRN} bind def
/Pattern15 {<0101020204040808101020204040808001010202040408081010202040408080> PTRN} bind def
/Pattern16 {<2222222222222222222222222222222222222222222222222222222222222222> PTRN} bind def
/Pattern17 {<0000ffff000000000000ffff000000000000ffff000000000000ffff00000000> PTRN} bind def
/Pattern18 {<2222ffff222222222222ffff222222222222ffff222222222222ffff22222222> PTRN} bind def
/Pattern19 {<ffffffff33333333ffffffff33333333ffffffff33333333ffffffff33333333> PTRN} bind def
/Pattern20 {<0f0f0f0f0f0f0f0ff0f0f0f0f0f0f0f00f0f0f0f0f0f0f0ff0f0f0f0f0f0f0f0> PTRN} bind def
/Pattern21 {<ff00ff00ff00ff00ff00ff00ff00ff0000ff00ff00ff00ff00ff00ff00ff00ff> PTRN} bind def
/Pattern22 {<8001800180018001800180018001ffffffff8001800180018001800180018001> PTRN} bind def
/Pattern23 {<c003c003c003c003c003c003ffffffffffffffffc003c003c003c003c003c003> PTRN} bind def
/Pattern24 {<040404040404ffff404040404040ffff040404040404ffff404040404040ffff> PTRN} bind def
/Pattern25 {<180018001800180018001800ffffffff001800180018001800180018ffffffff> PTRN} bind def
/Pattern26 {<1111b8b87c7c3a3a1111a3a3c7c78b8b1111b8b87c7c3a3a1111a3a3c7c78b8b> PTRN} bind def
/Pattern27 {<101010102828c7c70101010182827c7c101010102828c7c70101010182827c7c> PTRN} bind def
/Pattern28 {<1c1c121211112121c1c12121111112121c1c121211112121c1c1212111111212> PTRN} bind def
/Pattern29 {<3e3e414180808080e3e31414080808083e3e414180808080e3e3141408080808> PTRN} bind def
/Pattern30 {<4848888884848383848488884848383848488888848483838484888848483838> PTRN} bind def
/Pattern31 {<03030404080808080c0c12122121c0c003030404080808080c0c12122121c0c0> PTRN} bind def
/ellipsedict 8 dict def
ellipsedict /mtrx matrix put
/EARC {
 ellipsedict begin
  /endangle exch def
  /startangle exch def
  /yrad exch def
  /xrad exch def
  /y exch def
  /x exch def
  /savematrix mtrx currentmatrix def
  x y translate
  xrad yrad scale
  0 0 1 startangle endangle arc
  savematrix setmatrix
 end
} def
/TL {
  /kcomp exch def
  /linewidth exch def
  /offset exch def
  GS
  0 offset rmoveto
  linewidth SLW
  dup stringwidth exch kcomp add exch RL s
  GR
} def
/KINIT
{
 /kvector exch def
 /kid 0 def
} def
/KPROC
{
 pop pop
 kvector kid get
 0 rmoveto
 /kid 1 kid add def
} def
/DefEncoding [
 /.notdef
 /.notdef
 /.notdef
 /.notdef
 /.notdef
 /.notdef
 /.notdef
 /.notdef
 /.notdef
 /.notdef
 /.notdef
 /.notdef
 /.notdef
 /.notdef
 /.notdef
 /.notdef
 /.notdef
 /.notdef
 /.notdef
 /.notdef
 /.notdef
 /.notdef
 /.notdef
 /.notdef
 /.notdef
 /.notdef
 /.notdef
 /.notdef
 /.notdef
 /.notdef
 /.notdef
 /.notdef
 /space
 /exclam
 /quotedbl
 /numbersign
 /dollar
 /percent
 /ampersand
 /quoteright
 /parenleft
 /parenright
 /asterisk
 /plus
 /comma
 /hyphen
 /period
 /slash
 /zero
 /one
 /two
 /three
 /four
 /five
 /six
 /seven
 /eight
 /nine
 /colon
 /semicolon
 /less
 /equal
 /greater
 /question
 /at
 /A
 /B
 /C
 /D
 /E
 /F
 /G
 /H
 /I
 /J
 /K
 /L
 /M
 /N
 /O
 /P
 /Q
 /R
 /S
 /T
 /U
 /V
 /W
 /X
 /Y
 /Z
 /bracketleft
 /backslash
 /bracketright
 /asciicircum
 /underscore
 /grave
 /a
 /b
 /c
 /d
 /e
 /f
 /g
 /h
 /i
 /j
 /k
 /l
 /m
 /n
 /o
 /p
 /q
 /r
 /s
 /t
 /u
 /v
 /w
 /x
 /y
 /z
 /braceleft
 /bar
 /braceright
 /asciitilde
 /.notdef
 /.notdef
 /.notdef
 /.notdef
 /.notdef
 /.notdef
 /.notdef
 /.notdef
 /.notdef
 /.notdef
 /.notdef
 /.notdef
 /.notdef
 /.notdef
 /.notdef
 /.notdef
 /.notdef
 /.notdef
 /.notdef
 /.notdef
 /.notdef
 /.notdef
 /.notdef
 /.notdef
 /.notdef
 /.notdef
 /.notdef
 /.notdef
 /.notdef
 /.notdef
 /.notdef
 /.notdef
 /.notdef
 /space
 /exclamdown
 /cent
 /sterling
 /currency
 /yen
 /brokenbar
 /section
 /dieresis
 /copyright
 /ordfeminine
 /guillemotleft
 /logicalnot
 /hyphen
 /registered
 /macron
 /degree
 /plusminus
 /twosuperior
 /threesuperior
 /acute
 /mu
 /paragraph
 /periodcentered
 /cedilla
 /onesuperior
 /ordmasculine
 /guillemotright
 /onequarter
 /onehalf
 /threequarters
 /questiondown
 /Agrave
 /Aacute
 /Acircumflex
 /Atilde
 /Adieresis
 /Aring
 /AE
 /Ccedilla
 /Egrave
 /Eacute
 /Ecircumflex
 /Edieresis
 /Igrave
 /Iacute
 /Icircumflex
 /Idieresis
 /Eth
 /Ntilde
 /Ograve
 /Oacute
 /Ocircumflex
 /Otilde
 /Odieresis
 /multiply
 /Oslash
 /Ugrave
 /Uacute
 /Ucircumflex
 /Udieresis
 /Yacute
 /Thorn
 /germandbls
 /agrave
 /aacute
 /acircumflex
 /atilde
 /adieresis
 /aring
 /ae
 /ccedilla
 /egrave
 /eacute
 /ecircumflex
 /edieresis
 /igrave
 /iacute
 /icircumflex
 /idieresis
 /eth
 /ntilde
 /ograve
 /oacute
 /ocircumflex
 /otilde
 /odieresis
 /divide
 /oslash
 /ugrave
 /uacute
 /ucircumflex
 /udieresis
 /yacute
 /thorn
 /ydieresis
] def
%%EndProlog
%%BeginSetup
612.00 612.00 scale
%%EndSetup
n
0.0000 0.0000 m
0.0000 1.2941 l
1.0000 1.2941 l
1.0000 0.0000 l
c
[/DeviceRGB] SCS
Color0 SC
fill
[/DeviceRGB] SCS
Color2 SC
[] 0 SD
0.0015 SLW
0 SLC
0 SLJ
n
0.1242 0.3440 m
0.1596 0.5397 l
0.1951 0.5789 l
0.2306 0.5968 l
0.2660 0.6057 l
0.3015 0.6102 l
0.3369 0.6125 l
0.3724 0.6137 l
0.4078 0.6143 l
0.4433 0.6146 l
0.4788 0.6147 l
0.5142 0.6149 l
0.5497 0.6149 l
0.5851 0.6149 l
0.6206 0.6149 l
0.6560 0.6149 l
0.6915 0.6149 l
0.7270 0.6149 l
0.7624 0.6149 l
0.7979 0.6149 l
0.8333 0.6149 l
s
[/Pattern /DeviceRGB] SCS
Color9 Pattern13 SC
n
0.1242 0.3440 m
0.1596 0.2739 l
0.1951 0.2698 l
0.2306 0.2683 l
0.2660 0.2676 l
0.3015 0.2672 l
0.3369 0.2671 l
0.3724 0.2670 l
0.4078 0.2669 l
0.4433 0.2669 l
0.4788 0.2669 l
0.5142 0.2669 l
0.5497 0.2669 l
0.5851 0.2669 l
0.6206 0.2669 l
0.6560 0.2669 l
0.6915 0.2669 l
0.7270 0.2669 l
0.7624 0.2669 l
0.7979 0.2669 l
0.8333 0.2669 l
s
[/Pattern /DeviceRGB] SCS
Color3 Pattern21 SC
n
0.1242 0.3440 m
0.1596 0.4866 l
0.1951 0.5242 l
0.2306 0.5429 l
0.2660 0.5524 l
0.3015 0.5572 l
0.3369 0.5596 l
0.3724 0.5610 l
0.4078 0.5616 l
0.4433 0.5620 l
0.4788 0.5622 l
0.5142 0.5623 l
0.5497 0.5623 l
0.5851 0.5623 l
0.6206 0.5623 l
0.6560 0.5623 l
0.6915 0.5623 l
0.7270 0.5623 l
0.7624 0.5623 l
0.7979 0.5623 l
0.8333 0.5623 l
s
[/DeviceRGB] SCS
Color1 SC
n
0.1242 0.2386 m
0.8333 0.2386 l
s
n
0.1242 0.7958 m
0.8333 0.7958 l
s
n
0.1419 0.2386 m
0.1419 0.2486 l
s
n
0.1419 0.7958 m
0.1419 0.7858 l
s
n
0.1596 0.2386 m
0.1596 0.2486 l
s
n
0.1596 0.7958 m
0.1596 0.7858 l
s
n
0.1774 0.2386 m
0.1774 0.2486 l
s
n
0.1774 0.7958 m
0.1774 0.7858 l
s
n
0.1951 0.2386 m
0.1951 0.2486 l
s
n
0.1951 0.7958 m
0.1951 0.7858 l
s
n
0.2128 0.2386 m
0.2128 0.2486 l
s
n
0.2128 0.7958 m
0.2128 0.7858 l
s
n
0.2306 0.2386 m
0.2306 0.2486 l
s
n
0.2306 0.7958 m
0.2306 0.7858 l
s
n
0.2483 0.2386 m
0.2483 0.2486 l
s
n
0.2483 0.7958 m
0.2483 0.7858 l
s
n
0.2660 0.2386 m
0.2660 0.2486 l
s
n
0.2660 0.7958 m
0.2660 0.7858 l
s
n
0.2837 0.2386 m
0.2837 0.2486 l
s
n
0.2837 0.7958 m
0.2837 0.7858 l
s
n
0.3192 0.2386 m
0.3192 0.2486 l
s
n
0.3192 0.7958 m
0.3192 0.7858 l
s
n
0.3369 0.2386 m
0.3369 0.2486 l
s
n
0.3369 0.7958 m
0.3369 0.7858 l
s
n
0.3547 0.2386 m
0.3547 0.2486 l
s
n
0.3547 0.7958 m
0.3547 0.7858 l
s
n
0.3724 0.2386 m
0.3724 0.2486 l
s
n
0.3724 0.7958 m
0.3724 0.7858 l
s
n
0.3901 0.2386 m
0.3901 0.2486 l
s
n
0.3901 0.7958 m
0.3901 0.7858 l
s
n
0.4078 0.2386 m
0.4078 0.2486 l
s
n
0.4078 0.7958 m
0.4078 0.7858 l
s
n
0.4256 0.2386 m
0.4256 0.2486 l
s
n
0.4256 0.7958 m
0.4256 0.7858 l
s
n
0.4433 0.2386 m
0.4433 0.2486 l
s
n
0.4433 0.7958 m
0.4433 0.7858 l
s
n
0.4610 0.2386 m
0.4610 0.2486 l
s
n
0.4610 0.7958 m
0.4610 0.7858 l
s
n
0.4965 0.2386 m
0.4965 0.2486 l
s
n
0.4965 0.7958 m
0.4965 0.7858 l
s
n
0.5142 0.2386 m
0.5142 0.2486 l
s
n
0.5142 0.7958 m
0.5142 0.7858 l
s
n
0.5319 0.2386 m
0.5319 0.2486 l
s
n
0.5319 0.7958 m
0.5319 0.7858 l
s
n
0.5497 0.2386 m
0.5497 0.2486 l
s
n
0.5497 0.7958 m
0.5497 0.7858 l
s
n
0.5674 0.2386 m
0.5674 0.2486 l
s
n
0.5674 0.7958 m
0.5674 0.7858 l
s
n
0.5851 0.2386 m
0.5851 0.2486 l
s
n
0.5851 0.7958 m
0.5851 0.7858 l
s
n
0.6029 0.2386 m
0.6029 0.2486 l
s
n
0.6029 0.7958 m
0.6029 0.7858 l
s
n
0.6206 0.2386 m
0.6206 0.2486 l
s
n
0.6206 0.7958 m
0.6206 0.7858 l
s
n
0.6383 0.2386 m
0.6383 0.2486 l
s
n
0.6383 0.7958 m
0.6383 0.7858 l
s
n
0.6738 0.2386 m
0.6738 0.2486 l
s
n
0.6738 0.7958 m
0.6738 0.7858 l
s
n
0.6915 0.2386 m
0.6915 0.2486 l
s
n
0.6915 0.7958 m
0.6915 0.7858 l
s
n
0.7092 0.2386 m
0.7092 0.2486 l
s
n
0.7092 0.7958 m
0.7092 0.7858 l
s
n
0.7270 0.2386 m
0.7270 0.2486 l
s
n
0.7270 0.7958 m
0.7270 0.7858 l
s
n
0.7447 0.2386 m
0.7447 0.2486 l
s
n
0.7447 0.7958 m
0.7447 0.7858 l
s
n
0.7624 0.2386 m
0.7624 0.2486 l
s
n
0.7624 0.7958 m
0.7624 0.7858 l
s
n
0.7801 0.2386 m
0.7801 0.2486 l
s
n
0.7801 0.7958 m
0.7801 0.7858 l
s
n
0.7979 0.2386 m
0.7979 0.2486 l
s
n
0.7979 0.7958 m
0.7979 0.7858 l
s
n
0.8156 0.2386 m
0.8156 0.2486 l
s
n
0.8156 0.7958 m
0.8156 0.7858 l
s
n
0.1242 0.2386 m
0.1242 0.2586 l
s
n
0.1242 0.7958 m
0.1242 0.7758 l
s
n
0.3015 0.2386 m
0.3015 0.2586 l
s
n
0.3015 0.7958 m
0.3015 0.7758 l
s
n
0.4788 0.2386 m
0.4788 0.2586 l
s
n
0.4788 0.7958 m
0.4788 0.7758 l
s
n
0.6560 0.2386 m
0.6560 0.2586 l
s
n
0.6560 0.7958 m
0.6560 0.7758 l
s
n
0.8333 0.2386 m
0.8333 0.2586 l
s
n
0.8333 0.7958 m
0.8333 0.7758 l
s
/Times-Roman findfont
dup length dict begin
 {1 index /FID ne {def} {pop pop} ifelse} forall
 /Encoding DefEncoding def
 currentdict
end
/Font0 exch definefont pop
/Font0 FFSF
0.1175 0.2097 m
GS
[0.0280 0.0000 0.0000 0.0280 0 0] CC
(0) show
GR
/Font0 FFSF
0.2954 0.2093 m
GS
[0.0280 0.0000 0.0000 0.0280 0 0] CC
(5) show
GR
/Font0 FFSF
0.4650 0.2097 m
GS
[0.0280 0.0000 0.0000 0.0280 0 0] CC
(10) show
GR
/Font0 FFSF
0.6429 0.2093 m
GS
[0.0280 0.0000 0.0000 0.0280 0 0] CC
(15) show
GR
/Font0 FFSF
0.8196 0.2097 m
GS
[0.0280 0.0000 0.0000 0.0280 0 0] CC
(20) show
GR
/Font0 FFSF
0.3670 0.1797 m
GS
[0.0280 0.0000 0.0000 0.0280 0 0] CC
(Number of Iteration) show
GR
n
0.1242 0.2386 m
0.1242 0.7958 l
s
n
0.8333 0.2386 m
0.8333 0.7958 l
s
n
0.1242 0.2436 m
0.1342 0.2436 l
s
n
0.8333 0.2436 m
0.8233 0.2436 l
s
n
0.1242 0.2561 m
0.1342 0.2561 l
s
n
0.8333 0.2561 m
0.8233 0.2561 l
s
n
0.1242 0.2812 m
0.1342 0.2812 l
s
n
0.8333 0.2812 m
0.8233 0.2812 l
s
n
0.1242 0.2938 m
0.1342 0.2938 l
s
n
0.8333 0.2938 m
0.8233 0.2938 l
s
n
0.1242 0.3063 m
0.1342 0.3063 l
s
n
0.8333 0.3063 m
0.8233 0.3063 l
s
n
0.1242 0.3189 m
0.1342 0.3189 l
s
n
0.8333 0.3189 m
0.8233 0.3189 l
s
n
0.1242 0.3314 m
0.1342 0.3314 l
s
n
0.8333 0.3314 m
0.8233 0.3314 l
s
n
0.1242 0.3565 m
0.1342 0.3565 l
s
n
0.8333 0.3565 m
0.8233 0.3565 l
s
n
0.1242 0.3691 m
0.1342 0.3691 l
s
n
0.8333 0.3691 m
0.8233 0.3691 l
s
n
0.1242 0.3816 m
0.1342 0.3816 l
s
n
0.8333 0.3816 m
0.8233 0.3816 l
s
n
0.1242 0.3942 m
0.1342 0.3942 l
s
n
0.8333 0.3942 m
0.8233 0.3942 l
s
n
0.1242 0.4067 m
0.1342 0.4067 l
s
n
0.8333 0.4067 m
0.8233 0.4067 l
s
n
0.1242 0.4318 m
0.1342 0.4318 l
s
n
0.8333 0.4318 m
0.8233 0.4318 l
s
n
0.1242 0.4444 m
0.1342 0.4444 l
s
n
0.8333 0.4444 m
0.8233 0.4444 l
s
n
0.1242 0.4569 m
0.1342 0.4569 l
s
n
0.8333 0.4569 m
0.8233 0.4569 l
s
n
0.1242 0.4695 m
0.1342 0.4695 l
s
n
0.8333 0.4695 m
0.8233 0.4695 l
s
n
0.1242 0.4820 m
0.1342 0.4820 l
s
n
0.8333 0.4820 m
0.8233 0.4820 l
s
n
0.1242 0.5071 m
0.1342 0.5071 l
s
n
0.8333 0.5071 m
0.8233 0.5071 l
s
n
0.1242 0.5197 m
0.1342 0.5197 l
s
n
0.8333 0.5197 m
0.8233 0.5197 l
s
n
0.1242 0.5322 m
0.1342 0.5322 l
s
n
0.8333 0.5322 m
0.8233 0.5322 l
s
n
0.1242 0.5448 m
0.1342 0.5448 l
s
n
0.8333 0.5448 m
0.8233 0.5448 l
s
n
0.1242 0.5573 m
0.1342 0.5573 l
s
n
0.8333 0.5573 m
0.8233 0.5573 l
s
n
0.1242 0.5824 m
0.1342 0.5824 l
s
n
0.8333 0.5824 m
0.8233 0.5824 l
s
n
0.1242 0.5950 m
0.1342 0.5950 l
s
n
0.8333 0.5950 m
0.8233 0.5950 l
s
n
0.1242 0.6075 m
0.1342 0.6075 l
s
n
0.8333 0.6075 m
0.8233 0.6075 l
s
n
0.1242 0.6201 m
0.1342 0.6201 l
s
n
0.8333 0.6201 m
0.8233 0.6201 l
s
n
0.1242 0.6326 m
0.1342 0.6326 l
s
n
0.8333 0.6326 m
0.8233 0.6326 l
s
n
0.1242 0.6577 m
0.1342 0.6577 l
s
n
0.8333 0.6577 m
0.8233 0.6577 l
s
n
0.1242 0.6703 m
0.1342 0.6703 l
s
n
0.8333 0.6703 m
0.8233 0.6703 l
s
n
0.1242 0.6828 m
0.1342 0.6828 l
s
n
0.8333 0.6828 m
0.8233 0.6828 l
s
n
0.1242 0.6954 m
0.1342 0.6954 l
s
n
0.8333 0.6954 m
0.8233 0.6954 l
s
n
0.1242 0.7079 m
0.1342 0.7079 l
s
n
0.8333 0.7079 m
0.8233 0.7079 l
s
n
0.1242 0.7330 m
0.1342 0.7330 l
s
n
0.8333 0.7330 m
0.8233 0.7330 l
s
n
0.1242 0.7456 m
0.1342 0.7456 l
s
n
0.8333 0.7456 m
0.8233 0.7456 l
s
n
0.1242 0.7581 m
0.1342 0.7581 l
s
n
0.8333 0.7581 m
0.8233 0.7581 l
s
n
0.1242 0.7707 m
0.1342 0.7707 l
s
n
0.8333 0.7707 m
0.8233 0.7707 l
s
n
0.1242 0.7832 m
0.1342 0.7832 l
s
n
0.8333 0.7832 m
0.8233 0.7832 l
s
n
0.1242 0.2687 m
0.1442 0.2687 l
s
n
0.8333 0.2687 m
0.8133 0.2687 l
s
n
0.1242 0.3440 m
0.1442 0.3440 l
s
n
0.8333 0.3440 m
0.8133 0.3440 l
s
n
0.1242 0.4193 m
0.1442 0.4193 l
s
n
0.8333 0.4193 m
0.8133 0.4193 l
s
n
0.1242 0.4946 m
0.1442 0.4946 l
s
n
0.8333 0.4946 m
0.8133 0.4946 l
s
n
0.1242 0.5699 m
0.1442 0.5699 l
s
n
0.8333 0.5699 m
0.8133 0.5699 l
s
n
0.1242 0.6452 m
0.1442 0.6452 l
s
n
0.8333 0.6452 m
0.8133 0.6452 l
s
n
0.1242 0.7205 m
0.1442 0.7205 l
s
n
0.8333 0.7205 m
0.8133 0.7205 l
s
n
0.1242 0.7958 m
0.1442 0.7958 l
s
n
0.8333 0.7958 m
0.8133 0.7958 l
s
/Font0 FFSF
0.0808 0.2593 m
GS
[0.0280 0.0000 0.0000 0.0280 0 0] CC
(0.5) show
GR
/Font0 FFSF
0.1032 0.3346 m
GS
[0.0280 0.0000 0.0000 0.0280 0 0] CC
(1) show
GR
/Font0 FFSF
0.0808 0.4099 m
GS
[0.0280 0.0000 0.0000 0.0280 0 0] CC
(1.5) show
GR
/Font0 FFSF
0.1008 0.4852 m
GS
[0.0280 0.0000 0.0000 0.0280 0 0] CC
(2) show
GR
/Font0 FFSF
0.0808 0.5605 m
GS
[0.0280 0.0000 0.0000 0.0280 0 0] CC
(2.5) show
GR
/Font0 FFSF
0.1020 0.6359 m
GS
[0.0280 0.0000 0.0000 0.0280 0 0] CC
(3) show
GR
/Font0 FFSF
0.0808 0.7110 m
GS
[0.0280 0.0000 0.0000 0.0280 0 0] CC
(3.5) show
GR
/Font0 FFSF
0.1008 0.7863 m
GS
[0.0280 0.0000 0.0000 0.0280 0 0] CC
(4) show
GR
n
0.1242 0.2386 m
0.1242 0.7958 l
0.8333 0.7958 l
0.8333 0.2386 l
0.1242 0.2386 l
c
s
n
0.3367 0.7700 m
0.3367 0.6321 l
0.4786 0.6321 l
0.4786 0.7700 l
c
[/DeviceRGB] SCS
Color0 SC
fill
/Font0 FFSF
[/DeviceRGB] SCS
Color1 SC
0.4074 0.7416 m
GS
[0.0280 0.0000 0.0000 0.0280 0 0] CC
(M) show
GR
/Font0 FFSF
0.4322 0.7304 m
GS
[0.0198 0.0000 0.0000 0.0198 0 0] CC
(x) show
GR
[/DeviceRGB] SCS
Color2 SC
n
0.3474 0.7452 m
0.3874 0.7452 l
s
/Font0 FFSF
[/DeviceRGB] SCS
Color1 SC
0.4074 0.7019 m
GS
[0.0280 0.0000 0.0000 0.0280 0 0] CC
(M) show
GR
/Font0 FFSF
0.4322 0.6907 m
GS
[0.0198 0.0000 0.0000 0.0198 0 0] CC
(y) show
GR
[/Pattern /DeviceRGB] SCS
Color9 Pattern13 SC
n
0.3474 0.7034 m
0.3874 0.7034 l
s
/Font0 FFSF
[/DeviceRGB] SCS
Color1 SC
0.4074 0.6576 m
GS
[0.0280 0.0000 0.0000 0.0280 0 0] CC
(T) show
GR
/Font0 FFSF
0.4247 0.6464 m
GS
[0.0198 0.0000 0.0000 0.0198 0 0] CC
(y) show
GR
/Font0 FFSF
0.4345 0.6576 m
GS
[0.0280 0.0000 0.0000 0.0280 0 0] CC
(/T) show
GR
/Font0 FFSF
0.4592 0.6464 m
GS
[0.0198 0.0000 0.0000 0.0198 0 0] CC
(x) show
GR
[/Pattern /DeviceRGB] SCS
Color3 Pattern21 SC
n
0.3474 0.6593 m
0.3874 0.6593 l
s
/Font0 FFSF
[/DeviceRGB] SCS
Color1 SC
0.1941 0.8648 m
GS
[0.0420 0.0000 0.0000 0.0420 0 0] CC
(Shock in A Suddenly Open Valve) show
GR
/Font0 FFSF
0.3790 0.8313 m
GS
[0.0280 0.0000 0.0000 0.0280 0 0] CC
(k = 1 4, M) show
GR
/Font0 FFSF
0.4966 0.8201 m
GS
[0.0198 0.0000 0.0000 0.0198 0 0] CC
(y) show
GR
/Font0 FFSF
0.5064 0.8313 m
GS
[0.0280 0.0000 0.0000 0.0280 0 0] CC
(' = 1.3) show
GR
n
0.8775 0.7729 m
0.8775 0.7727 l
0.8778 0.7727 l
0.8778 0.7729 l
0.8775 0.7729 l
c
s
/Font0 FFSF
0.0300 0.0900 m
GS
[0.0280 0.0000 0.0000 0.0280 0 0] CC
(Wed Aug 23 17:46:15 2006) show
GR
%%Trailer
%%BoundingBox: 17 50 539 548
%%DocumentNeededResources: font Times-Roman
%%EOF
