%!PS-Adobe-2.0 EPSF-2.0
%%Creator: GLE 4.2.1 <www.gle-graphics.org>
%%CreationDate: Thu Mar 14 13:37:28 2013
%%Title: fastObjMoving.gle
%%BoundingBox: 0 0 1051 343
%%HiResBoundingBox: 0 0 1050.82 342.157
%%EndComments
%%EndProlog
gsave
/f {findfont exch scalefont setfont} bind def
/s {show} bind def
/ps {true charpath} bind def
/l {lineto} bind def
/m {newpath moveto} bind def
matrix currentmatrix /originmat exch def
/umatrix {originmat matrix concatmatrix setmatrix} def
[28.3465 0 0 28.3465 0 0] umatrix
[28.3465 0 0 28.3465 1 1] umatrix
[] 0 setdash
0.02 setlinewidth
0 0 0 setrgbcolor
0 0 m
5.5 6 m
0.142857 setlinewidth
0.25098 1 0 setrgbcolor
5.5 6 m
newpath 5.5 6 5 0 360 arc
closepath stroke
5.5 6 m
7 6 m
0.139286 setlinewidth
0.243137 1 0.0235294 setrgbcolor
7 6 m
newpath 7 6 4.875 0 360 arc
closepath stroke
7 6 m
8.4625 6 m
0.135714 setlinewidth
0.239216 1 0.0509804 setrgbcolor
8.4625 6 m
newpath 8.4625 6 4.75 0 360 arc
closepath stroke
8.4625 6 m
9.8875 6 m
0.132143 setlinewidth
0.231373 1 0.0745098 setrgbcolor
9.8875 6 m
newpath 9.8875 6 4.625 0 360 arc
closepath stroke
9.8875 6 m
11.275 6 m
0.128571 setlinewidth
0.223529 1 0.101961 setrgbcolor
11.275 6 m
newpath 11.275 6 4.5 0 360 arc
closepath stroke
11.275 6 m
12.625 6 m
0.125 setlinewidth
0.219608 1 0.12549 setrgbcolor
12.625 6 m
newpath 12.625 6 4.375 0 360 arc
closepath stroke
12.625 6 m
13.9375 6 m
0.121429 setlinewidth
0.211765 1 0.14902 setrgbcolor
13.9375 6 m
newpath 13.9375 6 4.25 0 360 arc
closepath stroke
13.9375 6 m
15.2125 6 m
0.117857 setlinewidth
0.207843 1 0.176471 setrgbcolor
15.2125 6 m
newpath 15.2125 6 4.125 0 360 arc
closepath stroke
15.2125 6 m
16.45 6 m
0.114286 setlinewidth
0.2 1 0.2 setrgbcolor
16.45 6 m
newpath 16.45 6 4 0 360 arc
closepath stroke
16.45 6 m
17.65 6 m
0.110714 setlinewidth
0.192157 1 0.223529 setrgbcolor
17.65 6 m
newpath 17.65 6 3.875 0 360 arc
closepath stroke
17.65 6 m
18.8125 6 m
0.107143 setlinewidth
0.188235 1 0.25098 setrgbcolor
18.8125 6 m
newpath 18.8125 6 3.75 0 360 arc
closepath stroke
18.8125 6 m
19.9375 6 m
0.103571 setlinewidth
0.180392 1 0.27451 setrgbcolor
19.9375 6 m
newpath 19.9375 6 3.625 0 360 arc
closepath stroke
19.9375 6 m
21.025 6 m
0.1 setlinewidth
0.176471 1 0.301961 setrgbcolor
21.025 6 m
newpath 21.025 6 3.5 0 360 arc
closepath stroke
21.025 6 m
22.075 6 m
0.0964286 setlinewidth
0.168627 1 0.32549 setrgbcolor
22.075 6 m
newpath 22.075 6 3.375 0 360 arc
closepath stroke
22.075 6 m
23.0875 6 m
0.0928571 setlinewidth
0.160784 1 0.34902 setrgbcolor
23.0875 6 m
newpath 23.0875 6 3.25 0 360 arc
closepath stroke
23.0875 6 m
24.0625 6 m
0.0892857 setlinewidth
0.156863 1 0.376471 setrgbcolor
24.0625 6 m
newpath 24.0625 6 3.125 0 360 arc
closepath stroke
24.0625 6 m
25 6 m
0.0857143 setlinewidth
0.14902 1 0.4 setrgbcolor
25 6 m
newpath 25 6 3 0 360 arc
closepath stroke
25 6 m
25.9 6 m
0.0821429 setlinewidth
0.145098 0.956863 0.423529 setrgbcolor
25.9 6 m
newpath 25.9 6 2.875 0 360 arc
closepath stroke
25.9 6 m
26.7625 6 m
0.0785714 setlinewidth
0.137255 0.917647 0.45098 setrgbcolor
26.7625 6 m
newpath 26.7625 6 2.75 0 360 arc
closepath stroke
26.7625 6 m
27.5875 6 m
0.075 setlinewidth
0.129412 0.87451 0.47451 setrgbcolor
27.5875 6 m
newpath 27.5875 6 2.625 0 360 arc
closepath stroke
27.5875 6 m
28.375 6 m
0.0714286 setlinewidth
0.12549 0.835294 0.501961 setrgbcolor
28.375 6 m
newpath 28.375 6 2.5 0 360 arc
closepath stroke
28.375 6 m
29.125 6 m
0.0678571 setlinewidth
0.117647 0.792157 0.52549 setrgbcolor
29.125 6 m
newpath 29.125 6 2.375 0 360 arc
closepath stroke
29.125 6 m
29.8375 6 m
0.0642857 setlinewidth
0.113725 0.74902 0.54902 setrgbcolor
29.8375 6 m
newpath 29.8375 6 2.25 0 360 arc
closepath stroke
29.8375 6 m
30.5125 6 m
0.0607143 setlinewidth
0.105882 0.709804 0.576471 setrgbcolor
30.5125 6 m
newpath 30.5125 6 2.125 0 360 arc
closepath stroke
30.5125 6 m
31.15 6 m
0.0571429 setlinewidth
0.101961 0.666667 0.6 setrgbcolor
31.15 6 m
newpath 31.15 6 2 0 360 arc
closepath stroke
31.15 6 m
31.75 6 m
0.0535714 setlinewidth
0.0941176 0.623529 0.623529 setrgbcolor
31.75 6 m
newpath 31.75 6 1.875 0 360 arc
closepath stroke
31.75 6 m
32.3125 6 m
0.05 setlinewidth
0.0862745 0.584314 0.65098 setrgbcolor
32.3125 6 m
newpath 32.3125 6 1.75 0 360 arc
closepath stroke
32.3125 6 m
32.8375 6 m
0.0464286 setlinewidth
0.0823529 0.541176 0.67451 setrgbcolor
32.8375 6 m
newpath 32.8375 6 1.625 0 360 arc
closepath stroke
32.8375 6 m
33.325 6 m
0.0428571 setlinewidth
0.0745098 0.501961 0.701961 setrgbcolor
33.325 6 m
newpath 33.325 6 1.5 0 360 arc
closepath stroke
33.325 6 m
33.775 6 m
0.0392857 setlinewidth
0.0705882 0.458824 0.72549 setrgbcolor
33.775 6 m
newpath 33.775 6 1.375 0 360 arc
closepath stroke
33.775 6 m
34.1875 6 m
0.0357143 setlinewidth
0.0627451 0.415686 0.74902 setrgbcolor
34.1875 6 m
newpath 34.1875 6 1.25 0 360 arc
closepath stroke
34.1875 6 m
34.5625 6 m
0.0321429 setlinewidth
0.054902 0.376471 0.776471 setrgbcolor
34.5625 6 m
newpath 34.5625 6 1.125 0 360 arc
closepath stroke
34.5625 6 m
34.9 6 m
0.0285714 setlinewidth
0.0509804 0.333333 0.8 setrgbcolor
34.9 6 m
newpath 34.9 6 1 0 360 arc
closepath stroke
34.9 6 m
35.2 6 m
0.025 setlinewidth
0.0431373 0.290196 0.823529 setrgbcolor
35.2 6 m
newpath 35.2 6 0.875 0 360 arc
closepath stroke
35.2 6 m
35.4625 6 m
0.0214286 setlinewidth
0.0392157 0.25098 0.85098 setrgbcolor
35.4625 6 m
newpath 35.4625 6 0.75 0 360 arc
closepath stroke
35.4625 6 m
35.6875 6 m
0.0178571 setlinewidth
0.0313725 0.207843 0.87451 setrgbcolor
35.6875 6 m
newpath 35.6875 6 0.625 0 360 arc
closepath stroke
35.6875 6 m
35.875 6 m
0.0142857 setlinewidth
0.0235294 0.168627 0.901961 setrgbcolor
35.875 6 m
newpath 35.875 6 0.5 0 360 arc
closepath stroke
35.875 6 m
36.025 6 m
0.0107143 setlinewidth
0.0196078 0.12549 0.92549 setrgbcolor
36.025 6 m
newpath 36.025 6 0.375 0 360 arc
closepath stroke
36.025 6 m
36.1375 6 m
0.00714286 setlinewidth
0.0117647 0.0823529 0.94902 setrgbcolor
36.1375 6 m
newpath 36.1375 6 0.25 0 360 arc
closepath stroke
36.1375 6 m
36.2125 6 m
0.00357143 setlinewidth
0.00784314 0.0431373 0.976471 setrgbcolor
36.2125 6 m
newpath 36.2125 6 0.125 0 360 arc
closepath stroke
36.2125 6 m
36.25 6 m
0.752941 0.752941 0.752941 setrgbcolor
36.25 6 m
newpath 36.25 6 0.15 0 360 arc
0.752941 0.752941 0.752941 setrgbcolor
fill
0.752941 0.752941 0.752941 setrgbcolor
newpath
newpath 36.25 6 0.15 0 360 arc
closepath stroke
36.25 6 m
1 0 0 setrgbcolor
36.25 6 m
newpath 36.25 6 0.1 0 360 arc
1 0 0 setrgbcolor
fill
1 0 0 setrgbcolor
newpath
newpath 36.25 6 0.1 0 360 arc
closepath stroke
36.25 6 m
5.5 6 m
0.0235294 0.0235294 0.0235294 setrgbcolor
5.5 6 m
newpath 5.5 6 0.15 0 360 arc
0.752941 0.752941 0.752941 setrgbcolor
fill
0.0235294 0.0235294 0.0235294 setrgbcolor
newpath
newpath 5.5 6 0.15 0 360 arc
closepath stroke
5.5 6 m
showpage
grestore
%%Trailer
