%!PS-Adobe-2.0 EPSF-2.0
%%Creator: GLE 4.2.1 <www.gle-graphics.org>
%%CreationDate: Thu Mar 14 14:30:34 2013
%%Title: slowObjMoving.gle
%%BoundingBox: 0 0 314 343
%%HiResBoundingBox: 0 0 313.811 342.157
%%EndComments
%%EndProlog
gsave
/f {findfont exch scalefont setfont} bind def
/s {show} bind def
/ps {true charpath} bind def
/l {lineto} bind def
/m {newpath moveto} bind def
matrix currentmatrix /originmat exch def
/umatrix {originmat matrix concatmatrix setmatrix} def
[28.3465 0 0 28.3465 0 0] umatrix
[28.3465 0 0 28.3465 1 1] umatrix
[] 0 setdash
0.02 setlinewidth
0 0 0 setrgbcolor
0 0 m
5.5 6 m
0.142857 setlinewidth
0.25098 1 0 setrgbcolor
5.5 6 m
newpath 5.5 6 5 0 360 arc
closepath stroke
5.5 6 m
5.55 6 m
0.139286 setlinewidth
0.243137 1 0.0235294 setrgbcolor
5.55 6 m
newpath 5.55 6 4.875 0 360 arc
closepath stroke
5.55 6 m
5.59875 6 m
0.135714 setlinewidth
0.239216 1 0.0509804 setrgbcolor
5.59875 6 m
newpath 5.59875 6 4.75 0 360 arc
closepath stroke
5.59875 6 m
5.64625 6 m
0.132143 setlinewidth
0.231373 1 0.0745098 setrgbcolor
5.64625 6 m
newpath 5.64625 6 4.625 0 360 arc
closepath stroke
5.64625 6 m
5.6925 6 m
0.128571 setlinewidth
0.223529 1 0.101961 setrgbcolor
5.6925 6 m
newpath 5.6925 6 4.5 0 360 arc
closepath stroke
5.6925 6 m
5.7375 6 m
0.125 setlinewidth
0.219608 1 0.12549 setrgbcolor
5.7375 6 m
newpath 5.7375 6 4.375 0 360 arc
closepath stroke
5.7375 6 m
5.78125 6 m
0.121429 setlinewidth
0.211765 1 0.14902 setrgbcolor
5.78125 6 m
newpath 5.78125 6 4.25 0 360 arc
closepath stroke
5.78125 6 m
5.82375 6 m
0.117857 setlinewidth
0.207843 1 0.176471 setrgbcolor
5.82375 6 m
newpath 5.82375 6 4.125 0 360 arc
closepath stroke
5.82375 6 m
5.865 6 m
0.114286 setlinewidth
0.2 1 0.2 setrgbcolor
5.865 6 m
newpath 5.865 6 4 0 360 arc
closepath stroke
5.865 6 m
5.905 6 m
0.110714 setlinewidth
0.192157 1 0.223529 setrgbcolor
5.905 6 m
newpath 5.905 6 3.875 0 360 arc
closepath stroke
5.905 6 m
5.94375 6 m
0.107143 setlinewidth
0.188235 1 0.25098 setrgbcolor
5.94375 6 m
newpath 5.94375 6 3.75 0 360 arc
closepath stroke
5.94375 6 m
5.98125 6 m
0.103571 setlinewidth
0.180392 1 0.27451 setrgbcolor
5.98125 6 m
newpath 5.98125 6 3.625 0 360 arc
closepath stroke
5.98125 6 m
6.0175 6 m
0.1 setlinewidth
0.176471 1 0.301961 setrgbcolor
6.0175 6 m
newpath 6.0175 6 3.5 0 360 arc
closepath stroke
6.0175 6 m
6.0525 6 m
0.0964286 setlinewidth
0.168627 1 0.32549 setrgbcolor
6.0525 6 m
newpath 6.0525 6 3.375 0 360 arc
closepath stroke
6.0525 6 m
6.08625 6 m
0.0928571 setlinewidth
0.160784 1 0.34902 setrgbcolor
6.08625 6 m
newpath 6.08625 6 3.25 0 360 arc
closepath stroke
6.08625 6 m
6.11875 6 m
0.0892857 setlinewidth
0.156863 1 0.376471 setrgbcolor
6.11875 6 m
newpath 6.11875 6 3.125 0 360 arc
closepath stroke
6.11875 6 m
6.15 6 m
0.0857143 setlinewidth
0.14902 1 0.4 setrgbcolor
6.15 6 m
newpath 6.15 6 3 0 360 arc
closepath stroke
6.15 6 m
6.18 6 m
0.0821429 setlinewidth
0.145098 0.956863 0.423529 setrgbcolor
6.18 6 m
newpath 6.18 6 2.875 0 360 arc
closepath stroke
6.18 6 m
6.20875 6 m
0.0785714 setlinewidth
0.137255 0.917647 0.45098 setrgbcolor
6.20875 6 m
newpath 6.20875 6 2.75 0 360 arc
closepath stroke
6.20875 6 m
6.23625 6 m
0.075 setlinewidth
0.129412 0.87451 0.47451 setrgbcolor
6.23625 6 m
newpath 6.23625 6 2.625 0 360 arc
closepath stroke
6.23625 6 m
6.2625 6 m
0.0714286 setlinewidth
0.12549 0.835294 0.501961 setrgbcolor
6.2625 6 m
newpath 6.2625 6 2.5 0 360 arc
closepath stroke
6.2625 6 m
6.2875 6 m
0.0678571 setlinewidth
0.117647 0.792157 0.52549 setrgbcolor
6.2875 6 m
newpath 6.2875 6 2.375 0 360 arc
closepath stroke
6.2875 6 m
6.31125 6 m
0.0642857 setlinewidth
0.113725 0.74902 0.54902 setrgbcolor
6.31125 6 m
newpath 6.31125 6 2.25 0 360 arc
closepath stroke
6.31125 6 m
6.33375 6 m
0.0607143 setlinewidth
0.105882 0.709804 0.576471 setrgbcolor
6.33375 6 m
newpath 6.33375 6 2.125 0 360 arc
closepath stroke
6.33375 6 m
6.355 6 m
0.0571429 setlinewidth
0.101961 0.666667 0.6 setrgbcolor
6.355 6 m
newpath 6.355 6 2 0 360 arc
closepath stroke
6.355 6 m
6.375 6 m
0.0535714 setlinewidth
0.0941176 0.623529 0.623529 setrgbcolor
6.375 6 m
newpath 6.375 6 1.875 0 360 arc
closepath stroke
6.375 6 m
6.39375 6 m
0.05 setlinewidth
0.0862745 0.584314 0.65098 setrgbcolor
6.39375 6 m
newpath 6.39375 6 1.75 0 360 arc
closepath stroke
6.39375 6 m
6.41125 6 m
0.0464286 setlinewidth
0.0823529 0.541176 0.67451 setrgbcolor
6.41125 6 m
newpath 6.41125 6 1.625 0 360 arc
closepath stroke
6.41125 6 m
6.4275 6 m
0.0428571 setlinewidth
0.0745098 0.501961 0.701961 setrgbcolor
6.4275 6 m
newpath 6.4275 6 1.5 0 360 arc
closepath stroke
6.4275 6 m
6.4425 6 m
0.0392857 setlinewidth
0.0705882 0.458824 0.72549 setrgbcolor
6.4425 6 m
newpath 6.4425 6 1.375 0 360 arc
closepath stroke
6.4425 6 m
6.45625 6 m
0.0357143 setlinewidth
0.0627451 0.415686 0.74902 setrgbcolor
6.45625 6 m
newpath 6.45625 6 1.25 0 360 arc
closepath stroke
6.45625 6 m
6.46875 6 m
0.0321429 setlinewidth
0.054902 0.376471 0.776471 setrgbcolor
6.46875 6 m
newpath 6.46875 6 1.125 0 360 arc
closepath stroke
6.46875 6 m
6.48 6 m
0.0285714 setlinewidth
0.0509804 0.333333 0.8 setrgbcolor
6.48 6 m
newpath 6.48 6 1 0 360 arc
closepath stroke
6.48 6 m
6.49 6 m
0.025 setlinewidth
0.0431373 0.290196 0.823529 setrgbcolor
6.49 6 m
newpath 6.49 6 0.875 0 360 arc
closepath stroke
6.49 6 m
6.49875 6 m
0.0214286 setlinewidth
0.0392157 0.25098 0.85098 setrgbcolor
6.49875 6 m
newpath 6.49875 6 0.75 0 360 arc
closepath stroke
6.49875 6 m
6.50625 6 m
0.0178571 setlinewidth
0.0313725 0.207843 0.87451 setrgbcolor
6.50625 6 m
newpath 6.50625 6 0.625 0 360 arc
closepath stroke
6.50625 6 m
6.5125 6 m
0.0142857 setlinewidth
0.0235294 0.168627 0.901961 setrgbcolor
6.5125 6 m
newpath 6.5125 6 0.5 0 360 arc
closepath stroke
6.5125 6 m
6.5175 6 m
0.0107143 setlinewidth
0.0196078 0.12549 0.92549 setrgbcolor
6.5175 6 m
newpath 6.5175 6 0.375 0 360 arc
closepath stroke
6.5175 6 m
6.52125 6 m
0.00714286 setlinewidth
0.0117647 0.0823529 0.94902 setrgbcolor
6.52125 6 m
newpath 6.52125 6 0.25 0 360 arc
closepath stroke
6.52125 6 m
6.52375 6 m
0.00357143 setlinewidth
0.00784314 0.0431373 0.976471 setrgbcolor
6.52375 6 m
newpath 6.52375 6 0.125 0 360 arc
closepath stroke
6.52375 6 m
6.525 6 m
0.752941 0.752941 0.752941 setrgbcolor
6.525 6 m
newpath 6.525 6 0.15 0 360 arc
0.752941 0.752941 0.752941 setrgbcolor
fill
0.752941 0.752941 0.752941 setrgbcolor
newpath
newpath 6.525 6 0.15 0 360 arc
closepath stroke
6.525 6 m
1 0 0 setrgbcolor
6.525 6 m
newpath 6.525 6 0.1 0 360 arc
1 0 0 setrgbcolor
fill
1 0 0 setrgbcolor
newpath
newpath 6.525 6 0.1 0 360 arc
closepath stroke
6.525 6 m
5.5 6 m
0.0235294 0.0235294 0.0235294 setrgbcolor
5.5 6 m
newpath 5.5 6 0.15 0 360 arc
0.752941 0.752941 0.752941 setrgbcolor
fill
0.0235294 0.0235294 0.0235294 setrgbcolor
newpath
newpath 5.5 6 0.15 0 360 arc
closepath stroke
5.5 6 m
showpage
grestore
%%Trailer
