%!PS-Adobe-3.0 EPSF-3.0
%%BoundingBox: 24 635 226 730
%%Title: impulse
%%CreationDate: Thu May 18 17:57:40 2006
%%Creator: Tgif-4.1.43-QPL written by William Chia-Wei Cheng (bill.cheng@acm.org)
%%ProducedBy: (unknown)
%%Pages: 1
%%DocumentFonts: (atend)
%%EndComments
%%BeginPreview: 202 95 1 95
% 0000000000000000000000000000000000000000000000000000
% 0000000000000000000000000000000000002000000000000000
% 0000000000000000000000000000000000006000000000000000
% 000000000000000000000000000000000000a000000000000000
% 0000000000000000000000000000000000012000000000000000
% 0000000000000000000000000000000000022000000000000000
% 0000000000000000000000000000000000042000000000000000
% 0000000000000000000000000000000000002000000000000000
% 0002200000000000000000000000000000202000000000000000
% 0002000000000000000000000000000000400000000000000000
% 680e628c7710ca00000000000000000000800000000000000000
% 23d2220290000900000000000000000001002000000000000000
% 2012220080000900000000000000000004002000000000000000
% 680f730c631ccd00000000000000000010000000000000000000
% 0000000000000000000000000000000020000000000000000000
% 00000000000000000000000000000000c0000000000000000000
% 000000000000000000e000c00000000200002000000000000000
% 0000000000000000080000060000000800002000000000000000
% 0000000000000000100000018000003000000000000000000000
% 000000000000000180000005f000018000000000000000000000
% 000000000000000c000000058380380000002000000000000000
% 0000000000000030000000058000000000002000000000000000
% 0000000000000060000000068000000000002000000000000000
% 0000000000000100000000068000000000002000000000000000
% 0000000000000c000000000e8000000000002000000000000000
% 00000000000010000000000e3000000000002000000000000600
% 000000000000200000000009f000000000002000000000000780
% 000000000000800000000001f000000000000000000000000780
% 000000000000000000000011e000000000000000000000000000
% 000000000000000000000021c000000000002000000000000000
% 00000000000000000000003e4000000000002000000000000000
% 00000003800000000000011e8000000000002000000000000000
% 00000003800000000000001e0000000000000000000000000000
% 00000000000000000000001f0000000000000000000000000000
% 0000000000000000000000e10000000000002000000000000000
% 0000000000000000000000e10000000000002000000000000000
% 0000000000000000000000620000000000000000000000000000
% 0000000000000000000000610000000000000000000000000000
% 00000000000000000000001f0000000000000000000000000000
% 0000000000000000000000000000000000002000000000000000
% 0000000000000000000000000000000000002000000000000000
% 0000000000000000000000000000000000002000000000000000
% 0000000000000000000000000000000000002000000000000000
% 0000000000000000000000000000000000002000000000000000
% 0000000000000000000000000000000000002000000000000000
% 0000000000000000000000000000000000000000000000000000
% 3ff8cffe33ffccfff31ffcc7ff39ffce7ff19ffe67ff99ff8000
% 0000000000000000000000000000000000000000000000000000
% 0000000000000000000000000000000000002000000000000000
% 0000000000000000000000000000000000002000000000000000
% 0000000000000000000000000000000000000000000000000000
% 0000000000000000000000000000000000000000000000000000
% 0000000000000000000000000000000000002000000000000000
% 0000000000000000000000000000000000002000000000000000
% 0000000000000000000000000000000000002000000000000000
% 0000000000020000000000000000000000000000000000000000
% 000000000000c000000000000000000000000000000000000000
% 0000000000001000000000000000000000002000000000000000
% 0000000000000c00000000000000000000002000000000000000
% 0000000000000100000000000000000000002000000000000000
% 0000000000000040000000000000000000002000000000000000
% 000000000000000c000000000000000000002000000000000000
% 0000000000000002000000000000000000002000000000000000
% 0000000000000000400000000000000000002000000000000000
% 00000000000000000e0000000000000000000000000000000000
% 0000000000000000007000000000000000000000000000000000
% 0000000000000000001c00000000000000002000000000000000
% 0000000000000000000000006000000000002000000000000000
% 0000000000000000000000000800000000000000000000000000
% 0000000000000000000000000200000000000000000000000000
% 0000000000000000000000000000000000000000000000000000
% 0000000000000000000000000080000000002000000000000000
% 0000000000000000000000000040000000002000000000000000
% 0000000000000000000000000020000000000000000000000000
% 0000000000000000000000000018000000000000000000000000
% 0000000000000000000000000006000000002000000000000000
% 0000000000000000000000000001800000002000000000000000
% 0000000000000000000000000000380000002000000000000000
% 00000000000000000000000000000f0000002000000000000000
% 0000000000000000000000000000001e00002000000000000000
% 0000000000000000000000000000000018002000000000000000
% 0000000000000000000000000000000002002000000000000000
% 0000000000000000000000000000000001000000000000000000
% 0000000000000000000000000000000000000000000000000000
% 0000000000000000000000000000000000002000000000000000
% 0000000000000000000000000000000000002000000000000000
% 0000000000000000000000000000000000002000000000000000
% 0000000000000000000000000000000000000000000000000000
% 0000000000000000000000000000000000000000000000000000
% 0000000000000000000000000000000000002000000000000000
% 0000000000000000000000000000000000002000000000000000
% 0000000000000000000000000000000000000000000000000000
% 0000000000000000000000000000000000400000000000000000
% 00000000000000000000000000000000001c2000000000000000
% 000000000000000000000000000000000003a000000000000000
%%EndImage
%%EndPreview
%%BeginProlog

/tgifdict 86 dict def
tgifdict begin

/tgifarrowtipdict 8 dict def
tgifarrowtipdict /mtrx matrix put

/TGAT % tgifarrowtip
 { tgifarrowtipdict begin
      /dy exch def
      /dx exch def
      /h exch def
      /w exch def
      /y exch def
      /x exch def
      /savematrix mtrx currentmatrix def
      x y translate
      dy dx atan rotate
      0 0 moveto
      w neg h lineto
      w neg h neg lineto
      savematrix setmatrix
   end
 } def

/tgifpatdict 10 dict def

/tgifpatbyte
 { currentdict /retstr get exch
   pat i cellsz mod get put
 } def

/tgifpatproc
 { 0 1 widthlim {tgifpatbyte} for retstr
   /i i 1 add def
 } def

/TGPF % tgifpatfill
 { tgifpatdict begin
      /h exch def
      /w exch def
      /lty exch def
      /ltx exch def
      /cellsz exch def
      /pat exch def

      /widthlim w cellsz div cvi 1 sub def
      /retstr widthlim 1 add string def
      /i 0 def

      tgiforigctm setmatrix
      ltx lty translate
      w h true [1 0 0 1 0 0] {tgifpatproc} imagemask
      ltx neg lty neg translate
   end
 } def

/pat3 <8000000008000000> def
/pat4 <8800000022000000> def
/pat5 <8800220088002200> def
/pat6 <8822882288228822> def
/pat7 <aa55aa55aa55aa55> def
/pat8 <77dd77dd77dd77dd> def
/pat9 <77ffddff77ffddff> def
/pat10 <77ffffff77ffffff> def
/pat11 <7fffffff7fffffff> def
/pat12 <8040200002040800> def
/pat13 <40a00000040a0000> def
/pat14 <ff888888ff888888> def
/pat15 <ff808080ff080808> def
/pat16 <f87422478f172271> def
/pat17 <038448300c020101> def
/pat18 <081c22c180010204> def
/pat19 <8080413e080814e3> def
/pat20 <8040201008040201> def
/pat21 <8844221188442211> def
/pat22 <77bbddee77bbddee> def
/pat23 <c1e070381c0e0783> def
/pat24 <7fbfdfeff7fbfdfe> def
/pat25 <3e1f8fc7e3f1f87c> def
/pat26 <0102040810204080> def
/pat27 <1122448811224488> def
/pat28 <eeddbb77eeddbb77> def
/pat29 <83070e1c3870e0c1> def
/pat30 <fefdfbf7efdfbf7f> def
/pat31 <7cf8f1e3c78f1f3e> def

/TGMAX
 { exch dup 3 1 roll exch dup 3 1 roll gt { pop } { exch pop } ifelse
 } def
/TGMIN
 { exch dup 3 1 roll exch dup 3 1 roll lt { pop } { exch pop } ifelse
 } def
/TGSW { stringwidth pop } def

/bd { bind def } bind def

/GS { gsave } bd
/GR { grestore } bd
/NP { newpath } bd
/CP { closepath } bd
/CHP { charpath } bd
/CT { curveto } bd
/L { lineto } bd
/RL { rlineto } bd
/M { moveto } bd
/RM { rmoveto } bd
/S { stroke } bd
/F { fill } bd
/TR { translate } bd
/RO { rotate } bd
/SC { scale } bd
/MU { mul } bd
/DI { div } bd
/DU { dup } bd
/NE { neg } bd
/AD { add } bd
/SU { sub } bd
/PO { pop } bd
/EX { exch } bd
/CO { concat } bd
/CL { clip } bd
/EC { eoclip } bd
/EF { eofill } bd
/IM { image } bd
/IMM { imagemask } bd
/ARY { array } bd
/SG { setgray } bd
/RG { setrgbcolor } bd
/SD { setdash } bd
/W { setlinewidth } bd
/SM { setmiterlimit } bd
/SLC { setlinecap } bd
/SLJ { setlinejoin } bd
/SH { show } bd
/FF { findfont } bd
/MS { makefont setfont } bd
/AR { arcto 4 {pop} repeat } bd
/CURP { currentpoint } bd
/FLAT { flattenpath strokepath clip newpath } bd
/TGSM { tgiforigctm setmatrix } def
/TGRM { savematrix setmatrix } def

end

%%EndProlog
%%Page: 1 1

%%PageBoundingBox: 24 635 226 730
tgifdict begin
/tgifsavedpage save def

1 SM
1 W

0 SG

72 0 MU 72 11 MU TR
72 128 DI 100.000 MU 100 DI DU NE SC

GS

/tgiforigctm matrix currentmatrix def

% POLY/OPEN-SPLINE
0 SG
GS
   NP
      128 160 M
      160.00 138.67 189.33 133.33 216.00 144.00 CT
      242.67 154.67 272.00 144.00
      304 112 CT
   TGSM
   1 W
   S
GR

% POLY/OPEN-SPLINE
0 SG
GS
   [20 4 4 4] 0 SD
   NP
      48 192 M
      384 192 L
   TGSM
   1 W
   S
   [] 0 SD
GR

% POLY/OPEN-SPLINE
0 SG
GS
   NP
      126 208 M
      156.00 222.67 179.50 229.33 196.50 228.00 CT
      213.50 226.67 224.33 229.50 229.00 236.50 CT
      233.67 243.50 245.67 248.00 265.00 250.00 CT
      284.33 252.00 290.67 256.33 284.00 263.00 CT
      277.33 269.67 283.67 274.33
      303 277 CT
   TGSM
   1 W
   S
GR

% POLY/OPEN-SPLINE
0 SG
GS
   [12 4 4 4 4 4] 0 SD
   NP
      127 159 M
      127 207 L
   TGSM
   1 W
   S
   [] 0 SD
GR

% POLY/OPEN-SPLINE
0 SG
GS
   [12 4 4 4 4 4] 0 SD
   NP
      302 115 M
      302 277 L
   TGSM
   1 W
   S
   [] 0 SD
GR

% POLY/OPEN-SPLINE
0 SG
GS
   NP
      45 167 M
      0 60 atan DU cos 8.000 MU 105 exch SU
      exch sin 8.000 MU 167 exch SU L
   TGSM
   1 W
   S
GR
GS
   TGSM
   NP
      105 167 8.000 3.000 60 0 TGAT
   1 SG CP F
   0 SG
   NP
      105 167 8.000 3.000 60 0 TGAT
   CP F
GR

% POLY/OPEN-SPLINE
0 SG
GS
   NP
      329 158 M
      0 71 atan DU cos 8.000 MU 400 exch SU
      exch sin 8.000 MU 158 exch SU L
   TGSM
   1 W
   S
GR
GS
   TGSM
   NP
      400 158 8.000 3.000 71 0 TGAT
   1 SG CP F
   0 SG
   NP
      400 158 8.000 3.000 71 0 TGAT
   CP F
GR

% TEXT
NP
0 SG
   GS
      1 W
      46 136 M
      GS
            0 SG
            /Courier FF [14 0 0 -14 0 0] MS
            (x-direction) SH
      GR
   GR

% POLY/OPEN-SPLINE
0 SG
GS
   NP
      210 141 M
      207.33 157.00 204.83 165.00 202.50 165.00 CT
      200.17 165.00 198.83 164.83 198.50 164.50 CT
      198.17 164.17 198.33 165.50 199.00 168.50 CT
      199.67 171.50 200.50 173.83 201.50 175.50 CT
      202.50 177.17 203.17 178.17 203.50 178.50 CT
      203.83 178.83 204.83 179.00 206.50 179.00 CT
      208.17 179.00 209.67 178.83 211.00 178.50 CT
      212.33 178.17 212.83 177.67 212.50 177.00 CT
      212.17 176.33 211.83 175.83 211.50 175.50 CT
      211.17 175.17 211.17 174.50 211.50 173.50 CT
      211.83 172.50 212.00 171.67 212.00 171.00 CT
      212.00 170.33 212.33 169.17 213.00 167.50 CT
      213.67 165.83 215.00 164.17 217.00 162.50 CT
      219.00 160.83 219.83 159.17 219.50 157.50 CT
      219.17 155.83 218.33 155.00 217.00 155.00 CT
      215.67 155.00 214.83 155.00 214.50 155.00 CT
      214.17 155.00 213.83 153.67 213.50 151.00 CT
      213.17 148.33 214.33 146.00
      217 144 CT
   CP 1 SG EF
   0 SG
   NP
      210 141 M
      207.33 157.00 204.83 165.00 202.50 165.00 CT
      200.17 165.00 198.83 164.83 198.50 164.50 CT
      198.17 164.17 198.33 165.50 199.00 168.50 CT
      199.67 171.50 200.50 173.83 201.50 175.50 CT
      202.50 177.17 203.17 178.17 203.50 178.50 CT
      203.83 178.83 204.83 179.00 206.50 179.00 CT
      208.17 179.00 209.67 178.83 211.00 178.50 CT
      212.33 178.17 212.83 177.67 212.50 177.00 CT
      212.17 176.33 211.83 175.83 211.50 175.50 CT
      211.17 175.17 211.17 174.50 211.50 173.50 CT
      211.83 172.50 212.00 171.67 212.00 171.00 CT
      212.00 170.33 212.33 169.17 213.00 167.50 CT
      213.67 165.83 215.00 164.17 217.00 162.50 CT
      219.00 160.83 219.83 159.17 219.50 157.50 CT
      219.17 155.83 218.33 155.00 217.00 155.00 CT
      215.67 155.00 214.83 155.00 214.50 155.00 CT
      214.17 155.00 213.83 153.67 213.50 151.00 CT
      213.17 148.33 214.33 146.00
      217 144 CT
   CP EC NP
   pat7 8 192 136 32 48 TGPF
GR
GS
   NP
      210 141 M
      207.33 157.00 204.83 165.00 202.50 165.00 CT
      200.17 165.00 198.83 164.83 198.50 164.50 CT
      198.17 164.17 198.33 165.50 199.00 168.50 CT
      199.67 171.50 200.50 173.83 201.50 175.50 CT
      202.50 177.17 203.17 178.17 203.50 178.50 CT
      203.83 178.83 204.83 179.00 206.50 179.00 CT
      208.17 179.00 209.67 178.83 211.00 178.50 CT
      212.33 178.17 212.83 177.67 212.50 177.00 CT
      212.17 176.33 211.83 175.83 211.50 175.50 CT
      211.17 175.17 211.17 174.50 211.50 173.50 CT
      211.83 172.50 212.00 171.67 212.00 171.00 CT
      212.00 170.33 212.33 169.17 213.00 167.50 CT
      213.67 165.83 215.00 164.17 217.00 162.50 CT
      219.00 160.83 219.83 159.17 219.50 157.50 CT
      219.17 155.83 218.33 155.00 217.00 155.00 CT
      215.67 155.00 214.83 155.00 214.50 155.00 CT
      214.17 155.00 213.83 153.67 213.50 151.00 CT
      213.17 148.33 214.33 146.00
      217 144 CT
   TGSM
   1 W
   S
GR

GR
tgifsavedpage restore
end
showpage

%%Trailer
%MatchingCreationDate: Thu May 18 17:57:40 2006
%%DocumentFonts: Courier
%%EOF
