%TGIF 4.1.45-QPL
state(0,37,100.000,141,0,1,16,0,9,1,1,0,0,2,1,1,0,'Times-Bold',1,138240,0,0,1,5,2,1,1,1,0,16,0,0,1,1,1,1,1088,1408,0,0,2880,1).
%
% @(#)$Header$
% %W%
%
unit("1 pixel/pixel").
color_info(52,65535,0,[
	"magenta", 65535, 0, 65535, 65535, 0, 65535, 1,
	"red", 65535, 0, 0, 65535, 0, 0, 1,
	"green", 0, 65535, 0, 0, 65535, 0, 1,
	"blue", 0, 0, 65535, 0, 0, 65535, 1,
	"yellow", 65535, 65535, 0, 65535, 65535, 0, 1,
	"pink", 65535, 49344, 52171, 65535, 49344, 52171, 1,
	"cyan", 0, 65535, 65535, 0, 65535, 65535, 1,
	"CadetBlue", 24415, 40606, 41120, 24415, 40606, 41120, 1,
	"white", 65535, 65535, 65535, 65535, 65535, 65535, 1,
	"black", 0, 0, 0, 0, 0, 0, 1,
	"DarkSlateGray", 12079, 20303, 20303, 12079, 20303, 20303, 1,
	"lightgreen", 37008, 61166, 37008, 37008, 61166, 37008, 1,
	"gold", 65535, 55255, 0, 65535, 55255, 0, 1,
	"gray", 48830, 48830, 48830, 48830, 48830, 48830, 1,
	"lightgray", 54227, 54227, 54227, 54227, 54227, 54227, 1,
	"brown", 42405, 10794, 10794, 42405, 10794, 10794, 1,
	"lightblue", 44461, 55512, 59110, 44461, 55512, 59110, 1,
	"darkblue", 0, 0, 35723, 0, 0, 35723, 1,
	"darkgreen", 0, 25700, 0, 0, 25700, 0, 1,
	"lightpink", 65535, 46774, 49601, 65535, 46774, 49601, 1,
	"darkgray", 43433, 43433, 43433, 43433, 43433, 43433, 1,
	"tan", 53970, 46260, 35980, 53970, 46260, 35980, 1,
	"deeppink", 65535, 5140, 37779, 65535, 5140, 37779, 1,
	"darkred", 35723, 0, 0, 35723, 0, 0, 1,
	"greenyellow", 44461, 65535, 12079, 44461, 65535, 12079, 1,
	"hotpink", 65535, 26985, 46260, 65535, 26985, 46260, 1,
	"ivory", 65535, 65535, 61680, 65535, 65535, 61680, 1,
	"khaki", 61680, 59110, 35980, 61680, 59110, 35980, 1,
	"darkkhaki", 48573, 47031, 27499, 48573, 47031, 27499, 1,
	"lavender", 59110, 59110, 64250, 59110, 59110, 64250, 1,
	"linen", 64250, 61680, 59110, 64250, 61680, 59110, 1,
	"maroon", 45232, 12336, 24672, 45232, 12336, 24672, 1,
	"navyblue", 0, 0, 32896, 0, 0, 32896, 1,
	"orchid", 56026, 28784, 54998, 56026, 28784, 54998, 1,
	"orangered", 65535, 17733, 0, 65535, 17733, 0, 1,
	"darkorange", 65535, 35980, 0, 65535, 35980, 0, 1,
	"darkorchid", 39321, 12850, 52428, 39321, 12850, 52428, 1,
	"violet", 61166, 33410, 61166, 61166, 33410, 61166, 1,
	"purple", 41120, 8224, 61680, 41120, 8224, 61680, 1,
	"seagreen", 11822, 35723, 22359, 11822, 35723, 22359, 1,
	"steelblue", 17990, 33410, 46260, 17990, 33410, 46260, 1,
	"springgreen", 0, 65535, 32639, 0, 65535, 32639, 1,
	"skyblue", 34695, 52942, 60395, 34695, 52942, 60395, 1,
	"slategray", 28784, 32896, 37008, 28784, 32896, 37008, 1,
	"turquoise", 16448, 57568, 53456, 16448, 57568, 53456, 1,
	"darkturquoise", 0, 52942, 53713, 0, 52942, 53713, 1,
	"wheat", 62965, 57054, 46003, 62965, 57054, 46003, 1,
	"yellowgreen", 39578, 52685, 12850, 39578, 52685, 12850, 1,
	"sienna", 41120, 21074, 11565, 41120, 21074, 11565, 1,
	"darkcyan", 0, 35723, 35723, 0, 35723, 35723, 1,
	"#0000ff", 0, 0, 65535, 0, 0, 65280, 1,
	"#ff00ff", 65535, 0, 65535, 65280, 0, 65280, 1
]).
script_frac("0.6").
fg_bg_colors('black','white').
dont_reencode("FFDingbests:ZapfDingbats").
objshadow_info('#c0c0c0',2,2).
page(1,"",1,'').
box('skyblue','',343,341,641,441,1,7,1,391,0,0,0,0,0,'7',1,[
]).
box('steelblue','',101,78,348,97,0,1,1,371,0,0,0,0,0,'1',1,[
]).
polygon('steelblue','',9,[
	335,200,335,450,650,450,650,200,645,200,645,445,340,445,340,200,
	335,200],1,1,1,0,375,0,0,0,0,0,'1',1,
    "000",[
]).
poly('skyblue','',4,[
	348,88,423,83,508,208,508,338],0,20,1,384,1,0,0,0,0,0,0,'20',1,0,
    "6","",[
    0,22,9,0,'22','9','0'],[0,22,9,0,'22','9','0'],[
]).
box('maroon','',341,338,644,444,0,1,1,398,3,0,0,0,0,'1',1,[
]).
poly('black','',2,[
	306,336,306,442],3,1,1,406,0,0,0,0,0,0,0,'1',1,0,
    "0","",[
    0,8,3,0,'8','3','0'],[0,8,3,0,'8','3','0'],[
]).
text('black',287,373,1,0,1,14,28,409,22,6,0,2,0,0,2,14,28,0,0,"",0,0,0,1,395,'',[
minilines(14,28,0,0,0,2,0,[
mini_line(14,22,6,0,0,0,[
str_block(0,14,22,6,0,-1,0,0,0,[
str_seg('black','Times-Bold',1,138240,14,22,6,0,-1,0,0,0,0,0,
	"h")])
])
])]).
text('black',602,302,1,0,1,18,28,412,22,6,0,2,0,0,2,18,28,0,0,"",0,0,0,1,324,'',[
minilines(18,28,0,0,0,2,0,[
mini_line(18,22,6,0,0,0,[
str_block(0,18,22,6,0,-1,0,0,0,[
str_seg('black','Times-Bold',1,138240,18,22,6,0,-1,0,0,0,0,0,
	"A")])
])
])]).
poly('black','',2,[
	395,335,395,286],1,1,1,413,0,1,0,0,0,0,0,'1',1,0,
    "0","",[
    0,8,3,0,'8','3','0'],[0,8,3,0,'8','3','0'],[
]).
icon([
polygon('#0000ff','',5,[
	404,315,408,315,408,311,404,311,404,315],0,1,0,0,1173,0,0,0,0,0,'1',0,
    "00",[
]),
xbm('black','',404,311,436,333,1,1213,0,32,22,0,0,1,290000,675000,322000,697000,0,0,1,0,0,0,0,
    "Fri Oct 30 09:23:59 2009","/tmp/Tgif4mKBr8.eps",143,[
    "%!PS-Adobe-2.0 EPSF-1.2",
    "%!PS (but not EPSF; comments have been disabled)",
    "%DVIPSWebPage: (www.radicaleye.com)",
    "%DVIPSCommandLine: dvips -N -n 1 -o /tmp/Tgif4mKBr8.ps /tmp/Tgif4mKBr8",
    "%DVIPSParameters: dpi=600",
    "%DVIPSSource:  TeX output 2009.10.30:0923",
    "%!",
    "/TeXDict 300 dict def TeXDict begin/N{def}def/B{bind def}N/S{exch}N/X{S",
    "N}B/A{dup}B/TR{translate}N/isls false N/vsize 11 72 mul N/hsize 8.5 72",
    "mul N/landplus90{false}def/@rigin{isls{[0 landplus90{1 -1}{-1 1}ifelse 0",
    "0 0]concat}if 72 Resolution div 72 VResolution div neg scale isls{",
    "landplus90{VResolution 72 div vsize mul 0 exch}{Resolution -72 div hsize",
    "mul 0}ifelse TR}if Resolution VResolution vsize -72 div 1 add mul TR[",
    "matrix currentmatrix{A A round sub abs 0.00001 lt{round}if}forall round",
    "exch round exch]setmatrix}N/@landscape{/isls true N}B/@manualfeed{",
    "statusdict/manualfeed true put}B/@copies{/#copies X}B/FMat[1 0 0 -1 0 0]",
    "N/FBB[0 0 0 0]N/nn 0 N/IEn 0 N/ctr 0 N/df-tail{/nn 8 dict N nn begin",
    "/FontType 3 N/FontMatrix fntrx N/FontBBox FBB N string/base X array",
    "/BitMaps X/BuildChar{CharBuilder}N/Encoding IEn N end A{/foo setfont}2",
    "array copy cvx N load 0 nn put/ctr 0 N[}B/sf 0 N/df{/sf 1 N/fntrx FMat N",
    "df-tail}B/dfs{div/sf X/fntrx[sf 0 0 sf neg 0 0]N df-tail}B/E{pop nn A",
    "definefont setfont}B/Cw{Cd A length 5 sub get}B/Ch{Cd A length 4 sub get",
    "}B/Cx{128 Cd A length 3 sub get sub}B/Cy{Cd A length 2 sub get 127 sub}",
    "B/Cdx{Cd A length 1 sub get}B/Ci{Cd A type/stringtype ne{ctr get/ctr ctr",
    "1 add N}if}B/CharBuilder{save 3 1 roll S A/base get 2 index get S",
    "/BitMaps get S get/Cd X pop/ctr 0 N Cdx 0 Cx Cy Ch sub Cx Cw add Cy",
    "setcachedevice Cw Ch true[1 0 0 -1 -.1 Cx sub Cy .1 sub]{Ci}imagemask",
    "restore}B/D{/cc X A type/stringtype ne{]}if nn/base get cc ctr put nn",
    "/BitMaps get S ctr S sf 1 ne{A A length 1 sub A 2 index S get sf div put",
    "}if put/ctr ctr 1 add N}B/I{cc 1 add D}B/bop{userdict/bop-hook known{",
    "bop-hook}if/SI save N @rigin 0 0 moveto/V matrix currentmatrix A 1 get A",
    "mul exch 0 get A mul add .99 lt{/QV}{/RV}ifelse load def pop pop}N/eop{",
    "SI restore userdict/eop-hook known{eop-hook}if showpage}N/@start{",
    "userdict/start-hook known{start-hook}if pop/VResolution X/Resolution X",
    "1000 div/DVImag X/IEn 256 array N 2 string 0 1 255{IEn S A 360 add 36 4",
    "index cvrs cvn put}for pop 65781.76 div/vsize X 65781.76 div/hsize X}N",
    "/p{show}N/RMat[1 0 0 -1 0 0]N/BDot 260 string N/Rx 0 N/Ry 0 N/V{}B/RV/v{",
    "/Ry X/Rx X V}B statusdict begin/product where{pop false[(Display)(NeXT)",
    "(LaserWriter 16/600)]{A length product length le{A length product exch 0",
    "exch getinterval eq{pop true exit}if}{pop}ifelse}forall}{false}ifelse",
    "end{{gsave TR -.1 .1 TR 1 1 scale Rx Ry false RMat{BDot}imagemask",
    "grestore}}{{gsave TR -.1 .1 TR Rx Ry scale 1 1 false RMat{BDot}",
    "imagemask grestore}}ifelse B/QV{gsave newpath transform round exch round",
    "exch itransform moveto Rx 0 rlineto 0 Ry neg rlineto Rx neg 0 rlineto",
    "fill grestore}B/a{moveto}B/delta 0 N/tail{A/delta X 0 rmoveto}B/M{S p",
    "delta add tail}B/b{S p tail}B/c{-4 M}B/d{-3 M}B/e{-2 M}B/f{-1 M}B/g{0 M}",
    "B/h{1 M}B/i{2 M}B/j{3 M}B/k{4 M}B/w{0 rmoveto}B/l{p -4 w}B/m{p -3 w}B/n{",
    "p -2 w}B/o{p -1 w}B/q{p 1 w}B/r{p 2 w}B/s{p 3 w}B/t{p 4 w}B/x{0 S",
    "rmoveto}B/y{3 2 roll p a}B/bos{/SS save N}B/eos{SS restore}B end",
    "%!",
    "TeXDict begin/rf{findfont dup length 1 add dict begin{1 index/FID ne 2",
    "index/UniqueID ne and{def}{pop pop}ifelse}forall[1 index 0 6 -1 roll",
    "exec 0 exch 5 -1 roll VResolution Resolution div mul neg 0 0]FontType 0",
    "ne{/Metrics exch def dict begin Encoding{exch dup type/integertype ne{",
    "pop pop 1 sub dup 0 le{pop}{[}ifelse}{FontMatrix 0 get div Metrics 0 get",
    "div def}ifelse}forall Metrics/Metrics currentdict end def}{{1 index type",
    "/nametype eq{exit}if exch pop}loop}ifelse[2 index currentdict end",
    "definefont 3 -1 roll makefont/setfont cvx]cvx def}def/ObliqueSlant{dup",
    "sin S cos div neg}B/SlantFont{4 index mul add}def/ExtendFont{3 -1 roll",
    "mul exch}def/ReEncodeFont{CharStrings rcheck{/Encoding false def dup[",
    "exch{dup CharStrings exch known not{pop/.notdef/Encoding true def}if}",
    "forall Encoding{]exch pop}{cleartomark}ifelse}if/Encoding exch def}def",
    "end",
    "%!PS-AdobeFont-1.1: CMBX12 1.0",
    "% Copyright (C) 1997 American Mathematical Society. All Rights Reserved.",
    "11 dict begin",
    "/FontInfo 7 dict dup begin",
    "/version (1.0) readonly def",
    "/Notice (Copyright (C) 1997 American Mathematical Society. All Rights Reserved) readonly def",
    "/FullName (CMBX12) readonly def",
    "/FamilyName (Computer Modern) readonly def",
    "/Weight (Bold) readonly def",
    "/ItalicAngle 0 def",
    "/isFixedPitch false def",
    "end readonly def",
    "/FontName /CMBX12 def",
    "/PaintType 0 def",
    "/FontType 1 def",
    "/FontMatrix [0.001 0 0 0.001 0 0] readonly def",
    "/Encoding 256 array",
    "0 1 255 {1 index exch /.notdef put} for",
    "dup 85 /U put",
    "dup 98 /b put",
    "readonly def",
    "/FontBBox{-53 -251 1139 750}readonly def",
    "currentdict end",
    "currentfile eexec",
    "D9D66F633B846A97B686A97E45A3D0AA052A014267B7904EB3C0D3BD0B83D891",
    "016CA6CA4B712ADEB258FAAB9A130EE605E61F77FC1B738ABC7C51CD46EF8171",
    "9098D5FEE67660E69A7AB91B58F29A4D79E57022F783EB0FBBB6D4F4EC35014F",
    "D2DECBA99459A4C59DF0C6EBA150284454E707DC2100C15B76B4C19B84363758",
    "469A6C558785B226332152109871A9883487DD7710949204DDCF837E6A8708B8",
    "2BDBF16FBC7512FAA308A093FE5F0364CD5660F74BEE96790DE35AFA90CCF712",
    "B1805DA88AE375A04D99598EADFC625BDC1F9C315B6CF28C9BD427F32C745C99",
    "AEBE70DAAED49EA45AF94F081934AA47894A370D698ABABDA4215500B190AF26",
    "7FCFB7DDA2BC68605A4EF61ECCA3D61C684B47FFB5887A3BEDE0B4D30E8EBABF",
    "20980C23312618EB0EAF289B2924FF4A334B85D98FD68545FDADB47F991E7390",
    "B10EE86A46A5AF8866C010225024D5E5862D49DEB5D8ECCB95D94283C50A363D",
    "68A49071445610F03CE3600945118A6BC0B3AA4593104E727261C68C4A47F809",
    "D77E4CF27B3681F6B6F3AC498E45361BF9E01FAF5527F5E3CC790D3084674B3E",
    "26296F3E03321B5C555D2458578A89E72D3166A3C5D740B3ABB127CF420C316D",
    "F957873DA04CF0DB25A73574A4DE2E4F2D5D4E8E0B430654CF7F341A1BDB3E26",
    "77C194764EAD58C585F49EF10843FE020F9FDFD9008D660DE50B9BD7A2A87299",
    "BC319E66D781101BB956E30643A19B93C8967E1AE4719F300BFE5866F0D6DA5E",
    "C55E171A24D3B707EFA325D47F473764E99BC8B1108D815CF2ACADFA6C4663E8",
    "30855D673CE98AB78F5F829F7FA226AB57F07B3E7D4E7CE30ED3B7EB0D3035C5",
    "148DA8D9FA34483414FDA8E3DC9E6C479E3EEE9A11A0547FC9085FA4631AD19C",
    "E936E0598E3197207FA7BB6E55CFD5EF72AEC12D9A9675241C7B00AD58FAF645",
    "1297991B5D01701E82228D0313FC7C66B263BC79ACDDF9AAC48A3CBF42B96E38",
    "583E1D059953076D68148DC8B6C9527B3A74CE7DEF788A11531F44120BDF0F61",
    "0B2F3ED94EEBCDE4ACD23834C242AA4314B9EF98E4BE72DB76EBDD0A028CEA9D",
    "B4C38C1F2D24B8FDE686832FE96204552C820E45B6BAF0C3308742AE290D69BA",
    "D6C478E571C9E7625F22D7236D13E0B0450D303E9B3733B2F17DC8B2C823DF75",
    "FB0C848FBC63CD4BB83FE14D767F2FD14C586D570A4A5F751CB0AD7FE8DBE8A7",
    "38760F9F26092FC718CB3E94F2D23CB919F4D11FDB1892C43D7ED4C17C23A0A8",
    "36E9F9DCACF02A7F3A3EAA322548ECC47955550934692F5E7B7C80989A9DE0A9",
    "3DC9919BDE46046438F1F82A963F33E6F88B6635DCD71A8F8F9E75A20D087EC4",
    "BD0A4B42794B16081F929F2487442F92D3D83196C9234AAA8AA432E66E5CA453",
    "512B6F5EAC51AA7D1BA0122FD894E3E5AF7342360179631FDF8C21EE5E679D87",
    "CDBFD54034F0D91CC3EF5C5189769BACEFF03BDCFAD557F3654220BC1D46896C",
    "82BC542FB449695F90E184B99B932AEBB0CAE93987C64BF34286D67CFEE12EA0",
    "9A1A4BA3B156A42EEBB3261ED02BA113E200250535FF1893C0B03DABEC524C38",
    "5B698445A7385D8BBAB829E7DB4472F900C6F9682B899262B12FE836ABBA28B5",
    "714E4346538D22A2A8E37EB613E7368ACDD32986597A37B058C3BCA526B1468D",
    "22122274488EDEF5F17DE9CF16D9FE0126790982DDF73749161CA6EA0604DA0F",
    "0C2DC30426E6AB3E4BCE364839990A2272EC636E31",
    "0000000000000000000000000000000000000000000000000000000000000000",
    "0000000000000000000000000000000000000000000000000000000000000000",
    "0000000000000000000000000000000000000000000000000000000000000000",
    "0000000000000000000000000000000000000000000000000000000000000000",
    "0000000000000000000000000000000000000000000000000000000000000000",
    "0000000000000000000000000000000000000000000000000000000000000000",
    "0000000000000000000000000000000000000000000000000000000000000000",
    "0000000000000000000000000000000000000000000000000000000000000000",
    "cleartomark",
    "TeXDict begin 39139632 55387786 1000 600 600 (/tmp/Tgif4mKBr8.dvi)",
    "@start /Fa 157[108 98[{}1 172.188 /CMBX12 rf /Fb 170[179",
    "85[{}1 206.559 /CMBX12 rf end",
    "TeXDict begin",
    " end",
    "TeXDict begin 1 0 bop 1805 756 a Fb(U)1984 804 y Fa(b)p",
    "eop end",
    "userdict /end-hook known{end-hook}if"],
    "ff07e0001c0080001c0080001c0080001c0080001c0080001c0080001c008000
     1c0087001c0083001c0083001c0083001c0083000c01837c0e01038607060303
     01f803030000030300000303000003030000038600000278",[
])
],
"eq4",1172,0,0,0,0,[
attr("footer=", "", 0, 1, 1,
text('#ff00ff',404,162,3,0,1,126,48,1181,13,3,0,0,0,0,2,126,48,0,0,"",0,0,0,0,175,'',[
minilines(126,48,0,0,0,0,0,[
mini_line(63,13,3,0,0,0,[
str_block(0,63,13,3,0,-1,0,0,0,[
str_seg('#0000ff','Courier',0,80640,63,13,3,0,-1,0,0,0,0,0,
	"footer=")])
]),
mini_line(9,13,3,0,0,0,[
str_block(0,9,13,3,0,-1,0,0,0,[
str_seg('#0000ff','Courier',0,80640,9,13,3,0,-1,0,0,0,0,0,
	"%")])
]),
mini_line(126,13,3,0,0,0,[
str_block(0,126,13,3,0,-4,0,0,0,[
str_seg('#0000ff','Courier',0,80640,126,13,3,0,-4,0,0,0,0,0,
	"\\end{document}")])
])
])])),
attr("header=", "", 0, 1, 1,
text('#ff00ff',580,162,11,0,1,270,176,1180,13,3,0,0,0,0,2,270,176,0,0,"",0,0,0,0,175,'',[
minilines(270,176,0,0,0,0,0,[
mini_line(63,13,3,0,0,0,[
str_block(0,63,13,3,0,-1,0,0,0,[
str_seg('#0000ff','Courier',0,80640,63,13,3,0,-1,0,0,0,0,0,
	"header=")])
]),
mini_line(261,13,3,0,0,0,[
str_block(0,261,13,3,0,-4,0,0,0,[
str_seg('#0000ff','Courier',0,80640,261,13,3,0,-4,0,0,0,0,0,
	"\\documentstyle[12pt]{article}")])
]),
mini_line(162,13,3,0,0,0,[
str_block(0,162,13,3,0,-1,0,0,0,[
str_seg('#0000ff','Courier',0,80640,162,13,3,0,-1,0,0,0,0,0,
	"\\oddsidemargin=0in")])
]),
mini_line(144,13,3,0,0,0,[
str_block(0,144,13,3,0,-1,0,0,0,[
str_seg('#0000ff','Courier',0,80640,144,13,3,0,-1,0,0,0,0,0,
	"\\textwidth=6.5in")])
]),
mini_line(126,13,3,0,0,0,[
str_block(0,126,13,3,0,-1,0,0,0,[
str_seg('#0000ff','Courier',0,80640,126,13,3,0,-1,0,0,0,0,0,
	"\\topmargin=0in")])
]),
mini_line(153,13,3,0,0,0,[
str_block(0,153,13,3,0,-2,0,0,0,[
str_seg('#0000ff','Courier',0,80640,153,13,3,0,-2,0,0,0,0,0,
	"\\textheight=609pt")])
]),
mini_line(117,13,3,0,0,0,[
str_block(0,117,13,3,0,-2,0,0,0,[
str_seg('#0000ff','Courier',0,80640,117,13,3,0,-2,0,0,0,0,0,
	"\\parskip=14pt")])
]),
mini_line(270,13,3,0,0,0,[
str_block(0,270,13,3,0,-4,0,0,0,[
str_seg('#0000ff','Courier',0,80640,270,13,3,0,-4,0,0,0,0,0,
	"\\setlength{\\unitlength}{0.5cm}")])
]),
mini_line(153,13,3,0,0,0,[
str_block(0,153,13,3,0,-4,0,0,0,[
str_seg('#0000ff','Courier',0,80640,153,13,3,0,-4,0,0,0,0,0,
	"\\pagestyle{empty}")])
]),
mini_line(144,13,3,0,0,0,[
str_block(0,144,13,3,0,-4,0,0,0,[
str_seg('#0000ff','Courier',0,80640,144,13,3,0,-4,0,0,0,0,0,
	"\\begin{document}")])
]),
mini_line(9,13,3,0,0,0,[
str_block(0,9,13,3,0,-1,0,0,0,[
str_seg('#0000ff','Courier',0,80640,9,13,3,0,-1,0,0,0,0,0,
	"%")])
])
])])),
attr("exec=", "", 0, 1, 1,
text('blue',404,-89,9,0,1,477,144,1179,13,3,0,0,0,0,2,477,144,0,0,"",0,0,0,0,-76,'',[
minilines(477,144,0,0,0,0,0,[
mini_line(45,13,3,0,0,0,[
str_block(0,45,13,3,0,-1,0,0,0,[
str_seg('blue','Courier',0,80640,45,13,3,0,-1,0,0,0,0,0,
	"exec=")])
]),
mini_line(378,13,3,0,0,0,[
str_block(0,378,13,3,0,-4,0,0,0,[
str_seg('blue','Courier',0,80640,378,13,3,0,-4,0,0,0,0,0,
	"    mktemp(\"/tmp/TgifXXXXXX\",\"file_name\");")])
]),
mini_line(468,13,3,0,0,0,[
str_block(0,468,13,3,0,-4,0,0,0,[
str_seg('blue','Courier',0,80640,468,13,3,0,-4,0,0,0,0,0,
	"    write_attr_into_file(header,\"$(file_name).tex\");")])
]),
mini_line(441,13,3,0,0,0,[
str_block(0,441,13,3,0,-4,0,0,0,[
str_seg('blue','Courier',0,80640,441,13,3,0,-4,0,0,0,0,0,
	"    append_attr_into_file(eq,\"$(file_name).tex\");")])
]),
mini_line(477,13,3,0,0,0,[
str_block(0,477,13,3,0,-4,0,0,0,[
str_seg('blue','Courier',0,80640,477,13,3,0,-4,0,0,0,0,0,
	"    append_attr_into_file(footer,\"$(file_name).tex\");")])
]),
mini_line(162,13,3,0,0,0,[
str_block(0,162,13,3,0,-4,0,0,0,[
str_seg('blue','Courier',0,80640,162,13,3,0,-4,0,0,0,0,0,
	"    launch(\"cmd\");")])
]),
mini_line(477,13,3,0,0,0,[
str_block(0,477,13,3,0,-4,0,0,0,[
str_seg('blue','Courier',0,80640,477,13,3,0,-4,0,0,0,0,0,
	"    pstoepsi(\"$(file_name).eps\",\"$(file_name).ps\",1);")])
]),
mini_line(369,13,3,0,0,0,[
str_block(0,369,13,3,0,-4,0,0,0,[
str_seg('blue','Courier',0,80640,369,13,3,0,-4,0,0,0,0,0,
	"    update_eps_child(\"$(file_name).eps\");")])
]),
mini_line(189,13,3,0,0,0,[
str_block(0,189,13,3,0,-4,0,0,0,[
str_seg('blue','Courier',0,80640,189,13,3,0,-4,0,0,0,0,0,
	"    launch(\"cleanup\")")])
])
])])),
attr("cmd=", "", 0, 1, 1,
text('blue',404,31,4,0,1,702,64,1178,13,3,0,0,0,0,2,702,64,0,0,"",0,0,0,0,44,'',[
minilines(702,64,0,0,0,0,0,[
mini_line(36,13,3,0,0,0,[
str_block(0,36,13,3,0,-1,0,0,0,[
str_seg('blue','Courier',0,80640,36,13,3,0,-1,0,0,0,0,0,
	"cmd=")])
]),
mini_line(108,13,3,0,0,0,[
str_block(0,108,13,3,0,-4,0,0,0,[
str_seg('blue','Courier',0,80640,108,13,3,0,-4,0,0,0,0,0,
	"    cd /tmp;")])
]),
mini_line(459,13,3,0,0,0,[
str_block(0,459,13,3,0,-4,0,0,0,[
str_seg('blue','Courier',0,80640,459,13,3,0,-4,0,0,0,0,0,
	"    xterm -geom 40x8+200+400 -e latex $(file_name);")])
]),
mini_line(702,13,3,0,0,0,[
str_block(0,702,13,3,0,-4,0,0,0,[
str_seg('blue','Courier',0,80640,702,13,3,0,-4,0,0,0,0,0,
	"    xterm -geom 40x8+200+400 -e dvips -N -n 1 -o $(file_name).ps $(file_name);")])
])
])])),
attr("cleanup=", "", 0, 1, 1,
text('blue',404,111,3,0,1,540,48,1177,13,3,0,0,0,0,2,540,48,0,0,"",0,0,0,0,124,'',[
minilines(540,48,0,0,0,0,0,[
mini_line(72,13,3,0,0,0,[
str_block(0,72,13,3,0,-1,0,0,0,[
str_seg('blue','Courier',0,80640,72,13,3,0,-1,0,0,0,0,0,
	"cleanup=")])
]),
mini_line(540,13,3,0,0,0,[
str_block(0,540,13,3,0,-2,0,0,0,[
str_seg('blue','Courier',0,80640,540,13,3,0,-2,0,0,0,0,0,
	"    rm -f $(file_name).tex $(file_name).aux $(file_name).dvi")])
]),
mini_line(513,13,3,0,0,0,[
str_block(0,513,13,3,0,-2,0,0,0,[
str_seg('blue','Courier',0,80640,513,13,3,0,-2,0,0,0,0,0,
	"        $(file_name).log $(file_name).ps $(file_name).eps")])
])
])])),
attr("file_name=", "/tmp/Tgif4mKBr8", 0, 1, 1,
text('blue',404,215,1,0,1,225,16,1176,13,3,0,0,0,0,2,225,16,0,0,"",0,0,0,0,228,'',[
minilines(225,16,0,0,0,0,0,[
mini_line(225,13,3,0,0,0,[
str_block(0,225,13,3,0,-2,0,0,0,[
str_seg('blue','Courier',0,80640,225,13,3,0,-2,0,0,0,0,0,
	"file_name=/tmp/Tgif4mKBr8")])
])
])])),
attr("eq=", "", 0, 1, 1,
text('blue',404,231,5,0,1,135,80,1192,13,3,0,0,0,0,2,135,80,0,0,"",0,0,0,0,244,'',[
minilines(135,80,0,0,0,0,0,[
mini_line(27,13,3,0,0,0,[
str_block(0,27,13,3,0,-1,0,0,0,[
str_seg('blue','Courier',0,80640,27,13,3,0,-1,0,0,0,0,0,
	"eq=")])
]),
mini_line(45,13,3,0,0,0,[
str_block(0,45,13,3,0,-1,0,0,0,[
str_seg('blue','Courier',0,80640,45,13,3,0,-1,0,0,0,0,0,
	"\\huge")])
]),
mini_line(18,13,3,0,0,0,[
str_block(0,18,13,3,0,-3,0,0,0,[
str_seg('blue','Courier',0,80640,18,13,3,0,-3,0,0,0,0,0,
	"\\[")])
]),
mini_line(135,13,3,0,0,0,[
str_block(0,135,13,3,0,-4,0,0,0,[
str_seg('blue','Courier',0,80640,135,13,3,0,-4,0,0,0,0,0,
	"   \\mathbf{U_b}")])
]),
mini_line(18,13,3,0,0,0,[
str_block(0,18,13,3,0,-4,0,0,0,[
str_seg('blue','Courier',0,80640,18,13,3,0,-4,0,0,0,0,0,
	"\\]")])
])
])])),
attr("", "not_rigid", 0, 1, 1,
text('blue',404,335,1,0,1,81,16,1174,13,3,0,0,0,0,2,81,16,0,0,"",0,0,0,0,348,'',[
minilines(81,16,0,0,0,0,0,[
mini_line(81,13,3,0,0,0,[
str_block(0,81,13,3,0,-1,0,0,0,[
str_seg('blue','Courier',0,80640,81,13,3,0,-1,0,0,0,0,0,
	"not_rigid")])
])
])]))
]).
poly('springgreen','',4,[
	348,77,423,72,518,193,519,337],0,1,1,1225,1,0,2,0,0,0,0,'1',1,0,
    "6","",[
    0,8,3,0,'8','3','0'],[0,8,3,0,'8','3','0'],[
]).
poly('springgreen','',4,[
	347,97,423,95,499,222,497,336],0,1,1,1232,1,0,2,0,0,0,0,'1',1,0,
    "6","",[
    0,8,3,0,'8','3','0'],[0,8,3,0,'8','3','0'],[
]).
poly('springgreen','',2,[
	349,77,349,96],0,1,1,1237,0,1,2,0,0,0,0,'1',1,0,
    "0","",[
    0,8,3,0,'8','3','0'],[0,8,3,0,'8','3','0'],[
]).
poly('springgreen','',2,[
	498,336,518,336],0,1,1,1240,0,1,2,0,0,0,0,'1',1,0,
    "0","",[
    0,8,3,0,'8','3','0'],[0,8,3,0,'8','3','0'],[
]).
icon([
polygon('black','',5,[
	365,51,369,51,369,47,365,47,365,51],0,1,0,0,1243,0,0,0,0,0,'1',0,
    "00",[
]),
xbm('black','',365,47,397,71,1,1287,0,32,24,0,0,1,290000,673000,322000,697000,0,0,1,0,0,0,0,
    "Fri Oct 30 09:29:05 2009","/tmp/Tgifdwi9f1.eps",143,[
    "%!PS-Adobe-2.0 EPSF-1.2",
    "%!PS (but not EPSF; comments have been disabled)",
    "%DVIPSWebPage: (www.radicaleye.com)",
    "%DVIPSCommandLine: dvips -N -n 1 -o /tmp/Tgifdwi9f1.ps /tmp/Tgifdwi9f1",
    "%DVIPSParameters: dpi=600",
    "%DVIPSSource:  TeX output 2009.10.30:0929",
    "%!",
    "/TeXDict 300 dict def TeXDict begin/N{def}def/B{bind def}N/S{exch}N/X{S",
    "N}B/A{dup}B/TR{translate}N/isls false N/vsize 11 72 mul N/hsize 8.5 72",
    "mul N/landplus90{false}def/@rigin{isls{[0 landplus90{1 -1}{-1 1}ifelse 0",
    "0 0]concat}if 72 Resolution div 72 VResolution div neg scale isls{",
    "landplus90{VResolution 72 div vsize mul 0 exch}{Resolution -72 div hsize",
    "mul 0}ifelse TR}if Resolution VResolution vsize -72 div 1 add mul TR[",
    "matrix currentmatrix{A A round sub abs 0.00001 lt{round}if}forall round",
    "exch round exch]setmatrix}N/@landscape{/isls true N}B/@manualfeed{",
    "statusdict/manualfeed true put}B/@copies{/#copies X}B/FMat[1 0 0 -1 0 0]",
    "N/FBB[0 0 0 0]N/nn 0 N/IEn 0 N/ctr 0 N/df-tail{/nn 8 dict N nn begin",
    "/FontType 3 N/FontMatrix fntrx N/FontBBox FBB N string/base X array",
    "/BitMaps X/BuildChar{CharBuilder}N/Encoding IEn N end A{/foo setfont}2",
    "array copy cvx N load 0 nn put/ctr 0 N[}B/sf 0 N/df{/sf 1 N/fntrx FMat N",
    "df-tail}B/dfs{div/sf X/fntrx[sf 0 0 sf neg 0 0]N df-tail}B/E{pop nn A",
    "definefont setfont}B/Cw{Cd A length 5 sub get}B/Ch{Cd A length 4 sub get",
    "}B/Cx{128 Cd A length 3 sub get sub}B/Cy{Cd A length 2 sub get 127 sub}",
    "B/Cdx{Cd A length 1 sub get}B/Ci{Cd A type/stringtype ne{ctr get/ctr ctr",
    "1 add N}if}B/CharBuilder{save 3 1 roll S A/base get 2 index get S",
    "/BitMaps get S get/Cd X pop/ctr 0 N Cdx 0 Cx Cy Ch sub Cx Cw add Cy",
    "setcachedevice Cw Ch true[1 0 0 -1 -.1 Cx sub Cy .1 sub]{Ci}imagemask",
    "restore}B/D{/cc X A type/stringtype ne{]}if nn/base get cc ctr put nn",
    "/BitMaps get S ctr S sf 1 ne{A A length 1 sub A 2 index S get sf div put",
    "}if put/ctr ctr 1 add N}B/I{cc 1 add D}B/bop{userdict/bop-hook known{",
    "bop-hook}if/SI save N @rigin 0 0 moveto/V matrix currentmatrix A 1 get A",
    "mul exch 0 get A mul add .99 lt{/QV}{/RV}ifelse load def pop pop}N/eop{",
    "SI restore userdict/eop-hook known{eop-hook}if showpage}N/@start{",
    "userdict/start-hook known{start-hook}if pop/VResolution X/Resolution X",
    "1000 div/DVImag X/IEn 256 array N 2 string 0 1 255{IEn S A 360 add 36 4",
    "index cvrs cvn put}for pop 65781.76 div/vsize X 65781.76 div/hsize X}N",
    "/p{show}N/RMat[1 0 0 -1 0 0]N/BDot 260 string N/Rx 0 N/Ry 0 N/V{}B/RV/v{",
    "/Ry X/Rx X V}B statusdict begin/product where{pop false[(Display)(NeXT)",
    "(LaserWriter 16/600)]{A length product length le{A length product exch 0",
    "exch getinterval eq{pop true exit}if}{pop}ifelse}forall}{false}ifelse",
    "end{{gsave TR -.1 .1 TR 1 1 scale Rx Ry false RMat{BDot}imagemask",
    "grestore}}{{gsave TR -.1 .1 TR Rx Ry scale 1 1 false RMat{BDot}",
    "imagemask grestore}}ifelse B/QV{gsave newpath transform round exch round",
    "exch itransform moveto Rx 0 rlineto 0 Ry neg rlineto Rx neg 0 rlineto",
    "fill grestore}B/a{moveto}B/delta 0 N/tail{A/delta X 0 rmoveto}B/M{S p",
    "delta add tail}B/b{S p tail}B/c{-4 M}B/d{-3 M}B/e{-2 M}B/f{-1 M}B/g{0 M}",
    "B/h{1 M}B/i{2 M}B/j{3 M}B/k{4 M}B/w{0 rmoveto}B/l{p -4 w}B/m{p -3 w}B/n{",
    "p -2 w}B/o{p -1 w}B/q{p 1 w}B/r{p 2 w}B/s{p 3 w}B/t{p 4 w}B/x{0 S",
    "rmoveto}B/y{3 2 roll p a}B/bos{/SS save N}B/eos{SS restore}B end",
    "%!",
    "TeXDict begin/rf{findfont dup length 1 add dict begin{1 index/FID ne 2",
    "index/UniqueID ne and{def}{pop pop}ifelse}forall[1 index 0 6 -1 roll",
    "exec 0 exch 5 -1 roll VResolution Resolution div mul neg 0 0]FontType 0",
    "ne{/Metrics exch def dict begin Encoding{exch dup type/integertype ne{",
    "pop pop 1 sub dup 0 le{pop}{[}ifelse}{FontMatrix 0 get div Metrics 0 get",
    "div def}ifelse}forall Metrics/Metrics currentdict end def}{{1 index type",
    "/nametype eq{exit}if exch pop}loop}ifelse[2 index currentdict end",
    "definefont 3 -1 roll makefont/setfont cvx]cvx def}def/ObliqueSlant{dup",
    "sin S cos div neg}B/SlantFont{4 index mul add}def/ExtendFont{3 -1 roll",
    "mul exch}def/ReEncodeFont{CharStrings rcheck{/Encoding false def dup[",
    "exch{dup CharStrings exch known not{pop/.notdef/Encoding true def}if}",
    "forall Encoding{]exch pop}{cleartomark}ifelse}if/Encoding exch def}def",
    "end",
    "%!PS-AdobeFont-1.1: CMBX12 1.0",
    "% Copyright (C) 1997 American Mathematical Society. All Rights Reserved.",
    "11 dict begin",
    "/FontInfo 7 dict dup begin",
    "/version (1.0) readonly def",
    "/Notice (Copyright (C) 1997 American Mathematical Society. All Rights Reserved) readonly def",
    "/FullName (CMBX12) readonly def",
    "/FamilyName (Computer Modern) readonly def",
    "/Weight (Bold) readonly def",
    "/ItalicAngle 0 def",
    "/isFixedPitch false def",
    "end readonly def",
    "/FontName /CMBX12 def",
    "/PaintType 0 def",
    "/FontType 1 def",
    "/FontMatrix [0.001 0 0 0.001 0 0] readonly def",
    "/Encoding 256 array",
    "0 1 255 {1 index exch /.notdef put} for",
    "dup 85 /U put",
    "dup 112 /p put",
    "readonly def",
    "/FontBBox{-53 -251 1139 750}readonly def",
    "currentdict end",
    "currentfile eexec",
    "D9D66F633B846A97B686A97E45A3D0AA052A014267B7904EB3C0D3BD0B83D891",
    "016CA6CA4B712ADEB258FAAB9A130EE605E61F77FC1B738ABC7C51CD46EF8171",
    "9098D5FEE67660E69A7AB91B58F29A4D79E57022F783EB0FBBB6D4F4EC35014F",
    "D2DECBA99459A4C59DF0C6EBA150284454E707DC2100C15B76B4C19B84363758",
    "469A6C558785B226332152109871A9883487DD7710949204DDCF837E6A8708B8",
    "2BDBF16FBC7512FAA308A093FE5F0364CD5660F74BEE96790DE35AFA90CCF712",
    "B1805DA88AE375A04D99598EADFC625BDC1F9C315B6CF28C9BD427F32C745C99",
    "AEBE70DAAED49EA45AF94F081934AA47894A370D698ABABDA4215500B190AF26",
    "7FCFB7DDA2BC68605A4EF61ECCA3D61C684B47FFB5887A3BEDE0B4D30E8EBABF",
    "20980C23312618EB0EAF289B2924FF4A334B85D98FD68545FDADB47F991E7390",
    "B10EE86A46A5AF8866C010225024D5E5862D49DEB5D8ECCB95D94283C50A363D",
    "68A49071445610F03CE3600945118A6BC0B3AA4593104E727261C68C4A47F809",
    "D77E4CF27B3681F6B6F3AC498E45361BF9E01FAF5527F5E3CC790D3084674B3E",
    "26296F3E03321B5C555D2458578A89E72D3166A3C5D740B3ABB127CF420C316D",
    "F957873DA04CF0DB25A73574A4DE2E4F2D5D4E8E0B430654CF7F341A1BDB3E26",
    "77C194764EAD58C585F49EF10843FE020F9FDFD9008D660DE50B9BD7A2A87299",
    "BC319E66D781101BB956E30643A19B93C8967E1AE4719F300BFE5866F0D6DA5E",
    "C55E171A24D3B707EFA325D47F473764E99BC8B1108D815CF2ACADFA6C4663E8",
    "30855D673CE98AB78F5F829F7FA226AB57F07B3E7D4E7CE30ED3B7EB0D3035C5",
    "148DA8D9FA34483414FDA8E3DC9E6C479E3EEE9A11A0547FC9085FA4631AD19C",
    "E936E0598E3197207FA7BB6E55CFD5EF72AEC12D9A9675241C7B00AD58FAF645",
    "1297991B5D01701E82228D0313FC7C66B263BC79ACDDF9AAC48A3CBF42B96E38",
    "583E1D059953076D68148DC8B6C9527B3A74CE7DEF788A11531F44120BDF0F61",
    "0B2F3ED94EEBCDE4ACD23834C242AA4314B9EF98E4BE72DB76EBDD0A028CEA9D",
    "B4C38C1F2D24B8FDE686832FE96204552C820E45B6BAF0C3308742AE290D69BA",
    "D6C478E571C9E7625F22D7236D13E0B0450D303E9B3733B2F17DC8B2C823DF75",
    "FB0C848FBC63CD4BB83FE14D767F2FD14C586D570A4A5F751CB0AD7FE8DBE8A7",
    "38760F9F26092FC718CB3E94F2D23CB919F4D11FDB1892C43D7ED4C17C23A0A8",
    "36E9F9DCACF02A7F3A3EAA322548ECC47955550934692F5E7B7C80989A9DE0A9",
    "3DC9919BDE46046438F1F82A963F33E6F88B6635DCD71A8F8F9E75A20D087EC4",
    "BD0A4B42794B16081F929F2487442F804FAC954D754C6DD10967C5478D3E83EA",
    "D890DBBE2D57C60A17B3E5D60517EDF5DF616A3AF88185D1427F4FC0DD1A4D24",
    "F4D43EFF8F01062EC218AB055898CB385BBC4FBA972AF8123C947B69A9EB9479",
    "85B87B14F804A6131EFF457AEF04BEF185A5D78A42E3582D0B76F3C4808A1E18",
    "BDDFCE9F90A131EA64EBD9CA094F51AC182CE16966CDA1D5E455226450E8608A",
    "EDDDD0DBA20818F9AAC776723E919227014EB240751A1D661270C9E5AC7B5D6F",
    "8360A750F328D51670EDCDB60CA954DC76A72CD6AA0F0C25AC2B53F151F0A73A",
    "FACA21B9FE649C57821AC9DACFBC652D48562DCDDFADEE12BB5CBBEB88B94625",
    "FCF2802A806E1608C7CF09D6FD5B69EE2931F7FABEA72230A285F19A0171",
    "0000000000000000000000000000000000000000000000000000000000000000",
    "0000000000000000000000000000000000000000000000000000000000000000",
    "0000000000000000000000000000000000000000000000000000000000000000",
    "0000000000000000000000000000000000000000000000000000000000000000",
    "0000000000000000000000000000000000000000000000000000000000000000",
    "0000000000000000000000000000000000000000000000000000000000000000",
    "0000000000000000000000000000000000000000000000000000000000000000",
    "0000000000000000000000000000000000000000000000000000000000000000",
    "cleartomark",
    "TeXDict begin 39139632 55387786 1000 600 600 (/tmp/Tgifdwi9f1.dvi)",
    "@start /Fa 143[108 112[{}1 172.188 /CMBX12 rf /Fb 170[179",
    "85[{}1 206.559 /CMBX12 rf end",
    "TeXDict begin",
    " end",
    "TeXDict begin 1 0 bop 1805 756 a Fb(U)1984 786 y Fa(p)p",
    "eop end",
    "userdict /end-hook known{end-hook}if"],
    "ff07e0001c0080001c0080001c0080001c0080001c0080001c0080001c008000
     1c0080001c0080001c0080001c00877c1c0083860c0183030e01030307060303
     01f80303000003070000038600000378000003000000030000000300000007c0",[
])
],
"eq4",1242,0,0,0,0,[
attr("footer=", "", 0, 1, 1,
text('#ff00ff',365,-102,3,0,1,126,48,1245,13,3,0,0,0,0,2,126,48,0,0,"",0,0,0,0,-89,'',[
minilines(126,48,0,0,0,0,0,[
mini_line(63,13,3,0,0,0,[
str_block(0,63,13,3,0,-1,0,0,0,[
str_seg('#0000ff','Courier',0,80640,63,13,3,0,-1,0,0,0,0,0,
	"footer=")])
]),
mini_line(9,13,3,0,0,0,[
str_block(0,9,13,3,0,-1,0,0,0,[
str_seg('#0000ff','Courier',0,80640,9,13,3,0,-1,0,0,0,0,0,
	"%")])
]),
mini_line(126,13,3,0,0,0,[
str_block(0,126,13,3,0,-4,0,0,0,[
str_seg('#0000ff','Courier',0,80640,126,13,3,0,-4,0,0,0,0,0,
	"\\end{document}")])
])
])])),
attr("header=", "", 0, 1, 1,
text('#ff00ff',541,-102,11,0,1,270,176,1246,13,3,0,0,0,0,2,270,176,0,0,"",0,0,0,0,-89,'',[
minilines(270,176,0,0,0,0,0,[
mini_line(63,13,3,0,0,0,[
str_block(0,63,13,3,0,-1,0,0,0,[
str_seg('#0000ff','Courier',0,80640,63,13,3,0,-1,0,0,0,0,0,
	"header=")])
]),
mini_line(261,13,3,0,0,0,[
str_block(0,261,13,3,0,-4,0,0,0,[
str_seg('#0000ff','Courier',0,80640,261,13,3,0,-4,0,0,0,0,0,
	"\\documentstyle[12pt]{article}")])
]),
mini_line(162,13,3,0,0,0,[
str_block(0,162,13,3,0,-1,0,0,0,[
str_seg('#0000ff','Courier',0,80640,162,13,3,0,-1,0,0,0,0,0,
	"\\oddsidemargin=0in")])
]),
mini_line(144,13,3,0,0,0,[
str_block(0,144,13,3,0,-1,0,0,0,[
str_seg('#0000ff','Courier',0,80640,144,13,3,0,-1,0,0,0,0,0,
	"\\textwidth=6.5in")])
]),
mini_line(126,13,3,0,0,0,[
str_block(0,126,13,3,0,-1,0,0,0,[
str_seg('#0000ff','Courier',0,80640,126,13,3,0,-1,0,0,0,0,0,
	"\\topmargin=0in")])
]),
mini_line(153,13,3,0,0,0,[
str_block(0,153,13,3,0,-2,0,0,0,[
str_seg('#0000ff','Courier',0,80640,153,13,3,0,-2,0,0,0,0,0,
	"\\textheight=609pt")])
]),
mini_line(117,13,3,0,0,0,[
str_block(0,117,13,3,0,-2,0,0,0,[
str_seg('#0000ff','Courier',0,80640,117,13,3,0,-2,0,0,0,0,0,
	"\\parskip=14pt")])
]),
mini_line(270,13,3,0,0,0,[
str_block(0,270,13,3,0,-4,0,0,0,[
str_seg('#0000ff','Courier',0,80640,270,13,3,0,-4,0,0,0,0,0,
	"\\setlength{\\unitlength}{0.5cm}")])
]),
mini_line(153,13,3,0,0,0,[
str_block(0,153,13,3,0,-4,0,0,0,[
str_seg('#0000ff','Courier',0,80640,153,13,3,0,-4,0,0,0,0,0,
	"\\pagestyle{empty}")])
]),
mini_line(144,13,3,0,0,0,[
str_block(0,144,13,3,0,-4,0,0,0,[
str_seg('#0000ff','Courier',0,80640,144,13,3,0,-4,0,0,0,0,0,
	"\\begin{document}")])
]),
mini_line(9,13,3,0,0,0,[
str_block(0,9,13,3,0,-1,0,0,0,[
str_seg('#0000ff','Courier',0,80640,9,13,3,0,-1,0,0,0,0,0,
	"%")])
])
])])),
attr("exec=", "", 0, 1, 1,
text('blue',365,-353,9,0,1,477,144,1247,13,3,0,0,0,0,2,477,144,0,0,"",0,0,0,0,-340,'',[
minilines(477,144,0,0,0,0,0,[
mini_line(45,13,3,0,0,0,[
str_block(0,45,13,3,0,-1,0,0,0,[
str_seg('blue','Courier',0,80640,45,13,3,0,-1,0,0,0,0,0,
	"exec=")])
]),
mini_line(378,13,3,0,0,0,[
str_block(0,378,13,3,0,-4,0,0,0,[
str_seg('blue','Courier',0,80640,378,13,3,0,-4,0,0,0,0,0,
	"    mktemp(\"/tmp/TgifXXXXXX\",\"file_name\");")])
]),
mini_line(468,13,3,0,0,0,[
str_block(0,468,13,3,0,-4,0,0,0,[
str_seg('blue','Courier',0,80640,468,13,3,0,-4,0,0,0,0,0,
	"    write_attr_into_file(header,\"$(file_name).tex\");")])
]),
mini_line(441,13,3,0,0,0,[
str_block(0,441,13,3,0,-4,0,0,0,[
str_seg('blue','Courier',0,80640,441,13,3,0,-4,0,0,0,0,0,
	"    append_attr_into_file(eq,\"$(file_name).tex\");")])
]),
mini_line(477,13,3,0,0,0,[
str_block(0,477,13,3,0,-4,0,0,0,[
str_seg('blue','Courier',0,80640,477,13,3,0,-4,0,0,0,0,0,
	"    append_attr_into_file(footer,\"$(file_name).tex\");")])
]),
mini_line(162,13,3,0,0,0,[
str_block(0,162,13,3,0,-4,0,0,0,[
str_seg('blue','Courier',0,80640,162,13,3,0,-4,0,0,0,0,0,
	"    launch(\"cmd\");")])
]),
mini_line(477,13,3,0,0,0,[
str_block(0,477,13,3,0,-4,0,0,0,[
str_seg('blue','Courier',0,80640,477,13,3,0,-4,0,0,0,0,0,
	"    pstoepsi(\"$(file_name).eps\",\"$(file_name).ps\",1);")])
]),
mini_line(369,13,3,0,0,0,[
str_block(0,369,13,3,0,-4,0,0,0,[
str_seg('blue','Courier',0,80640,369,13,3,0,-4,0,0,0,0,0,
	"    update_eps_child(\"$(file_name).eps\");")])
]),
mini_line(189,13,3,0,0,0,[
str_block(0,189,13,3,0,-4,0,0,0,[
str_seg('blue','Courier',0,80640,189,13,3,0,-4,0,0,0,0,0,
	"    launch(\"cleanup\")")])
])
])])),
attr("cmd=", "", 0, 1, 1,
text('blue',365,-233,4,0,1,702,64,1248,13,3,0,0,0,0,2,702,64,0,0,"",0,0,0,0,-220,'',[
minilines(702,64,0,0,0,0,0,[
mini_line(36,13,3,0,0,0,[
str_block(0,36,13,3,0,-1,0,0,0,[
str_seg('blue','Courier',0,80640,36,13,3,0,-1,0,0,0,0,0,
	"cmd=")])
]),
mini_line(108,13,3,0,0,0,[
str_block(0,108,13,3,0,-4,0,0,0,[
str_seg('blue','Courier',0,80640,108,13,3,0,-4,0,0,0,0,0,
	"    cd /tmp;")])
]),
mini_line(459,13,3,0,0,0,[
str_block(0,459,13,3,0,-4,0,0,0,[
str_seg('blue','Courier',0,80640,459,13,3,0,-4,0,0,0,0,0,
	"    xterm -geom 40x8+200+400 -e latex $(file_name);")])
]),
mini_line(702,13,3,0,0,0,[
str_block(0,702,13,3,0,-4,0,0,0,[
str_seg('blue','Courier',0,80640,702,13,3,0,-4,0,0,0,0,0,
	"    xterm -geom 40x8+200+400 -e dvips -N -n 1 -o $(file_name).ps $(file_name);")])
])
])])),
attr("cleanup=", "", 0, 1, 1,
text('blue',365,-153,3,0,1,540,48,1249,13,3,0,0,0,0,2,540,48,0,0,"",0,0,0,0,-140,'',[
minilines(540,48,0,0,0,0,0,[
mini_line(72,13,3,0,0,0,[
str_block(0,72,13,3,0,-1,0,0,0,[
str_seg('blue','Courier',0,80640,72,13,3,0,-1,0,0,0,0,0,
	"cleanup=")])
]),
mini_line(540,13,3,0,0,0,[
str_block(0,540,13,3,0,-2,0,0,0,[
str_seg('blue','Courier',0,80640,540,13,3,0,-2,0,0,0,0,0,
	"    rm -f $(file_name).tex $(file_name).aux $(file_name).dvi")])
]),
mini_line(513,13,3,0,0,0,[
str_block(0,513,13,3,0,-2,0,0,0,[
str_seg('blue','Courier',0,80640,513,13,3,0,-2,0,0,0,0,0,
	"        $(file_name).log $(file_name).ps $(file_name).eps")])
])
])])),
attr("file_name=", "/tmp/Tgifdwi9f1", 0, 1, 1,
text('blue',365,-49,1,0,1,225,16,1250,13,3,0,0,0,0,2,225,16,0,0,"",0,0,0,0,-36,'',[
minilines(225,16,0,0,0,0,0,[
mini_line(225,13,3,0,0,0,[
str_block(0,225,13,3,0,-3,0,0,0,[
str_seg('blue','Courier',0,80640,225,13,3,0,-3,0,0,0,0,0,
	"file_name=/tmp/Tgifdwi9f1")])
])
])])),
attr("eq=", "", 0, 1, 1,
text('blue',365,-33,5,0,1,135,80,1264,13,3,0,0,0,0,2,135,80,0,0,"",0,0,0,0,-20,'',[
minilines(135,80,0,0,0,0,0,[
mini_line(27,13,3,0,0,0,[
str_block(0,27,13,3,0,-1,0,0,0,[
str_seg('blue','Courier',0,80640,27,13,3,0,-1,0,0,0,0,0,
	"eq=")])
]),
mini_line(45,13,3,0,0,0,[
str_block(0,45,13,3,0,-1,0,0,0,[
str_seg('blue','Courier',0,80640,45,13,3,0,-1,0,0,0,0,0,
	"\\huge")])
]),
mini_line(18,13,3,0,0,0,[
str_block(0,18,13,3,0,-3,0,0,0,[
str_seg('blue','Courier',0,80640,18,13,3,0,-3,0,0,0,0,0,
	"\\[")])
]),
mini_line(135,13,3,0,0,0,[
str_block(0,135,13,3,0,-4,0,0,0,[
str_seg('blue','Courier',0,80640,135,13,3,0,-4,0,0,0,0,0,
	"   \\mathbf{U_p}")])
]),
mini_line(18,13,3,0,0,0,[
str_block(0,18,13,3,0,-4,0,0,0,[
str_seg('blue','Courier',0,80640,18,13,3,0,-4,0,0,0,0,0,
	"\\]")])
])
])])),
attr("", "not_rigid", 0, 1, 1,
text('blue',365,71,1,0,1,81,16,1252,13,3,0,0,0,0,2,81,16,0,0,"",0,0,0,0,84,'',[
minilines(81,16,0,0,0,0,0,[
mini_line(81,13,3,0,0,0,[
str_block(0,81,13,3,0,-1,0,0,0,[
str_seg('blue','Courier',0,80640,81,13,3,0,-1,0,0,0,0,0,
	"not_rigid")])
])
])]))
]).
poly('black','',2,[
	350,69,378,69],1,1,1,1299,0,1,0,0,0,0,0,'1',1,0,
    "0","",[
    0,8,3,0,'8','3','0'],[0,8,3,0,'8','3','0'],[
]).
icon([
polygon('black','',5,[
	351,109,355,109,355,105,351,105,351,109],0,1,0,0,1303,0,0,0,0,0,'1',0,
    "00",[
]),
xbm('black','',351,105,383,129,1,1347,0,32,24,0,0,1,290000,673000,322000,697000,0,0,1,0,0,0,0,
    "Fri Oct 30 09:30:39 2009","/tmp/TgifQSEcrq.eps",143,[
    "%!PS-Adobe-2.0 EPSF-1.2",
    "%!PS (but not EPSF; comments have been disabled)",
    "%DVIPSWebPage: (www.radicaleye.com)",
    "%DVIPSCommandLine: dvips -N -n 1 -o /tmp/TgifQSEcrq.ps /tmp/TgifQSEcrq",
    "%DVIPSParameters: dpi=600",
    "%DVIPSSource:  TeX output 2009.10.30:0930",
    "%!",
    "/TeXDict 300 dict def TeXDict begin/N{def}def/B{bind def}N/S{exch}N/X{S",
    "N}B/A{dup}B/TR{translate}N/isls false N/vsize 11 72 mul N/hsize 8.5 72",
    "mul N/landplus90{false}def/@rigin{isls{[0 landplus90{1 -1}{-1 1}ifelse 0",
    "0 0]concat}if 72 Resolution div 72 VResolution div neg scale isls{",
    "landplus90{VResolution 72 div vsize mul 0 exch}{Resolution -72 div hsize",
    "mul 0}ifelse TR}if Resolution VResolution vsize -72 div 1 add mul TR[",
    "matrix currentmatrix{A A round sub abs 0.00001 lt{round}if}forall round",
    "exch round exch]setmatrix}N/@landscape{/isls true N}B/@manualfeed{",
    "statusdict/manualfeed true put}B/@copies{/#copies X}B/FMat[1 0 0 -1 0 0]",
    "N/FBB[0 0 0 0]N/nn 0 N/IEn 0 N/ctr 0 N/df-tail{/nn 8 dict N nn begin",
    "/FontType 3 N/FontMatrix fntrx N/FontBBox FBB N string/base X array",
    "/BitMaps X/BuildChar{CharBuilder}N/Encoding IEn N end A{/foo setfont}2",
    "array copy cvx N load 0 nn put/ctr 0 N[}B/sf 0 N/df{/sf 1 N/fntrx FMat N",
    "df-tail}B/dfs{div/sf X/fntrx[sf 0 0 sf neg 0 0]N df-tail}B/E{pop nn A",
    "definefont setfont}B/Cw{Cd A length 5 sub get}B/Ch{Cd A length 4 sub get",
    "}B/Cx{128 Cd A length 3 sub get sub}B/Cy{Cd A length 2 sub get 127 sub}",
    "B/Cdx{Cd A length 1 sub get}B/Ci{Cd A type/stringtype ne{ctr get/ctr ctr",
    "1 add N}if}B/CharBuilder{save 3 1 roll S A/base get 2 index get S",
    "/BitMaps get S get/Cd X pop/ctr 0 N Cdx 0 Cx Cy Ch sub Cx Cw add Cy",
    "setcachedevice Cw Ch true[1 0 0 -1 -.1 Cx sub Cy .1 sub]{Ci}imagemask",
    "restore}B/D{/cc X A type/stringtype ne{]}if nn/base get cc ctr put nn",
    "/BitMaps get S ctr S sf 1 ne{A A length 1 sub A 2 index S get sf div put",
    "}if put/ctr ctr 1 add N}B/I{cc 1 add D}B/bop{userdict/bop-hook known{",
    "bop-hook}if/SI save N @rigin 0 0 moveto/V matrix currentmatrix A 1 get A",
    "mul exch 0 get A mul add .99 lt{/QV}{/RV}ifelse load def pop pop}N/eop{",
    "SI restore userdict/eop-hook known{eop-hook}if showpage}N/@start{",
    "userdict/start-hook known{start-hook}if pop/VResolution X/Resolution X",
    "1000 div/DVImag X/IEn 256 array N 2 string 0 1 255{IEn S A 360 add 36 4",
    "index cvrs cvn put}for pop 65781.76 div/vsize X 65781.76 div/hsize X}N",
    "/p{show}N/RMat[1 0 0 -1 0 0]N/BDot 260 string N/Rx 0 N/Ry 0 N/V{}B/RV/v{",
    "/Ry X/Rx X V}B statusdict begin/product where{pop false[(Display)(NeXT)",
    "(LaserWriter 16/600)]{A length product length le{A length product exch 0",
    "exch getinterval eq{pop true exit}if}{pop}ifelse}forall}{false}ifelse",
    "end{{gsave TR -.1 .1 TR 1 1 scale Rx Ry false RMat{BDot}imagemask",
    "grestore}}{{gsave TR -.1 .1 TR Rx Ry scale 1 1 false RMat{BDot}",
    "imagemask grestore}}ifelse B/QV{gsave newpath transform round exch round",
    "exch itransform moveto Rx 0 rlineto 0 Ry neg rlineto Rx neg 0 rlineto",
    "fill grestore}B/a{moveto}B/delta 0 N/tail{A/delta X 0 rmoveto}B/M{S p",
    "delta add tail}B/b{S p tail}B/c{-4 M}B/d{-3 M}B/e{-2 M}B/f{-1 M}B/g{0 M}",
    "B/h{1 M}B/i{2 M}B/j{3 M}B/k{4 M}B/w{0 rmoveto}B/l{p -4 w}B/m{p -3 w}B/n{",
    "p -2 w}B/o{p -1 w}B/q{p 1 w}B/r{p 2 w}B/s{p 3 w}B/t{p 4 w}B/x{0 S",
    "rmoveto}B/y{3 2 roll p a}B/bos{/SS save N}B/eos{SS restore}B end",
    "%!",
    "TeXDict begin/rf{findfont dup length 1 add dict begin{1 index/FID ne 2",
    "index/UniqueID ne and{def}{pop pop}ifelse}forall[1 index 0 6 -1 roll",
    "exec 0 exch 5 -1 roll VResolution Resolution div mul neg 0 0]FontType 0",
    "ne{/Metrics exch def dict begin Encoding{exch dup type/integertype ne{",
    "pop pop 1 sub dup 0 le{pop}{[}ifelse}{FontMatrix 0 get div Metrics 0 get",
    "div def}ifelse}forall Metrics/Metrics currentdict end def}{{1 index type",
    "/nametype eq{exit}if exch pop}loop}ifelse[2 index currentdict end",
    "definefont 3 -1 roll makefont/setfont cvx]cvx def}def/ObliqueSlant{dup",
    "sin S cos div neg}B/SlantFont{4 index mul add}def/ExtendFont{3 -1 roll",
    "mul exch}def/ReEncodeFont{CharStrings rcheck{/Encoding false def dup[",
    "exch{dup CharStrings exch known not{pop/.notdef/Encoding true def}if}",
    "forall Encoding{]exch pop}{cleartomark}ifelse}if/Encoding exch def}def",
    "end",
    "%!PS-AdobeFont-1.1: CMBX12 1.0",
    "% Copyright (C) 1997 American Mathematical Society. All Rights Reserved.",
    "11 dict begin",
    "/FontInfo 7 dict dup begin",
    "/version (1.0) readonly def",
    "/Notice (Copyright (C) 1997 American Mathematical Society. All Rights Reserved) readonly def",
    "/FullName (CMBX12) readonly def",
    "/FamilyName (Computer Modern) readonly def",
    "/Weight (Bold) readonly def",
    "/ItalicAngle 0 def",
    "/isFixedPitch false def",
    "end readonly def",
    "/FontName /CMBX12 def",
    "/PaintType 0 def",
    "/FontType 1 def",
    "/FontMatrix [0.001 0 0 0.001 0 0] readonly def",
    "/Encoding 256 array",
    "0 1 255 {1 index exch /.notdef put} for",
    "dup 65 /A put",
    "dup 112 /p put",
    "readonly def",
    "/FontBBox{-53 -251 1139 750}readonly def",
    "currentdict end",
    "currentfile eexec",
    "D9D66F633B846A97B686A97E45A3D0AA052A014267B7904EB3C0D3BD0B83D891",
    "016CA6CA4B712ADEB258FAAB9A130EE605E61F77FC1B738ABC7C51CD46EF8171",
    "9098D5FEE67660E69A7AB91B58F29A4D79E57022F783EB0FBBB6D4F4EC35014F",
    "D2DECBA99459A4C59DF0C6EBA150284454E707DC2100C15B76B4C19B84363758",
    "469A6C558785B226332152109871A9883487DD7710949204DDCF837E6A8708B8",
    "2BDBF16FBC7512FAA308A093FE5F0364CD5660F74BEE96790DE35AFA90CCF712",
    "B1805DA88AE375A04D99598EADFC625BDC1F9C315B6CF28C9BD427F32C745C99",
    "AEBE70DAAED49EA45AF94F081934AA47894A370D698ABABDA4215500B190AF26",
    "7FCFB7DDA2BC68605A4EF61ECCA3D61C684B47FFB5887A3BEDE0B4D30E8EBABF",
    "20980C23312618EB0EAF289B2924FF4A334B85D98FD68545FDADB47F991E7390",
    "B10EE86A46A5AF8866C010225024D5E5862D49DEB5D8ECCB95D94283C50A363D",
    "68A49071445610F03CE3600945118A6BC0B3AA4593104E727261C68C4A47F809",
    "D77E4CF27B3681F6B6F3AC498E45361BF9E01FAF5527F5E3CC790D3084674B3E",
    "26296F3E03321B5C555D2458578A89E72D3166A3C5D740B3ABB127CF420C316D",
    "F957873DA04CF0DB25A73574A4DE2E4F2D5D4E8E0B430654CF7F341A1BDB3E26",
    "77C194764EAD58C585F49EF10843FE020F9FDFD9008D660DE50B9BD7A2A87299",
    "BC319E66D781101BB956E30643A19B93C8967E1AE4719F300BFE5866F0D6DA5E",
    "C55E171A24D3B707EFA325D47F473764E99BC8B1108D815CF2ACADFA6C4663E8",
    "30855D673CE98AB78F5F829F7FA226AB57F07B3E7D4E7CE30ED3B7EB0D3035C5",
    "148DA8D9FA34483414FDA8E3DC9E6C479E3EEE9A11A0547FC9085FA4631AD19C",
    "E936E0598E3197207FA7BB6E55CFD5EF72AEC12D9A9675241C7B00AD58FAF645",
    "1297991B5D01701E82228D0313FC7C66B263BC79ACDDF9AAC48A3CBF42B96E38",
    "583E1D059953076D68148DC8B6C9527B3A74CE7DEF788A11531F44120BDF0F61",
    "0B2F3ED94EEBCDE4ACD23834C242AA4314B9EF98E4BE72DB76EBDD0A028CEA9D",
    "B4C38C1F2D24B8FDE686832FE96204552C820E45B6BAF0C3308742AE290D69BA",
    "D6C478E571C9E7625F22D7236D13F491B4F151F33F5224A7B63C1435919F111B",
    "6A141A5B6860716148EF8BF8EA89E3C94F898E8B1A75E68240FA0F06E932D5E8",
    "0AE625617B3C9D2ADB781D0CD4F9FB147641DAC1E985495AA7512B9B03C735DE",
    "5D68185D7003AD93FFC38449E674FEFB2B39469FBC1BB5D5610B99E4A268D949",
    "43E177296814132FC4F14F5B0EE184F2A1F334EBA5CAF49BDB08F6EDA402F80F",
    "794A373FFBB95BF8FA2C33747B3099B89FD039F009AF8CC51F6F96888AA8A36B",
    "BEC3C69CCFE6C3E8DA98B2EA6E1BF5293AA113AF150B30C94166B2B1048C2902",
    "C3B30E72E1AB6433CA052A1A3563B64B1E709E0A85532ACB53CA3A1BA412790D",
    "801B0C12737C78FA3B8396AB9DAEC026848B342959FFA14B4E2BB0C80EDB2D8F",
    "763697DAC8BFFA5DB3B267D32116E09F2404055C2AEAB835DC372C4D6ACE8BC3",
    "C4497DA29A0BAFCE4FBA69C8E437E3C1269ECD815AC2733A5380D4A9594F69A9",
    "63BD80784D1F724277CE113E48A3B425B4243545EA654B4E16D22F5B4CEFD31F",
    "E001822EF16557DC43300436C417899736A60D2603ACB58F7D721C0890826218",
    "8DE0D0864E4918B1FCCCAAB010F0ACFA0C0CD937903B94D27AA1918EE6",
    "0000000000000000000000000000000000000000000000000000000000000000",
    "0000000000000000000000000000000000000000000000000000000000000000",
    "0000000000000000000000000000000000000000000000000000000000000000",
    "0000000000000000000000000000000000000000000000000000000000000000",
    "0000000000000000000000000000000000000000000000000000000000000000",
    "0000000000000000000000000000000000000000000000000000000000000000",
    "0000000000000000000000000000000000000000000000000000000000000000",
    "0000000000000000000000000000000000000000000000000000000000000000",
    "cleartomark",
    "TeXDict begin 39139632 55387786 1000 600 600 (/tmp/TgifQSEcrq.dvi)",
    "@start /Fa 143[108 112[{}1 172.188 /CMBX12 rf /Fb 190[175",
    "65[{}1 206.559 /CMBX12 rf end",
    "TeXDict begin",
    " end",
    "TeXDict begin 1 0 bop 1806 756 a Fb(A)1981 786 y Fa(p)p",
    "eop end",
    "userdict /end-hook known{end-hook}if"],
    "0040000000e0000000e0000001f0000001700000017000000238000002380000
     063c0000041c0000041c00000ffe077c080e0386180f03031007030330078303
     fc1fe303000003070000038600000378000003000000030000000300000007c0",[
])
],
"eq4",1302,0,0,0,0,[
attr("footer=", "", 0, 1, 1,
text('#ff00ff',351,-44,3,0,1,126,48,1305,13,3,0,0,0,0,2,126,48,0,0,"",0,0,0,0,-31,'',[
minilines(126,48,0,0,0,0,0,[
mini_line(63,13,3,0,0,0,[
str_block(0,63,13,3,0,-1,0,0,0,[
str_seg('#0000ff','Courier',0,80640,63,13,3,0,-1,0,0,0,0,0,
	"footer=")])
]),
mini_line(9,13,3,0,0,0,[
str_block(0,9,13,3,0,-1,0,0,0,[
str_seg('#0000ff','Courier',0,80640,9,13,3,0,-1,0,0,0,0,0,
	"%")])
]),
mini_line(126,13,3,0,0,0,[
str_block(0,126,13,3,0,-4,0,0,0,[
str_seg('#0000ff','Courier',0,80640,126,13,3,0,-4,0,0,0,0,0,
	"\\end{document}")])
])
])])),
attr("header=", "", 0, 1, 1,
text('#ff00ff',527,-44,11,0,1,270,176,1306,13,3,0,0,0,0,2,270,176,0,0,"",0,0,0,0,-31,'',[
minilines(270,176,0,0,0,0,0,[
mini_line(63,13,3,0,0,0,[
str_block(0,63,13,3,0,-1,0,0,0,[
str_seg('#0000ff','Courier',0,80640,63,13,3,0,-1,0,0,0,0,0,
	"header=")])
]),
mini_line(261,13,3,0,0,0,[
str_block(0,261,13,3,0,-4,0,0,0,[
str_seg('#0000ff','Courier',0,80640,261,13,3,0,-4,0,0,0,0,0,
	"\\documentstyle[12pt]{article}")])
]),
mini_line(162,13,3,0,0,0,[
str_block(0,162,13,3,0,-1,0,0,0,[
str_seg('#0000ff','Courier',0,80640,162,13,3,0,-1,0,0,0,0,0,
	"\\oddsidemargin=0in")])
]),
mini_line(144,13,3,0,0,0,[
str_block(0,144,13,3,0,-1,0,0,0,[
str_seg('#0000ff','Courier',0,80640,144,13,3,0,-1,0,0,0,0,0,
	"\\textwidth=6.5in")])
]),
mini_line(126,13,3,0,0,0,[
str_block(0,126,13,3,0,-1,0,0,0,[
str_seg('#0000ff','Courier',0,80640,126,13,3,0,-1,0,0,0,0,0,
	"\\topmargin=0in")])
]),
mini_line(153,13,3,0,0,0,[
str_block(0,153,13,3,0,-2,0,0,0,[
str_seg('#0000ff','Courier',0,80640,153,13,3,0,-2,0,0,0,0,0,
	"\\textheight=609pt")])
]),
mini_line(117,13,3,0,0,0,[
str_block(0,117,13,3,0,-2,0,0,0,[
str_seg('#0000ff','Courier',0,80640,117,13,3,0,-2,0,0,0,0,0,
	"\\parskip=14pt")])
]),
mini_line(270,13,3,0,0,0,[
str_block(0,270,13,3,0,-4,0,0,0,[
str_seg('#0000ff','Courier',0,80640,270,13,3,0,-4,0,0,0,0,0,
	"\\setlength{\\unitlength}{0.5cm}")])
]),
mini_line(153,13,3,0,0,0,[
str_block(0,153,13,3,0,-4,0,0,0,[
str_seg('#0000ff','Courier',0,80640,153,13,3,0,-4,0,0,0,0,0,
	"\\pagestyle{empty}")])
]),
mini_line(144,13,3,0,0,0,[
str_block(0,144,13,3,0,-4,0,0,0,[
str_seg('#0000ff','Courier',0,80640,144,13,3,0,-4,0,0,0,0,0,
	"\\begin{document}")])
]),
mini_line(9,13,3,0,0,0,[
str_block(0,9,13,3,0,-1,0,0,0,[
str_seg('#0000ff','Courier',0,80640,9,13,3,0,-1,0,0,0,0,0,
	"%")])
])
])])),
attr("exec=", "", 0, 1, 1,
text('blue',351,-295,9,0,1,477,144,1307,13,3,0,0,0,0,2,477,144,0,0,"",0,0,0,0,-282,'',[
minilines(477,144,0,0,0,0,0,[
mini_line(45,13,3,0,0,0,[
str_block(0,45,13,3,0,-1,0,0,0,[
str_seg('blue','Courier',0,80640,45,13,3,0,-1,0,0,0,0,0,
	"exec=")])
]),
mini_line(378,13,3,0,0,0,[
str_block(0,378,13,3,0,-4,0,0,0,[
str_seg('blue','Courier',0,80640,378,13,3,0,-4,0,0,0,0,0,
	"    mktemp(\"/tmp/TgifXXXXXX\",\"file_name\");")])
]),
mini_line(468,13,3,0,0,0,[
str_block(0,468,13,3,0,-4,0,0,0,[
str_seg('blue','Courier',0,80640,468,13,3,0,-4,0,0,0,0,0,
	"    write_attr_into_file(header,\"$(file_name).tex\");")])
]),
mini_line(441,13,3,0,0,0,[
str_block(0,441,13,3,0,-4,0,0,0,[
str_seg('blue','Courier',0,80640,441,13,3,0,-4,0,0,0,0,0,
	"    append_attr_into_file(eq,\"$(file_name).tex\");")])
]),
mini_line(477,13,3,0,0,0,[
str_block(0,477,13,3,0,-4,0,0,0,[
str_seg('blue','Courier',0,80640,477,13,3,0,-4,0,0,0,0,0,
	"    append_attr_into_file(footer,\"$(file_name).tex\");")])
]),
mini_line(162,13,3,0,0,0,[
str_block(0,162,13,3,0,-4,0,0,0,[
str_seg('blue','Courier',0,80640,162,13,3,0,-4,0,0,0,0,0,
	"    launch(\"cmd\");")])
]),
mini_line(477,13,3,0,0,0,[
str_block(0,477,13,3,0,-4,0,0,0,[
str_seg('blue','Courier',0,80640,477,13,3,0,-4,0,0,0,0,0,
	"    pstoepsi(\"$(file_name).eps\",\"$(file_name).ps\",1);")])
]),
mini_line(369,13,3,0,0,0,[
str_block(0,369,13,3,0,-4,0,0,0,[
str_seg('blue','Courier',0,80640,369,13,3,0,-4,0,0,0,0,0,
	"    update_eps_child(\"$(file_name).eps\");")])
]),
mini_line(189,13,3,0,0,0,[
str_block(0,189,13,3,0,-4,0,0,0,[
str_seg('blue','Courier',0,80640,189,13,3,0,-4,0,0,0,0,0,
	"    launch(\"cleanup\")")])
])
])])),
attr("cmd=", "", 0, 1, 1,
text('blue',351,-175,4,0,1,702,64,1308,13,3,0,0,0,0,2,702,64,0,0,"",0,0,0,0,-162,'',[
minilines(702,64,0,0,0,0,0,[
mini_line(36,13,3,0,0,0,[
str_block(0,36,13,3,0,-1,0,0,0,[
str_seg('blue','Courier',0,80640,36,13,3,0,-1,0,0,0,0,0,
	"cmd=")])
]),
mini_line(108,13,3,0,0,0,[
str_block(0,108,13,3,0,-4,0,0,0,[
str_seg('blue','Courier',0,80640,108,13,3,0,-4,0,0,0,0,0,
	"    cd /tmp;")])
]),
mini_line(459,13,3,0,0,0,[
str_block(0,459,13,3,0,-4,0,0,0,[
str_seg('blue','Courier',0,80640,459,13,3,0,-4,0,0,0,0,0,
	"    xterm -geom 40x8+200+400 -e latex $(file_name);")])
]),
mini_line(702,13,3,0,0,0,[
str_block(0,702,13,3,0,-4,0,0,0,[
str_seg('blue','Courier',0,80640,702,13,3,0,-4,0,0,0,0,0,
	"    xterm -geom 40x8+200+400 -e dvips -N -n 1 -o $(file_name).ps $(file_name);")])
])
])])),
attr("cleanup=", "", 0, 1, 1,
text('blue',351,-95,3,0,1,540,48,1309,13,3,0,0,0,0,2,540,48,0,0,"",0,0,0,0,-82,'',[
minilines(540,48,0,0,0,0,0,[
mini_line(72,13,3,0,0,0,[
str_block(0,72,13,3,0,-1,0,0,0,[
str_seg('blue','Courier',0,80640,72,13,3,0,-1,0,0,0,0,0,
	"cleanup=")])
]),
mini_line(540,13,3,0,0,0,[
str_block(0,540,13,3,0,-2,0,0,0,[
str_seg('blue','Courier',0,80640,540,13,3,0,-2,0,0,0,0,0,
	"    rm -f $(file_name).tex $(file_name).aux $(file_name).dvi")])
]),
mini_line(513,13,3,0,0,0,[
str_block(0,513,13,3,0,-2,0,0,0,[
str_seg('blue','Courier',0,80640,513,13,3,0,-2,0,0,0,0,0,
	"        $(file_name).log $(file_name).ps $(file_name).eps")])
])
])])),
attr("file_name=", "/tmp/TgifQSEcrq", 0, 1, 1,
text('blue',351,9,1,0,1,225,16,1310,13,3,0,0,0,0,2,225,16,0,0,"",0,0,0,0,22,'',[
minilines(225,16,0,0,0,0,0,[
mini_line(225,13,3,0,0,0,[
str_block(0,225,13,3,0,-1,0,0,0,[
str_seg('blue','Courier',0,80640,225,13,3,0,-1,0,0,0,0,0,
	"file_name=/tmp/TgifQSEcrq")])
])
])])),
attr("eq=", "", 0, 1, 1,
text('blue',351,25,5,0,1,135,80,1324,13,3,0,0,0,0,2,135,80,0,0,"",0,0,0,0,38,'',[
minilines(135,80,0,0,0,0,0,[
mini_line(27,13,3,0,0,0,[
str_block(0,27,13,3,0,-1,0,0,0,[
str_seg('blue','Courier',0,80640,27,13,3,0,-1,0,0,0,0,0,
	"eq=")])
]),
mini_line(45,13,3,0,0,0,[
str_block(0,45,13,3,0,-1,0,0,0,[
str_seg('blue','Courier',0,80640,45,13,3,0,-1,0,0,0,0,0,
	"\\huge")])
]),
mini_line(18,13,3,0,0,0,[
str_block(0,18,13,3,0,-3,0,0,0,[
str_seg('blue','Courier',0,80640,18,13,3,0,-3,0,0,0,0,0,
	"\\[")])
]),
mini_line(135,13,3,0,0,0,[
str_block(0,135,13,3,0,-4,0,0,0,[
str_seg('blue','Courier',0,80640,135,13,3,0,-4,0,0,0,0,0,
	"   \\mathbf{A_p}")])
]),
mini_line(18,13,3,0,0,0,[
str_block(0,18,13,3,0,-4,0,0,0,[
str_seg('blue','Courier',0,80640,18,13,3,0,-4,0,0,0,0,0,
	"\\]")])
])
])])),
attr("", "not_rigid", 0, 1, 1,
text('blue',351,129,1,0,1,81,16,1312,13,3,0,0,0,0,2,81,16,0,0,"",0,0,0,0,142,'',[
minilines(81,16,0,0,0,0,0,[
mini_line(81,13,3,0,0,0,[
str_block(0,81,13,3,0,-1,0,0,0,[
str_seg('blue','Courier',0,80640,81,13,3,0,-1,0,0,0,0,0,
	"not_rigid")])
])
])]))
]).
icon([
polygon('black','',5,[
	533,297,537,297,537,293,533,293,533,297],0,1,0,0,1349,0,0,0,0,0,'1',0,
    "00",[
]),
xbm('black','',533,293,559,319,1,1395,0,26,26,0,0,1,292000,671000,318000,697000,0,0,1,0,0,0,0,
    "Fri Oct 30 09:32:13 2009","/tmp/TgifEXazwX.eps",143,[
    "%!PS-Adobe-2.0 EPSF-1.2",
    "%!PS (but not EPSF; comments have been disabled)",
    "%DVIPSWebPage: (www.radicaleye.com)",
    "%DVIPSCommandLine: dvips -N -n 1 -o /tmp/TgifEXazwX.ps /tmp/TgifEXazwX",
    "%DVIPSParameters: dpi=600",
    "%DVIPSSource:  TeX output 2009.10.30:0932",
    "%!",
    "/TeXDict 300 dict def TeXDict begin/N{def}def/B{bind def}N/S{exch}N/X{S",
    "N}B/A{dup}B/TR{translate}N/isls false N/vsize 11 72 mul N/hsize 8.5 72",
    "mul N/landplus90{false}def/@rigin{isls{[0 landplus90{1 -1}{-1 1}ifelse 0",
    "0 0]concat}if 72 Resolution div 72 VResolution div neg scale isls{",
    "landplus90{VResolution 72 div vsize mul 0 exch}{Resolution -72 div hsize",
    "mul 0}ifelse TR}if Resolution VResolution vsize -72 div 1 add mul TR[",
    "matrix currentmatrix{A A round sub abs 0.00001 lt{round}if}forall round",
    "exch round exch]setmatrix}N/@landscape{/isls true N}B/@manualfeed{",
    "statusdict/manualfeed true put}B/@copies{/#copies X}B/FMat[1 0 0 -1 0 0]",
    "N/FBB[0 0 0 0]N/nn 0 N/IEn 0 N/ctr 0 N/df-tail{/nn 8 dict N nn begin",
    "/FontType 3 N/FontMatrix fntrx N/FontBBox FBB N string/base X array",
    "/BitMaps X/BuildChar{CharBuilder}N/Encoding IEn N end A{/foo setfont}2",
    "array copy cvx N load 0 nn put/ctr 0 N[}B/sf 0 N/df{/sf 1 N/fntrx FMat N",
    "df-tail}B/dfs{div/sf X/fntrx[sf 0 0 sf neg 0 0]N df-tail}B/E{pop nn A",
    "definefont setfont}B/Cw{Cd A length 5 sub get}B/Ch{Cd A length 4 sub get",
    "}B/Cx{128 Cd A length 3 sub get sub}B/Cy{Cd A length 2 sub get 127 sub}",
    "B/Cdx{Cd A length 1 sub get}B/Ci{Cd A type/stringtype ne{ctr get/ctr ctr",
    "1 add N}if}B/CharBuilder{save 3 1 roll S A/base get 2 index get S",
    "/BitMaps get S get/Cd X pop/ctr 0 N Cdx 0 Cx Cy Ch sub Cx Cw add Cy",
    "setcachedevice Cw Ch true[1 0 0 -1 -.1 Cx sub Cy .1 sub]{Ci}imagemask",
    "restore}B/D{/cc X A type/stringtype ne{]}if nn/base get cc ctr put nn",
    "/BitMaps get S ctr S sf 1 ne{A A length 1 sub A 2 index S get sf div put",
    "}if put/ctr ctr 1 add N}B/I{cc 1 add D}B/bop{userdict/bop-hook known{",
    "bop-hook}if/SI save N @rigin 0 0 moveto/V matrix currentmatrix A 1 get A",
    "mul exch 0 get A mul add .99 lt{/QV}{/RV}ifelse load def pop pop}N/eop{",
    "SI restore userdict/eop-hook known{eop-hook}if showpage}N/@start{",
    "userdict/start-hook known{start-hook}if pop/VResolution X/Resolution X",
    "1000 div/DVImag X/IEn 256 array N 2 string 0 1 255{IEn S A 360 add 36 4",
    "index cvrs cvn put}for pop 65781.76 div/vsize X 65781.76 div/hsize X}N",
    "/p{show}N/RMat[1 0 0 -1 0 0]N/BDot 260 string N/Rx 0 N/Ry 0 N/V{}B/RV/v{",
    "/Ry X/Rx X V}B statusdict begin/product where{pop false[(Display)(NeXT)",
    "(LaserWriter 16/600)]{A length product length le{A length product exch 0",
    "exch getinterval eq{pop true exit}if}{pop}ifelse}forall}{false}ifelse",
    "end{{gsave TR -.1 .1 TR 1 1 scale Rx Ry false RMat{BDot}imagemask",
    "grestore}}{{gsave TR -.1 .1 TR Rx Ry scale 1 1 false RMat{BDot}",
    "imagemask grestore}}ifelse B/QV{gsave newpath transform round exch round",
    "exch itransform moveto Rx 0 rlineto 0 Ry neg rlineto Rx neg 0 rlineto",
    "fill grestore}B/a{moveto}B/delta 0 N/tail{A/delta X 0 rmoveto}B/M{S p",
    "delta add tail}B/b{S p tail}B/c{-4 M}B/d{-3 M}B/e{-2 M}B/f{-1 M}B/g{0 M}",
    "B/h{1 M}B/i{2 M}B/j{3 M}B/k{4 M}B/w{0 rmoveto}B/l{p -4 w}B/m{p -3 w}B/n{",
    "p -2 w}B/o{p -1 w}B/q{p 1 w}B/r{p 2 w}B/s{p 3 w}B/t{p 4 w}B/x{0 S",
    "rmoveto}B/y{3 2 roll p a}B/bos{/SS save N}B/eos{SS restore}B end",
    "%!",
    "TeXDict begin/rf{findfont dup length 1 add dict begin{1 index/FID ne 2",
    "index/UniqueID ne and{def}{pop pop}ifelse}forall[1 index 0 6 -1 roll",
    "exec 0 exch 5 -1 roll VResolution Resolution div mul neg 0 0]FontType 0",
    "ne{/Metrics exch def dict begin Encoding{exch dup type/integertype ne{",
    "pop pop 1 sub dup 0 le{pop}{[}ifelse}{FontMatrix 0 get div Metrics 0 get",
    "div def}ifelse}forall Metrics/Metrics currentdict end def}{{1 index type",
    "/nametype eq{exit}if exch pop}loop}ifelse[2 index currentdict end",
    "definefont 3 -1 roll makefont/setfont cvx]cvx def}def/ObliqueSlant{dup",
    "sin S cos div neg}B/SlantFont{4 index mul add}def/ExtendFont{3 -1 roll",
    "mul exch}def/ReEncodeFont{CharStrings rcheck{/Encoding false def dup[",
    "exch{dup CharStrings exch known not{pop/.notdef/Encoding true def}if}",
    "forall Encoding{]exch pop}{cleartomark}ifelse}if/Encoding exch def}def",
    "end",
    "%!PS-AdobeFont-1.1: CMBX12 1.0",
    "% Copyright (C) 1997 American Mathematical Society. All Rights Reserved.",
    "11 dict begin",
    "/FontInfo 7 dict dup begin",
    "/version (1.0) readonly def",
    "/Notice (Copyright (C) 1997 American Mathematical Society. All Rights Reserved) readonly def",
    "/FullName (CMBX12) readonly def",
    "/FamilyName (Computer Modern) readonly def",
    "/Weight (Bold) readonly def",
    "/ItalicAngle 0 def",
    "/isFixedPitch false def",
    "end readonly def",
    "/FontName /CMBX12 def",
    "/PaintType 0 def",
    "/FontType 1 def",
    "/FontMatrix [0.001 0 0 0.001 0 0] readonly def",
    "/Encoding 256 array",
    "0 1 255 {1 index exch /.notdef put} for",
    "dup 85 /U put",
    "dup 106 /j put",
    "readonly def",
    "/FontBBox{-53 -251 1139 750}readonly def",
    "currentdict end",
    "currentfile eexec",
    "D9D66F633B846A97B686A97E45A3D0AA052A014267B7904EB3C0D3BD0B83D891",
    "016CA6CA4B712ADEB258FAAB9A130EE605E61F77FC1B738ABC7C51CD46EF8171",
    "9098D5FEE67660E69A7AB91B58F29A4D79E57022F783EB0FBBB6D4F4EC35014F",
    "D2DECBA99459A4C59DF0C6EBA150284454E707DC2100C15B76B4C19B84363758",
    "469A6C558785B226332152109871A9883487DD7710949204DDCF837E6A8708B8",
    "2BDBF16FBC7512FAA308A093FE5F0364CD5660F74BEE96790DE35AFA90CCF712",
    "B1805DA88AE375A04D99598EADFC625BDC1F9C315B6CF28C9BD427F32C745C99",
    "AEBE70DAAED49EA45AF94F081934AA47894A370D698ABABDA4215500B190AF26",
    "7FCFB7DDA2BC68605A4EF61ECCA3D61C684B47FFB5887A3BEDE0B4D30E8EBABF",
    "20980C23312618EB0EAF289B2924FF4A334B85D98FD68545FDADB47F991E7390",
    "B10EE86A46A5AF8866C010225024D5E5862D49DEB5D8ECCB95D94283C50A363D",
    "68A49071445610F03CE3600945118A6BC0B3AA4593104E727261C68C4A47F809",
    "D77E4CF27B3681F6B6F3AC498E45361BF9E01FAF5527F5E3CC790D3084674B3E",
    "26296F3E03321B5C555D2458578A89E72D3166A3C5D740B3ABB127CF420C316D",
    "F957873DA04CF0DB25A73574A4DE2E4F2D5D4E8E0B430654CF7F341A1BDB3E26",
    "77C194764EAD58C585F49EF10843FE020F9FDFD9008D660DE50B9BD7A2A87299",
    "BC319E66D781101BB956E30643A19B93C8967E1AE4719F300BFE5866F0D6DA5E",
    "C55E171A24D3B707EFA325D47F473764E99BC8B1108D815CF2ACADFA6C4663E8",
    "30855D673CE98AB78F5F829F7FA226AB57F07B3E7D4E7CE30ED3B7EB0D3035C5",
    "148DA8D9FA34483414FDA8E3DC9E6C479E3EEE9A11A0547FC9085FA4631AD19C",
    "E936E0598E3197207FA7BB6E55CFD5EF72AEC12D9A9675241C7B00AD58FAF645",
    "1297991B5D01701E82228D0313FC7C66B263BC79ACDDF9AAC48A3CBF42B96E38",
    "583E1D059953076D68148DC8B6C9527B3A74CE7DEF788A11531F44120BDF0F61",
    "0B2F3ED94EEBCDE4ACD23834C242AA4314B9EF98E4BE72DB76EBDD0A028CEA9D",
    "B4C38C1F2D24B8FDE686832FE96204552C820E45B6BAF0C3308742AE290D69BA",
    "D6C478E571C9E7625F22D7236D13E0B0450D303E9B3733B2F17DC8B2C823DF75",
    "FB0C848FBC63CD4BB83FE14D767F2FD14C586D570A4A5F751CB0AD7FE8DBE8A7",
    "38760F9F26092FC718CB3E94F2D23CB919F4D11FDB1892C43D7ED4C17C23A0A8",
    "36E9F9DCACF02A7F3A3EAA322548ECC47955550934692F5E7B7C80989A9DE0A9",
    "3DC9919BDE46046438F1F82A963F33E6F88B6635DCD71A8F8F9E75A20D087EC4",
    "BD0A4B42794B16081F929F2487442F9A463B762554843A34EACC39B6E0219F5B",
    "586B9395074DF8572FEFE494AF7933E125011B9D4265F521D0AA2D37F7A6AB04",
    "0E4C00B86DAD62FA6929320A07D4ABA5691E094680A22E2156337C62E15E121B",
    "FCAF14427AF48D8CB538436C833CCF2635393E5D2C8CD666D2F188231D93F756",
    "82D8FF364381AF8CEB55476FAD7D14A1B3A86921A5A850012BBA93218464F6CC",
    "7D49ADC8D0548EEBEC804D7ADEA609B8EADE5B057D781AADDD474912F2562FAF",
    "1366EBD12E7D045837B2ECF19565142B5F9A4284B7F2060738F880F992267794",
    "E21461ADEB40643674935D3E9A0F19F60959B161A2907066B5751259465A921B",
    "C209F19F553362184ECA578AD8BF2F18551E040924F20F527847",
    "0000000000000000000000000000000000000000000000000000000000000000",
    "0000000000000000000000000000000000000000000000000000000000000000",
    "0000000000000000000000000000000000000000000000000000000000000000",
    "0000000000000000000000000000000000000000000000000000000000000000",
    "0000000000000000000000000000000000000000000000000000000000000000",
    "0000000000000000000000000000000000000000000000000000000000000000",
    "0000000000000000000000000000000000000000000000000000000000000000",
    "0000000000000000000000000000000000000000000000000000000000000000",
    "cleartomark",
    "TeXDict begin 39139632 55387786 1000 600 600 (/tmp/TgifEXazwX.dvi)",
    "@start /Fa 149[59 106[{}1 172.188 /CMBX12 rf /Fb 170[179",
    "85[{}1 206.559 /CMBX12 rf end",
    "TeXDict begin",
    " end",
    "TeXDict begin 1 0 bop 1829 756 a Fb(U)2008 804 y Fa(j)p",
    "eop end",
    "userdict /end-hook known{end-hook}if"],
    "ff07e001c008001c008001c008001c008001c008001c008001c008001c0080c1
     c0081c1c0080c1c008001c008000c0181c0e0100c070600c01f800c000000c00
     0000c000000c000000c000000c000000c00000cc00000dc0000070",[
])
],
"eq4",1348,0,0,0,0,[
attr("footer=", "", 0, 1, 1,
text('#ff00ff',533,144,3,0,1,126,48,1351,13,3,0,0,0,0,2,126,48,0,0,"",0,0,0,0,157,'',[
minilines(126,48,0,0,0,0,0,[
mini_line(63,13,3,0,0,0,[
str_block(0,63,13,3,0,-1,0,0,0,[
str_seg('#0000ff','Courier',0,80640,63,13,3,0,-1,0,0,0,0,0,
	"footer=")])
]),
mini_line(9,13,3,0,0,0,[
str_block(0,9,13,3,0,-1,0,0,0,[
str_seg('#0000ff','Courier',0,80640,9,13,3,0,-1,0,0,0,0,0,
	"%")])
]),
mini_line(126,13,3,0,0,0,[
str_block(0,126,13,3,0,-4,0,0,0,[
str_seg('#0000ff','Courier',0,80640,126,13,3,0,-4,0,0,0,0,0,
	"\\end{document}")])
])
])])),
attr("header=", "", 0, 1, 1,
text('#ff00ff',709,144,11,0,1,270,176,1352,13,3,0,0,0,0,2,270,176,0,0,"",0,0,0,0,157,'',[
minilines(270,176,0,0,0,0,0,[
mini_line(63,13,3,0,0,0,[
str_block(0,63,13,3,0,-1,0,0,0,[
str_seg('#0000ff','Courier',0,80640,63,13,3,0,-1,0,0,0,0,0,
	"header=")])
]),
mini_line(261,13,3,0,0,0,[
str_block(0,261,13,3,0,-4,0,0,0,[
str_seg('#0000ff','Courier',0,80640,261,13,3,0,-4,0,0,0,0,0,
	"\\documentstyle[12pt]{article}")])
]),
mini_line(162,13,3,0,0,0,[
str_block(0,162,13,3,0,-1,0,0,0,[
str_seg('#0000ff','Courier',0,80640,162,13,3,0,-1,0,0,0,0,0,
	"\\oddsidemargin=0in")])
]),
mini_line(144,13,3,0,0,0,[
str_block(0,144,13,3,0,-1,0,0,0,[
str_seg('#0000ff','Courier',0,80640,144,13,3,0,-1,0,0,0,0,0,
	"\\textwidth=6.5in")])
]),
mini_line(126,13,3,0,0,0,[
str_block(0,126,13,3,0,-1,0,0,0,[
str_seg('#0000ff','Courier',0,80640,126,13,3,0,-1,0,0,0,0,0,
	"\\topmargin=0in")])
]),
mini_line(153,13,3,0,0,0,[
str_block(0,153,13,3,0,-2,0,0,0,[
str_seg('#0000ff','Courier',0,80640,153,13,3,0,-2,0,0,0,0,0,
	"\\textheight=609pt")])
]),
mini_line(117,13,3,0,0,0,[
str_block(0,117,13,3,0,-2,0,0,0,[
str_seg('#0000ff','Courier',0,80640,117,13,3,0,-2,0,0,0,0,0,
	"\\parskip=14pt")])
]),
mini_line(270,13,3,0,0,0,[
str_block(0,270,13,3,0,-4,0,0,0,[
str_seg('#0000ff','Courier',0,80640,270,13,3,0,-4,0,0,0,0,0,
	"\\setlength{\\unitlength}{0.5cm}")])
]),
mini_line(153,13,3,0,0,0,[
str_block(0,153,13,3,0,-4,0,0,0,[
str_seg('#0000ff','Courier',0,80640,153,13,3,0,-4,0,0,0,0,0,
	"\\pagestyle{empty}")])
]),
mini_line(144,13,3,0,0,0,[
str_block(0,144,13,3,0,-4,0,0,0,[
str_seg('#0000ff','Courier',0,80640,144,13,3,0,-4,0,0,0,0,0,
	"\\begin{document}")])
]),
mini_line(9,13,3,0,0,0,[
str_block(0,9,13,3,0,-1,0,0,0,[
str_seg('#0000ff','Courier',0,80640,9,13,3,0,-1,0,0,0,0,0,
	"%")])
])
])])),
attr("exec=", "", 0, 1, 1,
text('blue',533,-107,9,0,1,477,144,1353,13,3,0,0,0,0,2,477,144,0,0,"",0,0,0,0,-94,'',[
minilines(477,144,0,0,0,0,0,[
mini_line(45,13,3,0,0,0,[
str_block(0,45,13,3,0,-1,0,0,0,[
str_seg('blue','Courier',0,80640,45,13,3,0,-1,0,0,0,0,0,
	"exec=")])
]),
mini_line(378,13,3,0,0,0,[
str_block(0,378,13,3,0,-4,0,0,0,[
str_seg('blue','Courier',0,80640,378,13,3,0,-4,0,0,0,0,0,
	"    mktemp(\"/tmp/TgifXXXXXX\",\"file_name\");")])
]),
mini_line(468,13,3,0,0,0,[
str_block(0,468,13,3,0,-4,0,0,0,[
str_seg('blue','Courier',0,80640,468,13,3,0,-4,0,0,0,0,0,
	"    write_attr_into_file(header,\"$(file_name).tex\");")])
]),
mini_line(441,13,3,0,0,0,[
str_block(0,441,13,3,0,-4,0,0,0,[
str_seg('blue','Courier',0,80640,441,13,3,0,-4,0,0,0,0,0,
	"    append_attr_into_file(eq,\"$(file_name).tex\");")])
]),
mini_line(477,13,3,0,0,0,[
str_block(0,477,13,3,0,-4,0,0,0,[
str_seg('blue','Courier',0,80640,477,13,3,0,-4,0,0,0,0,0,
	"    append_attr_into_file(footer,\"$(file_name).tex\");")])
]),
mini_line(162,13,3,0,0,0,[
str_block(0,162,13,3,0,-4,0,0,0,[
str_seg('blue','Courier',0,80640,162,13,3,0,-4,0,0,0,0,0,
	"    launch(\"cmd\");")])
]),
mini_line(477,13,3,0,0,0,[
str_block(0,477,13,3,0,-4,0,0,0,[
str_seg('blue','Courier',0,80640,477,13,3,0,-4,0,0,0,0,0,
	"    pstoepsi(\"$(file_name).eps\",\"$(file_name).ps\",1);")])
]),
mini_line(369,13,3,0,0,0,[
str_block(0,369,13,3,0,-4,0,0,0,[
str_seg('blue','Courier',0,80640,369,13,3,0,-4,0,0,0,0,0,
	"    update_eps_child(\"$(file_name).eps\");")])
]),
mini_line(189,13,3,0,0,0,[
str_block(0,189,13,3,0,-4,0,0,0,[
str_seg('blue','Courier',0,80640,189,13,3,0,-4,0,0,0,0,0,
	"    launch(\"cleanup\")")])
])
])])),
attr("cmd=", "", 0, 1, 1,
text('blue',533,13,4,0,1,702,64,1354,13,3,0,0,0,0,2,702,64,0,0,"",0,0,0,0,26,'',[
minilines(702,64,0,0,0,0,0,[
mini_line(36,13,3,0,0,0,[
str_block(0,36,13,3,0,-1,0,0,0,[
str_seg('blue','Courier',0,80640,36,13,3,0,-1,0,0,0,0,0,
	"cmd=")])
]),
mini_line(108,13,3,0,0,0,[
str_block(0,108,13,3,0,-4,0,0,0,[
str_seg('blue','Courier',0,80640,108,13,3,0,-4,0,0,0,0,0,
	"    cd /tmp;")])
]),
mini_line(459,13,3,0,0,0,[
str_block(0,459,13,3,0,-4,0,0,0,[
str_seg('blue','Courier',0,80640,459,13,3,0,-4,0,0,0,0,0,
	"    xterm -geom 40x8+200+400 -e latex $(file_name);")])
]),
mini_line(702,13,3,0,0,0,[
str_block(0,702,13,3,0,-4,0,0,0,[
str_seg('blue','Courier',0,80640,702,13,3,0,-4,0,0,0,0,0,
	"    xterm -geom 40x8+200+400 -e dvips -N -n 1 -o $(file_name).ps $(file_name);")])
])
])])),
attr("cleanup=", "", 0, 1, 1,
text('blue',533,93,3,0,1,540,48,1355,13,3,0,0,0,0,2,540,48,0,0,"",0,0,0,0,106,'',[
minilines(540,48,0,0,0,0,0,[
mini_line(72,13,3,0,0,0,[
str_block(0,72,13,3,0,-1,0,0,0,[
str_seg('blue','Courier',0,80640,72,13,3,0,-1,0,0,0,0,0,
	"cleanup=")])
]),
mini_line(540,13,3,0,0,0,[
str_block(0,540,13,3,0,-2,0,0,0,[
str_seg('blue','Courier',0,80640,540,13,3,0,-2,0,0,0,0,0,
	"    rm -f $(file_name).tex $(file_name).aux $(file_name).dvi")])
]),
mini_line(513,13,3,0,0,0,[
str_block(0,513,13,3,0,-2,0,0,0,[
str_seg('blue','Courier',0,80640,513,13,3,0,-2,0,0,0,0,0,
	"        $(file_name).log $(file_name).ps $(file_name).eps")])
])
])])),
attr("file_name=", "/tmp/TgifEXazwX", 0, 1, 1,
text('blue',533,197,1,0,1,225,16,1356,13,3,0,0,0,0,2,225,16,0,0,"",0,0,0,0,210,'',[
minilines(225,16,0,0,0,0,0,[
mini_line(225,13,3,0,0,0,[
str_block(0,225,13,3,0,-1,0,0,0,[
str_seg('blue','Courier',0,80640,225,13,3,0,-1,0,0,0,0,0,
	"file_name=/tmp/TgifEXazwX")])
])
])])),
attr("eq=", "", 0, 1, 1,
text('blue',533,213,5,0,1,135,80,1372,13,3,0,0,0,0,2,135,80,0,0,"",0,0,0,0,226,'',[
minilines(135,80,0,0,0,0,0,[
mini_line(27,13,3,0,0,0,[
str_block(0,27,13,3,0,-1,0,0,0,[
str_seg('blue','Courier',0,80640,27,13,3,0,-1,0,0,0,0,0,
	"eq=")])
]),
mini_line(45,13,3,0,0,0,[
str_block(0,45,13,3,0,-1,0,0,0,[
str_seg('blue','Courier',0,80640,45,13,3,0,-1,0,0,0,0,0,
	"\\huge")])
]),
mini_line(18,13,3,0,0,0,[
str_block(0,18,13,3,0,-3,0,0,0,[
str_seg('blue','Courier',0,80640,18,13,3,0,-3,0,0,0,0,0,
	"\\[")])
]),
mini_line(135,13,3,0,0,0,[
str_block(0,135,13,3,0,-4,0,0,0,[
str_seg('blue','Courier',0,80640,135,13,3,0,-4,0,0,0,0,0,
	"   \\mathbf{U_j}")])
]),
mini_line(18,13,3,0,0,0,[
str_block(0,18,13,3,0,-4,0,0,0,[
str_seg('blue','Courier',0,80640,18,13,3,0,-4,0,0,0,0,0,
	"\\]")])
])
])])),
attr("", "not_rigid", 0, 1, 1,
text('blue',533,317,1,0,1,81,16,1358,13,3,0,0,0,0,2,81,16,0,0,"",0,0,0,0,330,'',[
minilines(81,16,0,0,0,0,0,[
mini_line(81,13,3,0,0,0,[
str_block(0,81,13,3,0,-1,0,0,0,[
str_seg('blue','Courier',0,80640,81,13,3,0,-1,0,0,0,0,0,
	"not_rigid")])
])
])]))
]).
poly('black','',2,[
	526,332,526,283],2,1,1,1359,0,1,0,0,0,0,0,'1',1,0,
    "0","",[
    0,8,3,0,'8','3','0'],[0,8,3,0,'8','3','0'],[
]).
icon([
polygon('black','',5,[
	460,303,464,303,464,299,460,299,460,303],0,1,0,0,1397,0,0,0,0,0,'1',0,
    "00",[
]),
xbm('black','',460,299,485,325,1,1441,0,25,26,0,0,1,293000,671000,318000,697000,0,0,1,0,0,0,0,
    "Fri Oct 30 09:32:44 2009","/tmp/TgifXtiIvU.eps",143,[
    "%!PS-Adobe-2.0 EPSF-1.2",
    "%!PS (but not EPSF; comments have been disabled)",
    "%DVIPSWebPage: (www.radicaleye.com)",
    "%DVIPSCommandLine: dvips -N -n 1 -o /tmp/TgifXtiIvU.ps /tmp/TgifXtiIvU",
    "%DVIPSParameters: dpi=600",
    "%DVIPSSource:  TeX output 2009.10.30:0932",
    "%!",
    "/TeXDict 300 dict def TeXDict begin/N{def}def/B{bind def}N/S{exch}N/X{S",
    "N}B/A{dup}B/TR{translate}N/isls false N/vsize 11 72 mul N/hsize 8.5 72",
    "mul N/landplus90{false}def/@rigin{isls{[0 landplus90{1 -1}{-1 1}ifelse 0",
    "0 0]concat}if 72 Resolution div 72 VResolution div neg scale isls{",
    "landplus90{VResolution 72 div vsize mul 0 exch}{Resolution -72 div hsize",
    "mul 0}ifelse TR}if Resolution VResolution vsize -72 div 1 add mul TR[",
    "matrix currentmatrix{A A round sub abs 0.00001 lt{round}if}forall round",
    "exch round exch]setmatrix}N/@landscape{/isls true N}B/@manualfeed{",
    "statusdict/manualfeed true put}B/@copies{/#copies X}B/FMat[1 0 0 -1 0 0]",
    "N/FBB[0 0 0 0]N/nn 0 N/IEn 0 N/ctr 0 N/df-tail{/nn 8 dict N nn begin",
    "/FontType 3 N/FontMatrix fntrx N/FontBBox FBB N string/base X array",
    "/BitMaps X/BuildChar{CharBuilder}N/Encoding IEn N end A{/foo setfont}2",
    "array copy cvx N load 0 nn put/ctr 0 N[}B/sf 0 N/df{/sf 1 N/fntrx FMat N",
    "df-tail}B/dfs{div/sf X/fntrx[sf 0 0 sf neg 0 0]N df-tail}B/E{pop nn A",
    "definefont setfont}B/Cw{Cd A length 5 sub get}B/Ch{Cd A length 4 sub get",
    "}B/Cx{128 Cd A length 3 sub get sub}B/Cy{Cd A length 2 sub get 127 sub}",
    "B/Cdx{Cd A length 1 sub get}B/Ci{Cd A type/stringtype ne{ctr get/ctr ctr",
    "1 add N}if}B/CharBuilder{save 3 1 roll S A/base get 2 index get S",
    "/BitMaps get S get/Cd X pop/ctr 0 N Cdx 0 Cx Cy Ch sub Cx Cw add Cy",
    "setcachedevice Cw Ch true[1 0 0 -1 -.1 Cx sub Cy .1 sub]{Ci}imagemask",
    "restore}B/D{/cc X A type/stringtype ne{]}if nn/base get cc ctr put nn",
    "/BitMaps get S ctr S sf 1 ne{A A length 1 sub A 2 index S get sf div put",
    "}if put/ctr ctr 1 add N}B/I{cc 1 add D}B/bop{userdict/bop-hook known{",
    "bop-hook}if/SI save N @rigin 0 0 moveto/V matrix currentmatrix A 1 get A",
    "mul exch 0 get A mul add .99 lt{/QV}{/RV}ifelse load def pop pop}N/eop{",
    "SI restore userdict/eop-hook known{eop-hook}if showpage}N/@start{",
    "userdict/start-hook known{start-hook}if pop/VResolution X/Resolution X",
    "1000 div/DVImag X/IEn 256 array N 2 string 0 1 255{IEn S A 360 add 36 4",
    "index cvrs cvn put}for pop 65781.76 div/vsize X 65781.76 div/hsize X}N",
    "/p{show}N/RMat[1 0 0 -1 0 0]N/BDot 260 string N/Rx 0 N/Ry 0 N/V{}B/RV/v{",
    "/Ry X/Rx X V}B statusdict begin/product where{pop false[(Display)(NeXT)",
    "(LaserWriter 16/600)]{A length product length le{A length product exch 0",
    "exch getinterval eq{pop true exit}if}{pop}ifelse}forall}{false}ifelse",
    "end{{gsave TR -.1 .1 TR 1 1 scale Rx Ry false RMat{BDot}imagemask",
    "grestore}}{{gsave TR -.1 .1 TR Rx Ry scale 1 1 false RMat{BDot}",
    "imagemask grestore}}ifelse B/QV{gsave newpath transform round exch round",
    "exch itransform moveto Rx 0 rlineto 0 Ry neg rlineto Rx neg 0 rlineto",
    "fill grestore}B/a{moveto}B/delta 0 N/tail{A/delta X 0 rmoveto}B/M{S p",
    "delta add tail}B/b{S p tail}B/c{-4 M}B/d{-3 M}B/e{-2 M}B/f{-1 M}B/g{0 M}",
    "B/h{1 M}B/i{2 M}B/j{3 M}B/k{4 M}B/w{0 rmoveto}B/l{p -4 w}B/m{p -3 w}B/n{",
    "p -2 w}B/o{p -1 w}B/q{p 1 w}B/r{p 2 w}B/s{p 3 w}B/t{p 4 w}B/x{0 S",
    "rmoveto}B/y{3 2 roll p a}B/bos{/SS save N}B/eos{SS restore}B end",
    "%!",
    "TeXDict begin/rf{findfont dup length 1 add dict begin{1 index/FID ne 2",
    "index/UniqueID ne and{def}{pop pop}ifelse}forall[1 index 0 6 -1 roll",
    "exec 0 exch 5 -1 roll VResolution Resolution div mul neg 0 0]FontType 0",
    "ne{/Metrics exch def dict begin Encoding{exch dup type/integertype ne{",
    "pop pop 1 sub dup 0 le{pop}{[}ifelse}{FontMatrix 0 get div Metrics 0 get",
    "div def}ifelse}forall Metrics/Metrics currentdict end def}{{1 index type",
    "/nametype eq{exit}if exch pop}loop}ifelse[2 index currentdict end",
    "definefont 3 -1 roll makefont/setfont cvx]cvx def}def/ObliqueSlant{dup",
    "sin S cos div neg}B/SlantFont{4 index mul add}def/ExtendFont{3 -1 roll",
    "mul exch}def/ReEncodeFont{CharStrings rcheck{/Encoding false def dup[",
    "exch{dup CharStrings exch known not{pop/.notdef/Encoding true def}if}",
    "forall Encoding{]exch pop}{cleartomark}ifelse}if/Encoding exch def}def",
    "end",
    "%!PS-AdobeFont-1.1: CMBX12 1.0",
    "% Copyright (C) 1997 American Mathematical Society. All Rights Reserved.",
    "11 dict begin",
    "/FontInfo 7 dict dup begin",
    "/version (1.0) readonly def",
    "/Notice (Copyright (C) 1997 American Mathematical Society. All Rights Reserved) readonly def",
    "/FullName (CMBX12) readonly def",
    "/FamilyName (Computer Modern) readonly def",
    "/Weight (Bold) readonly def",
    "/ItalicAngle 0 def",
    "/isFixedPitch false def",
    "end readonly def",
    "/FontName /CMBX12 def",
    "/PaintType 0 def",
    "/FontType 1 def",
    "/FontMatrix [0.001 0 0 0.001 0 0] readonly def",
    "/Encoding 256 array",
    "0 1 255 {1 index exch /.notdef put} for",
    "dup 65 /A put",
    "dup 106 /j put",
    "readonly def",
    "/FontBBox{-53 -251 1139 750}readonly def",
    "currentdict end",
    "currentfile eexec",
    "D9D66F633B846A97B686A97E45A3D0AA052A014267B7904EB3C0D3BD0B83D891",
    "016CA6CA4B712ADEB258FAAB9A130EE605E61F77FC1B738ABC7C51CD46EF8171",
    "9098D5FEE67660E69A7AB91B58F29A4D79E57022F783EB0FBBB6D4F4EC35014F",
    "D2DECBA99459A4C59DF0C6EBA150284454E707DC2100C15B76B4C19B84363758",
    "469A6C558785B226332152109871A9883487DD7710949204DDCF837E6A8708B8",
    "2BDBF16FBC7512FAA308A093FE5F0364CD5660F74BEE96790DE35AFA90CCF712",
    "B1805DA88AE375A04D99598EADFC625BDC1F9C315B6CF28C9BD427F32C745C99",
    "AEBE70DAAED49EA45AF94F081934AA47894A370D698ABABDA4215500B190AF26",
    "7FCFB7DDA2BC68605A4EF61ECCA3D61C684B47FFB5887A3BEDE0B4D30E8EBABF",
    "20980C23312618EB0EAF289B2924FF4A334B85D98FD68545FDADB47F991E7390",
    "B10EE86A46A5AF8866C010225024D5E5862D49DEB5D8ECCB95D94283C50A363D",
    "68A49071445610F03CE3600945118A6BC0B3AA4593104E727261C68C4A47F809",
    "D77E4CF27B3681F6B6F3AC498E45361BF9E01FAF5527F5E3CC790D3084674B3E",
    "26296F3E03321B5C555D2458578A89E72D3166A3C5D740B3ABB127CF420C316D",
    "F957873DA04CF0DB25A73574A4DE2E4F2D5D4E8E0B430654CF7F341A1BDB3E26",
    "77C194764EAD58C585F49EF10843FE020F9FDFD9008D660DE50B9BD7A2A87299",
    "BC319E66D781101BB956E30643A19B93C8967E1AE4719F300BFE5866F0D6DA5E",
    "C55E171A24D3B707EFA325D47F473764E99BC8B1108D815CF2ACADFA6C4663E8",
    "30855D673CE98AB78F5F829F7FA226AB57F07B3E7D4E7CE30ED3B7EB0D3035C5",
    "148DA8D9FA34483414FDA8E3DC9E6C479E3EEE9A11A0547FC9085FA4631AD19C",
    "E936E0598E3197207FA7BB6E55CFD5EF72AEC12D9A9675241C7B00AD58FAF645",
    "1297991B5D01701E82228D0313FC7C66B263BC79ACDDF9AAC48A3CBF42B96E38",
    "583E1D059953076D68148DC8B6C9527B3A74CE7DEF788A11531F44120BDF0F61",
    "0B2F3ED94EEBCDE4ACD23834C242AA4314B9EF98E4BE72DB76EBDD0A028CEA9D",
    "B4C38C1F2D24B8FDE686832FE96204552C820E45B6BAF0C3308742AE290D69BA",
    "D6C478E571C9E7625F22D7236D13F491B4F151F33F5224A7B63C1435919F111B",
    "6A141A5B6860716148EF8BF8EA89E3C94F898E8B1A75E68240FA0F06E932D5E8",
    "0AE625617B3C9D2ADB781D0CD4F9FB147641DAC1E985495AA7512B9B03C735DE",
    "5D68185D7003AD93FFC38449E674FEFB2B39469FBC1BB5D5610B99E4A268D949",
    "43E177296814132FC4F14F5B0EE184F2A1F334EBA5CAF49BDB08F6EDA402F80F",
    "794A373FFBB95BF8FA2C33747B3083FB417ACEF82B6FC989029463DD499B7162",
    "3F073AD42956A5FE32F624D59CD53E747E6DC62414853EE4E2833E7F8A736011",
    "B5A1E029C47EFBE25FEF61ADC3C8F5EA5E3A2CE465AC44EC40E46132386A2A82",
    "9B80BA0C09EEAA8E0EE27CC713EBF9051044EF9B20240664E9985E723C47092E",
    "A3BC66C4FE16EC533B05D4B34B5BDFF0FAB52E9101E8D36E34D0C315020536AF",
    "8B2B8462E440E22205C8998D70FD7ED12FA066795DE7E8DC79B81C20D51F6A08",
    "71A7E847110A520DC557D9EA740260A6AA7360D084AD7D28FC9820CCCDE8B61A",
    "D2D6158843000E4C1916D69211B0B5D74CE0D02A6E2FC6D00E7C0C5763CE7A37",
    "3C663D3FAFD6C95ACC45EDDB70DE7A0749BE2EC293A7E00791",
    "0000000000000000000000000000000000000000000000000000000000000000",
    "0000000000000000000000000000000000000000000000000000000000000000",
    "0000000000000000000000000000000000000000000000000000000000000000",
    "0000000000000000000000000000000000000000000000000000000000000000",
    "0000000000000000000000000000000000000000000000000000000000000000",
    "0000000000000000000000000000000000000000000000000000000000000000",
    "0000000000000000000000000000000000000000000000000000000000000000",
    "0000000000000000000000000000000000000000000000000000000000000000",
    "cleartomark",
    "TeXDict begin 39139632 55387786 1000 600 600 (/tmp/TgifXtiIvU.dvi)",
    "@start /Fa 149[59 106[{}1 172.188 /CMBX12 rf /Fb 190[175",
    "65[{}1 206.559 /CMBX12 rf end",
    "TeXDict begin",
    " end",
    "TeXDict begin 1 0 bop 1831 756 a Fb(A)2006 804 y Fa(j)p",
    "eop end",
    "userdict /end-hook known{end-hook}if"],
    "004000000e000000e000001f00000170000017000002380000238000063c0180
     41c038041c0180ffe000080e000180f03810070183007818fc1fe18000001800
     000180000018000001800000180000018000019800001b800000e0",[
])
],
"eq4",1396,0,0,0,0,[
attr("footer=", "", 0, 1, 1,
text('#ff00ff',460,150,3,0,1,126,48,1399,13,3,0,0,0,0,2,126,48,0,0,"",0,0,0,0,163,'',[
minilines(126,48,0,0,0,0,0,[
mini_line(63,13,3,0,0,0,[
str_block(0,63,13,3,0,-1,0,0,0,[
str_seg('#0000ff','Courier',0,80640,63,13,3,0,-1,0,0,0,0,0,
	"footer=")])
]),
mini_line(9,13,3,0,0,0,[
str_block(0,9,13,3,0,-1,0,0,0,[
str_seg('#0000ff','Courier',0,80640,9,13,3,0,-1,0,0,0,0,0,
	"%")])
]),
mini_line(126,13,3,0,0,0,[
str_block(0,126,13,3,0,-4,0,0,0,[
str_seg('#0000ff','Courier',0,80640,126,13,3,0,-4,0,0,0,0,0,
	"\\end{document}")])
])
])])),
attr("header=", "", 0, 1, 1,
text('#ff00ff',636,150,11,0,1,270,176,1400,13,3,0,0,0,0,2,270,176,0,0,"",0,0,0,0,163,'',[
minilines(270,176,0,0,0,0,0,[
mini_line(63,13,3,0,0,0,[
str_block(0,63,13,3,0,-1,0,0,0,[
str_seg('#0000ff','Courier',0,80640,63,13,3,0,-1,0,0,0,0,0,
	"header=")])
]),
mini_line(261,13,3,0,0,0,[
str_block(0,261,13,3,0,-4,0,0,0,[
str_seg('#0000ff','Courier',0,80640,261,13,3,0,-4,0,0,0,0,0,
	"\\documentstyle[12pt]{article}")])
]),
mini_line(162,13,3,0,0,0,[
str_block(0,162,13,3,0,-1,0,0,0,[
str_seg('#0000ff','Courier',0,80640,162,13,3,0,-1,0,0,0,0,0,
	"\\oddsidemargin=0in")])
]),
mini_line(144,13,3,0,0,0,[
str_block(0,144,13,3,0,-1,0,0,0,[
str_seg('#0000ff','Courier',0,80640,144,13,3,0,-1,0,0,0,0,0,
	"\\textwidth=6.5in")])
]),
mini_line(126,13,3,0,0,0,[
str_block(0,126,13,3,0,-1,0,0,0,[
str_seg('#0000ff','Courier',0,80640,126,13,3,0,-1,0,0,0,0,0,
	"\\topmargin=0in")])
]),
mini_line(153,13,3,0,0,0,[
str_block(0,153,13,3,0,-2,0,0,0,[
str_seg('#0000ff','Courier',0,80640,153,13,3,0,-2,0,0,0,0,0,
	"\\textheight=609pt")])
]),
mini_line(117,13,3,0,0,0,[
str_block(0,117,13,3,0,-2,0,0,0,[
str_seg('#0000ff','Courier',0,80640,117,13,3,0,-2,0,0,0,0,0,
	"\\parskip=14pt")])
]),
mini_line(270,13,3,0,0,0,[
str_block(0,270,13,3,0,-4,0,0,0,[
str_seg('#0000ff','Courier',0,80640,270,13,3,0,-4,0,0,0,0,0,
	"\\setlength{\\unitlength}{0.5cm}")])
]),
mini_line(153,13,3,0,0,0,[
str_block(0,153,13,3,0,-4,0,0,0,[
str_seg('#0000ff','Courier',0,80640,153,13,3,0,-4,0,0,0,0,0,
	"\\pagestyle{empty}")])
]),
mini_line(144,13,3,0,0,0,[
str_block(0,144,13,3,0,-4,0,0,0,[
str_seg('#0000ff','Courier',0,80640,144,13,3,0,-4,0,0,0,0,0,
	"\\begin{document}")])
]),
mini_line(9,13,3,0,0,0,[
str_block(0,9,13,3,0,-1,0,0,0,[
str_seg('#0000ff','Courier',0,80640,9,13,3,0,-1,0,0,0,0,0,
	"%")])
])
])])),
attr("exec=", "", 0, 1, 1,
text('blue',460,-101,9,0,1,477,144,1401,13,3,0,0,0,0,2,477,144,0,0,"",0,0,0,0,-88,'',[
minilines(477,144,0,0,0,0,0,[
mini_line(45,13,3,0,0,0,[
str_block(0,45,13,3,0,-1,0,0,0,[
str_seg('blue','Courier',0,80640,45,13,3,0,-1,0,0,0,0,0,
	"exec=")])
]),
mini_line(378,13,3,0,0,0,[
str_block(0,378,13,3,0,-4,0,0,0,[
str_seg('blue','Courier',0,80640,378,13,3,0,-4,0,0,0,0,0,
	"    mktemp(\"/tmp/TgifXXXXXX\",\"file_name\");")])
]),
mini_line(468,13,3,0,0,0,[
str_block(0,468,13,3,0,-4,0,0,0,[
str_seg('blue','Courier',0,80640,468,13,3,0,-4,0,0,0,0,0,
	"    write_attr_into_file(header,\"$(file_name).tex\");")])
]),
mini_line(441,13,3,0,0,0,[
str_block(0,441,13,3,0,-4,0,0,0,[
str_seg('blue','Courier',0,80640,441,13,3,0,-4,0,0,0,0,0,
	"    append_attr_into_file(eq,\"$(file_name).tex\");")])
]),
mini_line(477,13,3,0,0,0,[
str_block(0,477,13,3,0,-4,0,0,0,[
str_seg('blue','Courier',0,80640,477,13,3,0,-4,0,0,0,0,0,
	"    append_attr_into_file(footer,\"$(file_name).tex\");")])
]),
mini_line(162,13,3,0,0,0,[
str_block(0,162,13,3,0,-4,0,0,0,[
str_seg('blue','Courier',0,80640,162,13,3,0,-4,0,0,0,0,0,
	"    launch(\"cmd\");")])
]),
mini_line(477,13,3,0,0,0,[
str_block(0,477,13,3,0,-4,0,0,0,[
str_seg('blue','Courier',0,80640,477,13,3,0,-4,0,0,0,0,0,
	"    pstoepsi(\"$(file_name).eps\",\"$(file_name).ps\",1);")])
]),
mini_line(369,13,3,0,0,0,[
str_block(0,369,13,3,0,-4,0,0,0,[
str_seg('blue','Courier',0,80640,369,13,3,0,-4,0,0,0,0,0,
	"    update_eps_child(\"$(file_name).eps\");")])
]),
mini_line(189,13,3,0,0,0,[
str_block(0,189,13,3,0,-4,0,0,0,[
str_seg('blue','Courier',0,80640,189,13,3,0,-4,0,0,0,0,0,
	"    launch(\"cleanup\")")])
])
])])),
attr("cmd=", "", 0, 1, 1,
text('blue',460,19,4,0,1,702,64,1402,13,3,0,0,0,0,2,702,64,0,0,"",0,0,0,0,32,'',[
minilines(702,64,0,0,0,0,0,[
mini_line(36,13,3,0,0,0,[
str_block(0,36,13,3,0,-1,0,0,0,[
str_seg('blue','Courier',0,80640,36,13,3,0,-1,0,0,0,0,0,
	"cmd=")])
]),
mini_line(108,13,3,0,0,0,[
str_block(0,108,13,3,0,-4,0,0,0,[
str_seg('blue','Courier',0,80640,108,13,3,0,-4,0,0,0,0,0,
	"    cd /tmp;")])
]),
mini_line(459,13,3,0,0,0,[
str_block(0,459,13,3,0,-4,0,0,0,[
str_seg('blue','Courier',0,80640,459,13,3,0,-4,0,0,0,0,0,
	"    xterm -geom 40x8+200+400 -e latex $(file_name);")])
]),
mini_line(702,13,3,0,0,0,[
str_block(0,702,13,3,0,-4,0,0,0,[
str_seg('blue','Courier',0,80640,702,13,3,0,-4,0,0,0,0,0,
	"    xterm -geom 40x8+200+400 -e dvips -N -n 1 -o $(file_name).ps $(file_name);")])
])
])])),
attr("cleanup=", "", 0, 1, 1,
text('blue',460,99,3,0,1,540,48,1403,13,3,0,0,0,0,2,540,48,0,0,"",0,0,0,0,112,'',[
minilines(540,48,0,0,0,0,0,[
mini_line(72,13,3,0,0,0,[
str_block(0,72,13,3,0,-1,0,0,0,[
str_seg('blue','Courier',0,80640,72,13,3,0,-1,0,0,0,0,0,
	"cleanup=")])
]),
mini_line(540,13,3,0,0,0,[
str_block(0,540,13,3,0,-2,0,0,0,[
str_seg('blue','Courier',0,80640,540,13,3,0,-2,0,0,0,0,0,
	"    rm -f $(file_name).tex $(file_name).aux $(file_name).dvi")])
]),
mini_line(513,13,3,0,0,0,[
str_block(0,513,13,3,0,-2,0,0,0,[
str_seg('blue','Courier',0,80640,513,13,3,0,-2,0,0,0,0,0,
	"        $(file_name).log $(file_name).ps $(file_name).eps")])
])
])])),
attr("file_name=", "/tmp/TgifXtiIvU", 0, 1, 1,
text('blue',460,203,1,0,1,225,16,1404,13,3,0,0,0,0,2,225,16,0,0,"",0,0,0,0,216,'',[
minilines(225,16,0,0,0,0,0,[
mini_line(225,13,3,0,0,0,[
str_block(0,225,13,3,0,-1,0,0,0,[
str_seg('blue','Courier',0,80640,225,13,3,0,-1,0,0,0,0,0,
	"file_name=/tmp/TgifXtiIvU")])
])
])])),
attr("eq=", "", 0, 1, 1,
text('blue',460,219,5,0,1,135,80,1418,13,3,0,0,0,0,2,135,80,0,0,"",0,0,0,0,232,'',[
minilines(135,80,0,0,0,0,0,[
mini_line(27,13,3,0,0,0,[
str_block(0,27,13,3,0,-1,0,0,0,[
str_seg('blue','Courier',0,80640,27,13,3,0,-1,0,0,0,0,0,
	"eq=")])
]),
mini_line(45,13,3,0,0,0,[
str_block(0,45,13,3,0,-1,0,0,0,[
str_seg('blue','Courier',0,80640,45,13,3,0,-1,0,0,0,0,0,
	"\\huge")])
]),
mini_line(18,13,3,0,0,0,[
str_block(0,18,13,3,0,-3,0,0,0,[
str_seg('blue','Courier',0,80640,18,13,3,0,-3,0,0,0,0,0,
	"\\[")])
]),
mini_line(135,13,3,0,0,0,[
str_block(0,135,13,3,0,-4,0,0,0,[
str_seg('blue','Courier',0,80640,135,13,3,0,-4,0,0,0,0,0,
	"   \\mathbf{A_j}")])
]),
mini_line(18,13,3,0,0,0,[
str_block(0,18,13,3,0,-4,0,0,0,[
str_seg('blue','Courier',0,80640,18,13,3,0,-4,0,0,0,0,0,
	"\\]")])
])
])])),
attr("", "not_rigid", 0, 1, 1,
text('blue',460,323,1,0,1,81,16,1406,13,3,0,0,0,0,2,81,16,0,0,"",0,0,0,0,336,'',[
minilines(81,16,0,0,0,0,0,[
mini_line(81,13,3,0,0,0,[
str_block(0,81,13,3,0,-1,0,0,0,[
str_seg('blue','Courier',0,80640,81,13,3,0,-1,0,0,0,0,0,
	"not_rigid")])
])
])]))
]).
