%!PS-Adobe-3.0 EPSF-3.0
%%BoundingBox: 241 356 430 623
%%Title: k=1
%%CreationDate: Tue Dec  7 20:48:01 2010
%%Creator: Tgif-4.2.2-QPL written by William Chia-Wei Cheng (bill.cheng@acm.org)
%%ProducedBy: (unknown)
%%Pages: 1
%%DocumentFonts: (atend)
%%EndComments
%%BeginPreview: 189 267 1 267
% 00000000003fffe000000000000000000000000000000000
% 00000000003fffe000000000000000000000000000000000
% 00000000003fffe000000000000000000000000000000000
% 00000000003fffe000000000000000000000000000000000
% 00000000003fffe000000000000000000000000000000000
% 00000000003fffe000000000000000000000000000000000
% 00000000003fffe000000000000000000000000000000000
% 00000000003fffe000000000000000000000000000000000
% 00000000003fffe000000000000000000000000000000000
% 00000000003fffe000000000000000000000000000000000
% 00000000003fffe000000000000000000000000000000000
% 00000000003fffe000000000000000000000000000000000
% 00000000003fffe000000000000000000000000000000000
% 00000000003fffe000000000000000000000000000000000
% 00000000003fffe000000000000000000000000000000000
% 00000000003fffe000000000000000000000000000000000
% 00000000003fffe000000000000000000000000000000000
% 00000000003fffe000000000000000000000000000000000
% 00000000003fffe000000000000000000000000000000000
% 00000000003fffe000000000000000000000000000000000
% 00000000003fffe000000000000000000000000000000000
% 00000000003fffe000000000000000000000000000000000
% 00000000003fffe000000000000000000000000000000000
% 00000000003fffe000000000000000000000000000000000
% 00000000003fffe000000000000000000000000000000000
% 00000000003fffe000000000000000000000000000000000
% 00000000003fffe000000000000000000000000000000000
% 00000000003fffe000000000000000000000000000000000
% 00000000003fffe000000000000000000000000000000000
% 00000000003fffe000000000000000000000000000000000
% 00000000003fffe000000000000000000000000000000000
% 00000000003fffe000000000000000000000000000000000
% 00000000003fffe000000000000000000000000000000000
% 00000000003fffe000000000000000000000000000000000
% 00000000003fffe000000000000000000000000000000000
% 00000000003fffe000000000000000000000000000000000
% 00000000003fffe000000000000000000000000000000000
% 00000000003fffe000000000000000000000000000000000
% 00000000003fffe000000000000000000000000000000000
% 00000000003fffe000000000000000000000000000000000
% 00000000003fffe000000000000000000000000000000000
% 00000000003fffe000000000000000000000000000000000
% 00000000003fffe000000000000000000000000000000000
% 00000000003fffe000000000000000000000000000000000
% 00000000003fffe000000000000000000000000000000000
% 00000000003fffe000000000000000000000000000000000
% 00000000003fffe000000000000000000000000000000000
% 00000000003fffe000000000000000000000000000000000
% 00000000003fffe000000000000000000000000000000000
% 00000000003fffe000000000000000000000000000000000
% 00000000003fffe000000000000000000000000000000000
% 00000000003fffe000000000000000000000000000000000
% 00000000003fffe000000000000000000000000000000000
% 00000000003fffe000000000000000000000000000000000
% 00000000003fffe000000000000000000000000000000000
% 00000000003fffe000000000000000000000000000000000
% 00000000003fffe000000000000000000000000000000000
% 00000000003fffe000000000000000000000000000000000
% 00000000003fffe000000000000000000000000000000000
% 00000000003fffe000000000000000000000000000000000
% 00000000003fffe000000000000000000000000000000000
% 00000000003fffe000000000000000000000000000000000
% 00000000003fffe000000000000000000000000000000000
% 00000000003fffe000000000000000000000000000000000
% 00000000003fffe000000000000000000000000000000000
% 00000000003fffe000000000000000000000000000000000
% 00000000003fffe000000000000000000000000000000000
% 00000000003fffe000000000000000000000000000000000
% 00000000003fffe000000000000000000000000000000000
% 00000000003fffe000000000000000000000000000000000
% 00000000003fffe000000000000000000000000000000000
% 00000000003fffe000000000000000000000000000000000
% 00000000003fffe000000000000000000000000000000000
% 00000000003fffe000000000000000000000000000000000
% 00000000003fffe000000000000000000000000000000000
% 00000000003fffe000000000000000000000000000000000
% 00000000003fffe000000000000000000000000000000000
% 00000000003fffe000000000000000000000000000000000
% 00000000003fffe000000000000000000000000000000000
% 00000000003fffe000000000000000000000000000000000
% 00000000003fffe000000000000000000000000000000000
% 00000000003fffe000000000000000000000000000000000
% 00000000003fffe000000000000000000000000000000000
% 00000000003fffe000000000000000000000000000000000
% 00000000003fffe000000000000000000000000000000000
% 00000000003fffe000000000000000000000000000000000
% 00000000003fffe000000000000000000000000000000000
% 00000000003fffe000000000000000000000000000000000
% 00000000003fffe000000000000000000000000000000000
% 00000000003fffe000000000000000000000000000000000
% 00000000003fffe000000000000000000000000000000000
% 00000000003fffe000000000000000000000000000000000
% 00000000003fffe000000000000000000000000000000000
% 00000000003fffe000000000000000000000000000000000
% 000007fffffffffffffffffffffffffffffffffffffffff8
% 800007fffffffffffffffffffffffffffffffffffffffff8
% 800007fffffffffffffffffffffffffffffffffffffffff8
% 800007fffffffffffffffffffffffffffffffffffffffff8
% 800007fffffffffffffffffffffffffffffffffffffffff8
% 800007fffffffffffffffffffffffffffffffffffffffff8
% 800007fffffffffffffffffffffffffffffffffffffffff8
% 800000000000000000000000000000000000000000000000
% 000000000000000000000000000000000000000000000000
% 000000000000000000000000000000000000000000000000
% 000000000000000000000000000000000000000000000000
% 000000000000000000000000000000000000000000000000
% 000000000000000000000000000000000000000000000000
% 000000000000000000000000000000000000000000000000
% 000000000000000000000000000000000000000000000000
% 000000000000000000000000000000000000000000000000
% 000000000000000000000000000000000000000000000000
% 000000000000000000000000000000000000000000000000
% 000000000000000000000000000000000000000000000000
% 000000000000000000000000000000000000000000000000
% 000000000000000000000000000000000000000000000000
% 000000000000000000000000000000000000000000000000
% 000000000000000000000000000000000000000000000000
% 000000000000000000000000000000000000000000000000
% 000000000000000000000000000000000000000000000000
% 000000000000000000000000000000000000000000000000
% 000000000000000000000000000000000000000000000000
% 000000000000000000000000000000000000000000000000
% 000000000000000000000000000000000000000000000000
% 000000000000000000000000000000000000000000000000
% 000000000000000000000000000000000000000000000000
% 000000000000000000000000000000000000000000000000
% 000000000000000000000000000000000000000000000000
% 000000000000000000000000000000000000000000000000
% 000000000000000000000000000000000000000000000000
% 000000000000000000000000000000000000000000000000
% 000000000000000000000000000000000000000000000000
% 000000000000000000000000000000000000000000000000
% 000000000000000000000000000000000000000000000000
% 000000000000000000000000000000000000000000000000
% 000000000000000000000000000000000000000000000000
% 000000000000000000000000000000000000000000000000
% 000000000000000000000000000000000000000000000000
% 000000000000000000000000000000000000000000000000
% 000000000000000000000000000000000000000000000000
% 000000000000000000000000000000000000000000000000
% 000000000000000000000000000000000000000000000000
% 000000000000000000000000000000000000000000000000
% 000000000000000000000000000000000000000000000000
% 000000000000000000000000000000000000000000000000
% 000000000000000000000000000000000000000000000000
% 000000000000000000000000000000000000000000000000
% 000000000000000000000000000000000000000000000000
% 000000000000000000000000000000000000000000000000
% 000000000000000000000000000000000000000000000000
% 000000000000000000000000000000000000000000000000
% 000000000000000000000000000000000000000000000000
% 000000000000000000000000000000000000000000000000
% 000000000000000000000000000000000000000000000000
% 000000000000000000000000000000000000000000000000
% 000000000000000000000000000000000000000000000000
% 000000000000000000000000000000000000000000000000
% 000000000000000000000000000000000000000000000000
% 000000000000000000000000000000000000000000000000
% 000000000000000000000000000000000000000000000000
% 000000000000000000000000000000000000000000000000
% 000000000000000000000000000000000000000000000000
% 000000000000000000000000000000000000000000000000
% 000000000000000000000000000000000000000000000000
% 000000000000000000000000000000000000000000000000
% 000000000000000000000000000000000000000000000000
% 000000000000000000000000000000000000000000000000
% 000000000000000000000000000000000000000000000000
% 000000000000000000000000000000000000000000000000
% 000000000000000000000000000000000000000000000000
% 000000000000000000000000000000000000000000000000
% 000000000000000000000000000000000000000000000000
% 000000000000000000000000000000000000000000000000
% 000000000000000000000000000000000000000000000000
% 000000000000000000000000000000000000000000000000
% 000000000000000000000000000000000000000000000000
% 000000000000000000000000000000000000000000000000
% 000000000000000000000000000000000000000000000000
% 000000000000000000000000000000000000000000000000
% 000000000000000000000000000000000000000000000000
% 000000000000000000000000000000000000000000000000
% 000000000000000000000000000000000000000000000000
% 000000000000000000000000000000000000000000000000
% 000000000000000000000000000000000000000000000000
% 000000000000000000000000000000000000000000000000
% 000000000000000000000000000000000000000000000000
% 000000000000000000000000000000000000000000000000
% 000000000000000000000000000000000000000000000000
% 000000000000000000000000000000000000000000000000
% 000000000000000000000000000000000000000000000000
% 000000000000000000000000000000000000000000000000
% 000000000000000000000000000000000000000000000000
% 000000000000000000000000000000000000000000000000
% 000000000000000000000000000000000000000000000000
% 000000000000000000000000000000000000000000000000
% 000000000000000000000000000000000000000000000000
% 000000000000000000000000000000000000000000000000
% 000000000000000000000000000000000000000000000000
% 000000000000000000000000000000000000000000000000
% 000000000000000000000000000000000000000000000000
% 000000000000000000000000000000000000000000000000
% 000000000000000000000000000000000000000000000000
% 000000000000000000000000000000000000000000000000
% 000000000000000000000000000000000000000000000000
% 000000000000000000000000000000000000000000000000
% 000000000000000000000000000000000000000000000000
% 000007fffffffffffffffffffffffffffffffffffffffff8
% 800007fffffffffffffffffffffffffffffffffffffffff8
% 800007fffffffffffffffffffffffffffffffffffffffff8
% 800007fffffffffffffffffffffffffffffffffffffffff8
% 800007fffffffffffffffffffffffffffffffffffffffff8
% 800007fffffffffffffffffffffffffffffffffffffffff8
% 800007fffffffffffffffffffffffffffffffffffffffff8
% 800007fffffffffffffffffffffffffffffffffffffffff8
% 80000ffffffffffffffffffffffffffffffffffffffffff8
% 80000000003fffe000000000000000000000000000000000
% 00000000003fffe000000000000000000000000000000000
% 00000000003fffe000000000000000000000000000000000
% 00000000003fffe000000000000000000000000000000000
% 00000000003fffe000000000000000000000000000000000
% 00000000003fffe000000000000000000000000000000000
% 00000000003fffe000000000000000000000000000000000
% 00000000003fffe000000000000000000000000000000000
% 00000000003fffe000000000000000000000000000000000
% 00000000003fffe000000000000000000000000000000000
% 00000000003fffe000000000000000000000000000000000
% 00000000003fffe000000000000000000000000000000000
% 00000000003fffe000000000000000000000000000000000
% 00000000003fffe000000000000000000000000000000000
% 00000000003fffe000000000000000000000000000000000
% 00000000003fffe000000000000000000000000000000000
% 00000000003fffe000000000000000000000000000000000
% 00000000003fffe000000000000000000000000000000000
% 00000000003fffe000000000000000000000000000000000
% 00000000003fffe000000000000000000000000000000000
% 00000000003fffe000000000000000000000000000000000
% 00000000003fffe000000000000000000000000000000000
% 00000000003fffe000000000000000000000000000000000
% 00000000003fffe000000000000000000000000000000000
% 00000000003fffe000000000000000000000000000000000
% 00000000003fffe000000000000000000000000000000000
% 00000000003fffe000000000000000000000000000000000
% 00000000003fffe000000000000000000000000000000000
% 00000000003fffe000000000000000000000000000000000
% 00000000003fffe000000000000000000000000000000000
% 00000000003fffe000000000000000000000000000000000
% 00000000003fffe000000000000000000000000000000000
% 00000000003fffe000000000000000000000000000000000
% 00000000003fffe000000000000000000000000000000000
% 00000000003fffe000000000000000000000000000000000
% 00000000003fffe000000000000000000000000000000000
% 00000000003fffe000000000000000000000000000000000
% 00000000003fffe000000000000000000000000000000000
% 00000000003fffe000000000000000000000000000000000
% 00000000003fffe000000000000000000000000000000000
% 00000000003fffe000000000000000000000000000000000
% 00000000003fffe000000000000000000000000000000000
% 00000000003fffe000000000000000000000000000000000
% 00000000003fffe000000000000000000000000000000000
% 00000000003fffe000000000000000000000000000000000
% 00000000003fffe000000000000000000000000000000000
% 00000000003fffe000000000000000000000000000000000
% 00000000003fffe000000000000000000000000000000000
% 00000000003fffe000000000000000000000000000000000
% 00000000003fffe000000000000000000000000000000000
% 00000000003fffe000000000000000000000000000000000
% 00000000003fffe000000000000000000000000000000000
% 00000000003fffe000000000000000000000000000000000
%%EndImage
%%EndPreview
%%BeginProlog

/tgifdict 49 dict def
tgifdict begin

/bd { bind def } bind def

/GS { gsave } bd
/GR { grestore } bd
/NP { newpath } bd
/CP { closepath } bd
/CHP { charpath } bd
/CT { curveto } bd
/L { lineto } bd
/RL { rlineto } bd
/M { moveto } bd
/RM { rmoveto } bd
/S { stroke } bd
/F { fill } bd
/TR { translate } bd
/RO { rotate } bd
/SC { scale } bd
/MU { mul } bd
/DI { div } bd
/DU { dup } bd
/NE { neg } bd
/AD { add } bd
/SU { sub } bd
/PO { pop } bd
/EX { exch } bd
/CO { concat } bd
/CL { clip } bd
/EC { eoclip } bd
/EF { eofill } bd
/IM { image } bd
/IMM { imagemask } bd
/ARY { array } bd
/SG { setgray } bd
/RG { setrgbcolor } bd
/SD { setdash } bd
/W { setlinewidth } bd
/SM { setmiterlimit } bd
/SLC { setlinecap } bd
/SLJ { setlinejoin } bd
/SH { show } bd
/FF { findfont } bd
/MS { makefont setfont } bd
/AR { arcto 4 {pop} repeat } bd
/CURP { currentpoint } bd
/FLAT { flattenpath strokepath clip newpath } bd
/TGSM { tgiforigctm setmatrix } def
/TGRM { savematrix setmatrix } def

end

%%EndProlog
%%Page: 1 1

%%PageBoundingBox: 241 356 430 623
tgifdict begin
/tgifsavedpage save def

1 SM
1 W

0 SG

72 0 MU 72 11 MU TR
72 128 DI 100.000 MU 100 DI DU NE SC

GS

/tgiforigctm matrix currentmatrix def

% BOX
0.675 0.682 0.675 RG
NP 504 303 M 533 303 L 533 772 L 504 772 L CP F
GS
   10 SM
   GS
      NP 504 303 M 533 303 L 533 772 L 504 772 L CP
      S
   GR
GR

% POLY/OPEN-SPLINE
0.675 0.682 0.675 RG
NP
   466 468 M
   762 468 L
   762 479 L
   467 479 L
   466 664 L
   763 664 L
   763 678 L
   465 678 L
CP EF
GS
   NP
      466 468 M
      762 468 L
      762 479 L
      467 479 L
      466 664 L
      763 664 L
      763 678 L
      465 678 L
   TGSM
   1 W
   S
GR

% BOX
1 SG
NP 432 480 M 560 480 L 560 663 L 432 663 L CP F
GS
   10 SM
   GS
      NP 432 480 M 560 480 L 560 663 L 432 663 L CP
      S
   GR
GR

GR
tgifsavedpage restore
end
showpage

%%Trailer
%MatchingCreationDate: Tue Dec  7 20:48:01 2010
%%DocumentFonts: 
%%EOF
