%!PS-Adobe-3.0 EPSF-3.0
%%BoundingBox: 94 542 340 710
%%Title: tankUnsymeterical
%%CreationDate: Thu Feb  4 15:42:26 2010
%%Creator: Tgif-4.1.45-QPL written by William Chia-Wei Cheng (bill.cheng@acm.org)
%%ProducedBy: (unknown)
%%Pages: 1
%%DocumentFonts: (atend)
%%EndComments
%%BeginPreview: 246 168 1 168
% 00000000000000000000000000000000000000000000000000000000000000
% 0000000000000000000000000fc00000000000000000000000000000000000
% 000000000000000000000000f43c0000000000000000000000000000000000
% 000000000000000000000001e00f0000000000000000000000000000000000
% 00000000000000000000001e0000f800000000000000000000000000000000
% 0000000000000000000000f004000f80000000000000000000000000000000
% 000000000000000000000f0004000078000000000000000000000000000000
% 000000000000000000001e000400003e000000000000000000000000000000
% 00000000000000000001e00000000001e00000000000000000000000000000
% 0000000000000000000f0000000000001e0000000000000000000000000000
% 000000000000000000f000000400000001e000000000000000000000000000
% 000000000000000001e0000004000000007c00000000000000000000000000
% 00000000000000001e000000000000000003c0000000000000000000000000
% 0000000000000000f00000000000000000003c000000000000000000000000
% 000000000000000f0000000004000000000003c00000000000000000000000
% 000000000000001e0000000004000000000000f00000000000000000000000
% 00000000000001e000000000040000000000000f0000000000000000000000
% 0000000000000f00000000000000000000000000f800000000000000000000
% 00000000000070000000000000000000000000000780000000000000000000
% 000000000001e00000000000040000000000000001e0000000000000000000
% 00000000001e0000000000000400000000000000001e000000000000000000
% 0000000000f000000000000000000000000000000001f00000000000000000
% 000000000780000000000000000000000000000000000f0000000000000000
% 000000001e000000000000000000000000000000000007c000000000000000
% 00000001e00000000000000004000000000000000000003c00000000000000
% 0000000f0000000000000000040000000000000000000003e0000000000000
% 0000007800000000000000000000000000000000000000001c000000000000
% 000001e000000000000000000300000000000000000000000f800000000000
% 00000f0000000000000000001ff00000000000000000000000780000000000
% 0000f0000000000000000001ffff0000000000000000000000078000000000
% 00078000000000000000000ffffff000000000000000000000007800000000
% 001e0000000000000000003ffffffc00000000000000000000001f00000000
% 00f0000000000000000001ffffffffc00000000000000000000000f0000000
% 0f0000000000000000001ffffffffffc00000000000000000000000f000000
% 78000000000000000000ffffffffffffc00000000000000000000001f00000
% 60000000000000000003fffffffffffff000000000000000000000003c0000
% f800000000000000001fffffffffffffff000000000000000000000003c000
% 87c000000000000001fffffffffffffffff800000000000000000000003e00
% 807c0000000000000fffffffffffffffffff80000000000000000000000600
% 800f0000000000003fffffffffffffffffffc0000000000000000000001e00
% 8000f80000000001fffffffffffffffffffffc00000000000000000000f400
% 80000f800000001fffffffffffffffffffffffe00000000000000000078400
% 80000078000000fffffffffffffffffffffffffe0000000000000000780400
% 8000000780000fffffffffffffffffffffffffffe000000000000003c00400
% 80000001e0001ffffffffffffffffffffffffffff00000000000000f000400
% 800000001f01ffffffffffffffffffffffffffffff80000000000078000400
% 8000000001fffffffffffffffffffffffffffffffff8000000000780000400
% 80000000007fffffffffffffffffffffffffffffffff800000003c00000400
% 8000000001ffffffffffffffffffffffffffffffffffe0000000f000000400
% 800000001ffffffffffffffffffffffffffffffffffffe0000078000000400
% 80000000ffffffffffffffffffffffffffffffffffffffe000780000000400
% 80000007fffffffffffffffffffffffffffffffffffffffe03c00000000400
% 8000001fffffffffffffffffffffffffffffffffffffffff8f000000000400
% 800000fffffffffffffffffffffffffffffffffffffffffff8000000000400
% 80000fffffffffffffffffffffffffffffffffffffffffffff800000000400
% 80007ffffffffffffffffffffffffffffffffffffffffffffff80000000400
% 8001fffffffffffffffffffffffffffffffffffffffffffffffe0000000400
% 800fffffffffffffffffffffffffffffffffffffffffffffffffe000000400
% 80ffffffffffffffffffffffffffffffffffffffffffffffffffff00000400
% 87fffffffffffffffffffffffffffffffffffffffffffffffffffff0000400
% 9ffffffffffffffffffffffffffffffffffffffffffffffffffffff8000400
% ffffffffffffffffffffffffffffffffffffffffffffffffffffffff800400
% bffffffffffffffffffffffffffffffffffffffffffffffffffffffffc0400
% bfffffffffffffffffffffffffffffffffffffffffffffffffffffffffc400
% bfffffffffffffffffffffffffffffffffffffffffffffffffffffffffe400
% bffffffffffffffffffffffffffffffffffffffffffffffffffffffffffe00
% bffffffffffffffffffffffffffffffffffffffffffffffffffffffffffc00
% bffffffffffffffffffffffffffffffffffffffffffffffffffffffffffc00
% bffffffffffffffffffffffffffffffffffffffffffffffffffffffffffc00
% bffffffffffffffffffffffffffffffffffffffffffffffffffffffffffc00
% bffffffffffffffffffffffffffffffffffffffffffffffffffffffffffc00
% bffffffffffffffffffffffffffffffffffffffffffffffffffffffffffc00
% bffffffffffffffffffffffffffffffffffffffffffffffffffffffffffc00
% bffffffffffffffffffffffffffffffffffffffffffffffffffffffffffc00
% bffffffffffffffffffffffffffffffffffffffffffffffffffffffffffc00
% bffffffffffffffffffffffffffffffffffffffffffffffffffffffffffc00
% bffffffffffffffffffffffffffffffffffffffffffffffffffffffffffc00
% bffffffffffffffffffffffffffffffffffffffffffffffffffffffffffc00
% bffffffffffffffffffffffffffffffffffffffffffffffffffffffffffc00
% bffffffffffffffffffffffffffffffffffffffffffffffffffffffffffc00
% bffffffffffffffffffffffffffffffffffffffffffffffffffffffffffc00
% bffffffffffffffffffffffffffffffffffffffffffffffffffffffffffc00
% bffffffffffffffffffffffffffffffffffffffffffffffffffffffffffc00
% bffffffffffffffffffffffffffffffffffffffffffffffffffffffffffc00
% bffffffffffffffffffffffffffffffffffffffffffffffffffffffffffc00
% bffffffffffffffffffffffffffffffffffffffffffffffffffffffffffc00
% bffffffffffffffffffffffffffffffffffffffffffffffffffffffffffc00
% bffffffffffffffffffffffffffffffffffffffffffffffffffffffffffc00
% bffffffffffffffffffffffffffffffffffffffffffffffffffffffffffc00
% bffffffffffffffffffffffffffffffffffffffffffffffffffffffffffc00
% bffffffffffffffffffffffffffffffffffffffffffffffffffffffffffc00
% bffffffffffffffffffffffffffffffffffffffffffffffffffffffffffc00
% bffffffffffffffffffffffffffffffffffffffffffffffffffffffffffc00
% bffffffffffffffffffffffffffffffffffffffffffffffffffffffffffc00
% bffffffffffffffffffffffffffffffffffffffffffffffffffffffffffc00
% bffffffffffffffffffffffffffffffffffffffffffffffffffffffffffc00
% bffffffffffffffffffffffffffffffffffffffffffffffffffffffffffc00
% bffffffffffffffffffffffffffffffffffffffffffffffffffffffffffc00
% bffffffffffffffffffffffffffffffffffffffffffffffffffffffffffc00
% bffffffffffffffffffffffffffffffffffffffffffffffffffffffffffc00
% bffffffffffffffffffffffffffffffffffffffffffffffffffffffffffc00
% bffffffffffffffffffffffffffffffffffffffffffffffffffffffffffc00
% bffffffffffffffffdfffffffffffffffffffffffffffffffffffffffffc00
% bffffffffffffffffffffffffffffffffffffffffffffffffffffffffffc00
% bffffffffffffffffffffffffffffffffffffffffffffffffffffffffffc00
% bffffffffffffffdfffffffffffffffffffffffffffffffffffffffffffc00
% bffffffffffffffffffffffffffffffffffffffffffffffffffffffffffc00
% bffffffffffffffffffffffffffffffffffffffffffffffffffffffffffc00
% bfffffffffffeffffffffffffffffffffffffffffffffffffffffffffffc00
% bffffffffffffffffffffffffffffffffffffffffffffffffffffffffffc00
% bffffffffffffffffffffffffffffffffffffffffffffffffffffffffffc00
% bfffffffffe7fffffffffffffffffffffffffffffffffffffffffffffffc00
% bffffffffffffffffffffffffffffffffffffffffffffffffffffffffffc00
% bffffffffffffffffffffffffffffffffffffffffffffffffffffffffffc00
% bfffffffcffffffffffffffffffffffffffffffffffffffffffffffffffc00
% bffffffffffffffffffffffffffffffffffffffffffffffffffffffffffc00
% bfffffeffffffffffffffffffffffffffffffffffffffffffffffffffffc00
% bfffffcffffffffffffffffffffffffffffffffffffffffffffffffffffc00
% bffffffffffffffffffffffffffffffffffffffffffffffffffffffffffc00
% bfffcffffffffffffffffffffffffffffffffffffffffffffffffffffffc00
% bffebffffffffffffffffffffffffffffffffffffffffffffffffffffffc00
% bffbfffffffffffffffffffffffffffffffffffffffffffffffffffffffc00
% bffffffffffffffffffffffffffffffffffffffffffffffffffffffffffc00
% bdbffffffffffffffffffffffffffffffffffffffffffffffffffffffffc00
% affffffffffffffffffffffffffffffffffffffffffffffffffffffffffc00
% bffffffffffffffffffffffffffffffffffffffffffffffffffffffffffc00
% bffffffffffffffffffffffffffffffffffffffffffffffffffffffffffc00
% 7ffffffffffffffffffffffffffffffffffffffffffffffffffffffffffc00
% 07fffffffffffffffffffffffffffffffffffffffffffffffffffffffffc00
% 007ffffffffffffffffffffffffffffffffffffffffffffffffffffffffc00
% 000ffffffffffffffffffffffffffffffffffffffffffffffffffffffffe00
% 0000fffffffffffffffffffffffffffffffffffffffffffffffffffffffc00
% 00000fffffffffffffffffffffffffffffffffffffffffffffffffffffc000
% 000000fffffffffffffffffffffffffffffffffffffffffffffffffffe0000
% 0000003ffffffffffffffffffffffffffffffffffffffffffffffffff80000
% 00000003ffffffffffffffffffffffffffffffffffffffffffffffffc00000
% 000000003ffffffffffffffffffffffffffffffffffffffffffffffc000000
% 0000000003ffffffffffffffffffffffffffffffffffffffffffffe0000000
% 00000000007fffffffffffffffffffffffffffffffffffffffffff80000000
% 000000000007fffffffffffffffffffffffffffffffffffffffffc00000000
% 0000000000007fffffffffffffffffffffffffffffffffffffffe000000000
% 00000000000007ffffffffffffffffffffffffffffffffffffff0000000000
% 00000000000001fffffffffffffffffffffffffffffffffffffc0000000000
% 000000000000001ffffffffffffffffffffffffffffffffffff00000000000
% 0000000000000001ffffffffffffffffffffffffffffffffffffe000000000
% 00000000000000000fffffffffffffffffffffffffffffffffffffc0000000
% 000000000000000003fffffffffffffffffffffffffffffffffffff8000000
% 0000000000000000003fffffffffffffffffffffffffffffffffffff000000
% 00000000000000000003ffffffffffffffffffffffffffffffffffff800000
% 000000000000000000003fffffffffffffffffffffffffffffffffffc00000
% 000000000000000000000fffffffffffffffffffffffffffffffffffe00000
% 0000000000000000000000ffffffffffffffffffffffffffffffffffe00000
% 000000000000000000000007fffffffffffffffffffffffffffffffff00000
% 0000000000000000000000007ffffffffffffffffffffffffffffffff00000
% 0000000000000000000000001ffffffffffffffffffffffffffffffff00000
% 00000000000000000000000001ffffffffffffffffffffffffffffffe00000
% 000000000000000000000000001ffffffffffffff31fffffffffffffe00000
% 0000000000000000000000000000ffffffffffff801effffffffffffe00000
% 00000000000000000000000000007ffffffffffe00019fffffffffffc00000
% 000000000000000000000000000003fffffffff000000f7fffffffffe00000
% 0000000000000000000000000000003fffffff000000001dfffffffffe0000
% 00000000000000000000000000000003fffff8000000000077fffffe07e180
% 00000000000000000000000000000000ffffe000000000000efffffe01fd80
% 000000000000000000000000000000000fff000000000000003ffff0001fc0
% 0000000000000000000000000000000000780000000000000000ff800003f0
% 000000000000000000000000000000000000000000000000000000000003f8
% 00000000000000000000000000000000000000000000000000000000000000
% 00000000000000000000000000000000000000000000000000000000000000
%%EndImage
%%EndPreview
%%BeginProlog

/tgifdict 52 dict def
tgifdict begin

/tgifellipsedict 6 dict def
tgifellipsedict /mtrx matrix put

/TGEL % tgifellipse
 { tgifellipsedict begin
      /yrad exch def
      /xrad exch def
      /y exch def
      /x exch def
      /savematrix mtrx currentmatrix def
      x y translate
      xrad yrad scale
      0 0 1 0 360 arc
      savematrix setmatrix
   end
 } def

/tgifarrowtipdict 8 dict def
tgifarrowtipdict /mtrx matrix put

/TGAT % tgifarrowtip
 { tgifarrowtipdict begin
      /dy exch def
      /dx exch def
      /h exch def
      /w exch def
      /y exch def
      /x exch def
      /savematrix mtrx currentmatrix def
      x y translate
      dy dx atan rotate
      0 0 moveto
      w neg h lineto
      w neg h neg lineto
      savematrix setmatrix
   end
 } def

/bd { bind def } bind def

/GS { gsave } bd
/GR { grestore } bd
/NP { newpath } bd
/CP { closepath } bd
/CHP { charpath } bd
/CT { curveto } bd
/L { lineto } bd
/RL { rlineto } bd
/M { moveto } bd
/RM { rmoveto } bd
/S { stroke } bd
/F { fill } bd
/TR { translate } bd
/RO { rotate } bd
/SC { scale } bd
/MU { mul } bd
/DI { div } bd
/DU { dup } bd
/NE { neg } bd
/AD { add } bd
/SU { sub } bd
/PO { pop } bd
/EX { exch } bd
/CO { concat } bd
/CL { clip } bd
/EC { eoclip } bd
/EF { eofill } bd
/IM { image } bd
/IMM { imagemask } bd
/ARY { array } bd
/SG { setgray } bd
/RG { setrgbcolor } bd
/SD { setdash } bd
/W { setlinewidth } bd
/SM { setmiterlimit } bd
/SLC { setlinecap } bd
/SLJ { setlinejoin } bd
/SH { show } bd
/FF { findfont } bd
/MS { makefont setfont } bd
/AR { arcto 4 {pop} repeat } bd
/CURP { currentpoint } bd
/FLAT { flattenpath strokepath clip newpath } bd
/TGSM { tgiforigctm setmatrix } def
/TGRM { savematrix setmatrix } def

end

%%EndProlog
%%Page: 1 1

%%PageBoundingBox: 94 542 340 710
tgifdict begin
/tgifsavedpage save def

1 SM
1 W

0 SG

72 0 MU 72 11 MU TR
72 128 DI 100.000 MU 100 DI DU NE SC

GS

/tgiforigctm matrix currentmatrix def

% POLYGON/CLOSED-SPLINE
0.902 0.902 0.980 RG
NP
   463 419 M
   534 433 L
   548.67 435.67 559.17 433.83 565.50 427.50 CT
   571.83 421.17 571.00 413.33
   563 404 CT
   519 397 L
   463 419 L
CP
GS
   EF
GR
GS
   S
GR

% OVAL
GS
   517 407 TR
   [0.906 -0.365 0.423 0.782 3 7] CO
   517 NE 407 NE TR
0.000 0.000 1.000 RG
NP 539 424 22 17 TGEL F
GS
   GS
      NP 539 424 22 17 TGEL
      TGSM
      S
   GR
GR
GR

% POLYGON/CLOSED-SPLINE
0.902 0.902 0.980 RG
NP
   174 255 M
   174 365 L
   347 308 L
   588 375 L
   588 263 L
CP
GS
   EF
GR
GS
   S
GR

% POLYGON/CLOSED-SPLINE
0.000 0.000 1.000 RG
NP
   351 194 M
   171 254 L
   415 322 L
   590 261 L
CP
GS
   EF
GR
GS
   S
GR

% POLYGON/CLOSED-SPLINE
0.902 0.902 0.980 RG
NP
   349 308 M
   174 368 L
   415 434 L
   588 375 L
CP
GS
   EF
GR
GS
   S
GR

% POLY/OPEN-SPLINE
0.647 0.165 0.165 RG
GS
   [8 8] 0 SD
   NP
      445 384 M
      449.67 384.00 454.00 384.83 458.00 386.50 CT
      462.00 388.17 464.33 390.83 465.00 394.50 CT
      465.67 398.17 465.33 401.17 464.00 403.50 CT
      462.67 405.83 461.50 407.50 460.50 408.50 CT
      459.50 409.50 457.83 410.67 455.50 412.00 CT
      453.17 413.33 448.33 414.67
      441 416 CT
   TGSM
   1 W
   S
   [] 0 SD
GR

% POLYGON/CLOSED-SPLINE
0.647 0.165 0.165 RG
NP
   172 209 M
   414 273 L
   414 435 L
   172 369 L
CP
GS
GR
GS
   2 W
   S
GR

% POLY/OPEN-SPLINE
0.545 0.000 0.000 RG
GS
   NP
      172 208 M
      349 149 L
   TGSM
   2 W
   S
   1 W
GR

% POLY/OPEN-SPLINE
0.545 0.000 0.000 RG
GS
   NP
      414 273 M
      591 214 L
   TGSM
   2 W
   S
   1 W
GR

% POLY/OPEN-SPLINE
0.545 0.000 0.000 RG
GS
   NP
      415 435 M
      588 376 L
   TGSM
   2 W
   S
   1 W
GR

% POLY/OPEN-SPLINE
0.545 0.000 0.000 RG
GS
   [12 4] 0 SD
   NP
      174 367 M
      348 309 L
   TGSM
   2 W
   S
   [] 0 SD
   1 W
GR

% POLY/OPEN-SPLINE
0.545 0.000 0.000 RG
GS
   [12 4] 0 SD
   NP
      349 309 M
      590 376 L
   TGSM
   2 W
   S
   [] 0 SD
   1 W
GR

% POLY/OPEN-SPLINE
0.545 0.000 0.000 RG
GS
   NP
      349 148 M
      590 213 L
   TGSM
   2 W
   S
   1 W
GR

% POLY/OPEN-SPLINE
0.545 0.000 0.000 RG
GS
   NP
      589 214 M
      589 377 L
   TGSM
   2 W
   S
   1 W
GR

% POLY/OPEN-SPLINE
0.545 0.000 0.000 RG
GS
   [4 4] 0 SD
   NP
      349 148 M
      349 310 L
   TGSM
   2 W
   S
   [] 0 SD
   1 W
GR

% OVAL
GS
   518 407 TR
   [0.906 -0.365 0.423 0.782 3 7] CO
   518 NE 407 NE TR
0.647 0.165 0.165 RG
GS
   GS
      NP 540 424 22 17 TGEL
      TGSM
      S
   GR
GR
GR

% POLY/OPEN-SPLINE
0.647 0.165 0.165 RG
GS
   NP
      447 384 M
      560 404 L
   TGSM
   1 W
   S
GR

% POLY/OPEN-SPLINE
0.647 0.165 0.165 RG
GS
   NP
      437 416 M
      539 435 L
   TGSM
   1 W
   S
GR

% POLY/OPEN-SPLINE
0.647 0.165 0.165 RG
GS
   NP
      438 416 M
      435.33 416.67 432.17 416.00 428.50 414.00 CT
      424.83 412.00 423.00 409.00 423.00 405.00 CT
      423.00 401.00 424.17 397.50 426.50 394.50 CT
      428.83 391.50 431.50 389.33 434.50 388.00 CT
      437.50 386.67 441.67 385.33
      447 384 CT
   TGSM
   1 W
   S
GR

% POLY/OPEN-SPLINE
0.000 0.000 0.545 RG
GS
   NP
      588 345 M
      39 -139 atan DU cos 8.000 MU exch sin 8.000 MU RM
      39 -139 atan DU cos 8.000 MU 449 exch SU
      exch sin 8.000 MU 384 exch SU L
   TGSM
   1 W
   S
GR
GS
   TGSM
   NP
      588 345 8.000 3.000 139 -39 TGAT
   CP F
GR
GS
   TGSM
   NP
      449 384 8.000 3.000 -139 39 TGAT
   CP F
GR

% POLY/OPEN-SPLINE
0.000 0.000 0.545 RG
GS
   NP
      448 384 M
      11 -35 atan DU cos 8.000 MU exch sin 8.000 MU RM
      11 -35 atan DU cos 8.000 MU 413 exch SU
      exch sin 8.000 MU 395 exch SU L
   TGSM
   1 W
   S
GR
GS
   TGSM
   NP
      448 384 8.000 3.000 35 -11 TGAT
   CP F
GR
GS
   TGSM
   NP
      413 395 8.000 3.000 -35 11 TGAT
   CP F
GR

% POLYGON/CLOSED-SPLINE
0 SG
NP
   233 259 M
   238 272 L
   251 264 L
CP
GS
GR
GS
   S
GR

% POLY/OPEN-SPLINE
0 SG
GS
   NP
      232 276 M
      243 279 L
   TGSM
   1 W
   S
GR

% POLY/OPEN-SPLINE
0 SG
GS
   NP
      232 281 M
      240 283 L
   TGSM
   1 W
   S
GR

% POLY/OPEN-SPLINE
0 SG
GS
   NP
      548 421 M
      16 54 atan DU cos 12.000 MU 602 exch SU
      exch sin 12.000 MU 437 exch SU L
   TGSM
   3 W
   S
   1 W
GR
GS
   TGSM
   NP
      602 437 12.000 5.000 54 16 TGAT
   CP F
GR

GR
tgifsavedpage restore
end
showpage

%%Trailer
%MatchingCreationDate: Thu Feb  4 15:42:26 2010
%%DocumentFonts: 
%%EOF
