%!PS-Adobe-3.0
%%BoundingBox: 0 0 612 792
%%LanguageLevel: 2
%%Creator: Grace-5.1.12
%%CreationDate: Thu Jun 17 15:32:23 2004
%%DocumentData: Clean8Bit
%%Orientation: Portrait
%%Pages: 1
%%PageOrder: Ascend
%%Title: shock.agr
%%For: genick
%%DocumentNeededResources: (atend)
%%EndComments
%%BeginProlog
/PAGE_OFFSET_X 0 def
/PAGE_OFFSET_Y 0 def
/m {moveto} def
/l {lineto} def
/s {stroke} def
/n {newpath} def
/c {closepath} def
/RL {rlineto} def
/SLW {setlinewidth} def
/GS {gsave} def
/GR {grestore} def
/SC {setcolor} def
/SGRY {setgray} def
/SRGB {setrgbcolor} def
/SD {setdash} def
/SLC {setlinecap} def
/SLJ {setlinejoin} def
/SCS {setcolorspace} def
/FFSF {findfont setfont} def
/CC {concat} def
/PXL {n m 0 0 RL s} def
/Color0 {1.0000 1.0000 1.0000} def
/Color1 {0.0000 0.0000 0.0000} def
/Color2 {1.0000 0.0000 0.0000} def
/Color3 {0.0000 1.0000 0.0000} def
/Color4 {0.0000 0.0000 1.0000} def
/Color5 {1.0000 1.0000 0.0000} def
/Color6 {0.7373 0.5608 0.5608} def
/Color7 {0.8627 0.8627 0.8627} def
/Color8 {0.5804 0.0000 0.8275} def
/Color9 {0.0000 1.0000 1.0000} def
/Color10 {1.0000 0.0000 1.0000} def
/Color11 {1.0000 0.6471 0.0000} def
/Color12 {0.4471 0.1294 0.7373} def
/Color13 {0.4039 0.0275 0.2824} def
/Color14 {0.2510 0.8784 0.8157} def
/Color15 {0.0000 0.5451 0.0000} def
/Color16 {0.7529 0.7529 0.7529} def
/Color17 {0.5059 0.5059 0.5059} def
/Color18 {0.2588 0.2588 0.2588} def
/PTRN {
 /pat_bits exch def 
 <<
  /PaintType 2
  /PatternType 1 /TilingType 1
  /BBox[0 0 16 16]
  /XStep 16 /YStep 16
  /PaintProc {
   pop
   16 16 true [-1 0 0 -1 16 16] pat_bits imagemask
  }
 >>
 [0.0016 0 0 0.0016 0 0]
 makepattern
} def
/Pattern0 {<0000000000000000000000000000000000000000000000000000000000000000> PTRN} bind def
/Pattern1 {<ffffffffffffffffffffffffffffffffffffffffffffffffffffffffffffffff> PTRN} bind def
/Pattern2 {<eeeeffffbbbbffffeeeeffffbbbbffffeeeeffffbbbbffffeeeeffffbbbbffff> PTRN} bind def
/Pattern3 {<eeeebbbbeeeebbbbeeeebbbbeeeebbbbeeeebbbbeeeebbbbeeeebbbbeeeebbbb> PTRN} bind def
/Pattern4 {<5555aaaa5555aaaa5555aaaa5555aaaa5555aaaa5555aaaa5555aaaa5555aaaa> PTRN} bind def
/Pattern5 {<1111444411114444111144441111444411114444111144441111444411114444> PTRN} bind def
/Pattern6 {<1111000044440000111100004444000011110000444400001111000044440000> PTRN} bind def
/Pattern7 {<1010000000000000010100000000000010100000000000000101000000000000> PTRN} bind def
/Pattern8 {<0000000000000000000000000000000000000000000000000000000000000000> PTRN} bind def
/Pattern9 {<1e1e0f0f8787c3c3e1e1f0f078783c3c1e1e0f0f8787c3c3e1e1f0f078783c3c> PTRN} bind def
/Pattern10 {<7878f0f0e1e1c3c387870f0f1e1e3c3c7878f0f0e1e1c3c387870f0f1e1e3c3c> PTRN} bind def
/Pattern11 {<3333333333333333333333333333333333333333333333333333333333333333> PTRN} bind def
/Pattern12 {<ffffffff00000000ffffffff00000000ffffffff00000000ffffffff00000000> PTRN} bind def
/Pattern13 {<8181424224241818181824244242818181814242242418181818242442428181> PTRN} bind def
/Pattern14 {<8080404020201010080804040202010180804040202010100808040402020101> PTRN} bind def
/Pattern15 {<0101020204040808101020204040808001010202040408081010202040408080> PTRN} bind def
/Pattern16 {<2222222222222222222222222222222222222222222222222222222222222222> PTRN} bind def
/Pattern17 {<0000ffff000000000000ffff000000000000ffff000000000000ffff00000000> PTRN} bind def
/Pattern18 {<2222ffff222222222222ffff222222222222ffff222222222222ffff22222222> PTRN} bind def
/Pattern19 {<ffffffff33333333ffffffff33333333ffffffff33333333ffffffff33333333> PTRN} bind def
/Pattern20 {<0f0f0f0f0f0f0f0ff0f0f0f0f0f0f0f00f0f0f0f0f0f0f0ff0f0f0f0f0f0f0f0> PTRN} bind def
/Pattern21 {<ff00ff00ff00ff00ff00ff00ff00ff0000ff00ff00ff00ff00ff00ff00ff00ff> PTRN} bind def
/Pattern22 {<8001800180018001800180018001ffffffff8001800180018001800180018001> PTRN} bind def
/Pattern23 {<c003c003c003c003c003c003ffffffffffffffffc003c003c003c003c003c003> PTRN} bind def
/Pattern24 {<040404040404ffff404040404040ffff040404040404ffff404040404040ffff> PTRN} bind def
/Pattern25 {<180018001800180018001800ffffffff001800180018001800180018ffffffff> PTRN} bind def
/Pattern26 {<1111b8b87c7c3a3a1111a3a3c7c78b8b1111b8b87c7c3a3a1111a3a3c7c78b8b> PTRN} bind def
/Pattern27 {<101010102828c7c70101010182827c7c101010102828c7c70101010182827c7c> PTRN} bind def
/Pattern28 {<1c1c121211112121c1c12121111112121c1c121211112121c1c1212111111212> PTRN} bind def
/Pattern29 {<3e3e414180808080e3e31414080808083e3e414180808080e3e3141408080808> PTRN} bind def
/Pattern30 {<4848888884848383848488884848383848488888848483838484888848483838> PTRN} bind def
/Pattern31 {<03030404080808080c0c12122121c0c003030404080808080c0c12122121c0c0> PTRN} bind def
/ellipsedict 8 dict def
ellipsedict /mtrx matrix put
/EARC {
 ellipsedict begin
  /endangle exch def
  /startangle exch def
  /yrad exch def
  /xrad exch def
  /y exch def
  /x exch def
  /savematrix mtrx currentmatrix def
  x y translate
  xrad yrad scale
  0 0 1 startangle endangle arc
  savematrix setmatrix
 end
} def
/TL {
  /kcomp exch def
  /linewidth exch def
  /offset exch def
  GS
  0 offset rmoveto
  linewidth SLW
  dup stringwidth exch kcomp add exch RL s
  GR
} def
/KINIT
{
 /kvector exch def
 /kid 0 def
} def
/KPROC
{
 pop pop
 kvector kid get
 0 rmoveto
 /kid 1 kid add def
} def
/DefEncoding [
 /.notdef
 /.notdef
 /.notdef
 /.notdef
 /.notdef
 /.notdef
 /.notdef
 /.notdef
 /.notdef
 /.notdef
 /.notdef
 /.notdef
 /.notdef
 /.notdef
 /.notdef
 /.notdef
 /.notdef
 /.notdef
 /.notdef
 /.notdef
 /.notdef
 /.notdef
 /.notdef
 /.notdef
 /.notdef
 /.notdef
 /.notdef
 /.notdef
 /.notdef
 /.notdef
 /.notdef
 /.notdef
 /space
 /exclam
 /quotedbl
 /numbersign
 /dollar
 /percent
 /ampersand
 /quoteright
 /parenleft
 /parenright
 /asterisk
 /plus
 /comma
 /hyphen
 /period
 /slash
 /zero
 /one
 /two
 /three
 /four
 /five
 /six
 /seven
 /eight
 /nine
 /colon
 /semicolon
 /less
 /equal
 /greater
 /question
 /at
 /A
 /B
 /C
 /D
 /E
 /F
 /G
 /H
 /I
 /J
 /K
 /L
 /M
 /N
 /O
 /P
 /Q
 /R
 /S
 /T
 /U
 /V
 /W
 /X
 /Y
 /Z
 /bracketleft
 /backslash
 /bracketright
 /asciicircum
 /underscore
 /grave
 /a
 /b
 /c
 /d
 /e
 /f
 /g
 /h
 /i
 /j
 /k
 /l
 /m
 /n
 /o
 /p
 /q
 /r
 /s
 /t
 /u
 /v
 /w
 /x
 /y
 /z
 /braceleft
 /bar
 /braceright
 /asciitilde
 /.notdef
 /.notdef
 /.notdef
 /.notdef
 /.notdef
 /.notdef
 /.notdef
 /.notdef
 /.notdef
 /.notdef
 /.notdef
 /.notdef
 /.notdef
 /.notdef
 /.notdef
 /.notdef
 /.notdef
 /.notdef
 /.notdef
 /.notdef
 /.notdef
 /.notdef
 /.notdef
 /.notdef
 /.notdef
 /.notdef
 /.notdef
 /.notdef
 /.notdef
 /.notdef
 /.notdef
 /.notdef
 /.notdef
 /space
 /exclamdown
 /cent
 /sterling
 /currency
 /yen
 /brokenbar
 /section
 /dieresis
 /copyright
 /ordfeminine
 /guillemotleft
 /logicalnot
 /hyphen
 /registered
 /macron
 /degree
 /plusminus
 /twosuperior
 /threesuperior
 /acute
 /mu
 /paragraph
 /periodcentered
 /cedilla
 /onesuperior
 /ordmasculine
 /guillemotright
 /onequarter
 /onehalf
 /threequarters
 /questiondown
 /Agrave
 /Aacute
 /Acircumflex
 /Atilde
 /Adieresis
 /Aring
 /AE
 /Ccedilla
 /Egrave
 /Eacute
 /Ecircumflex
 /Edieresis
 /Igrave
 /Iacute
 /Icircumflex
 /Idieresis
 /Eth
 /Ntilde
 /Ograve
 /Oacute
 /Ocircumflex
 /Otilde
 /Odieresis
 /multiply
 /Oslash
 /Ugrave
 /Uacute
 /Ucircumflex
 /Udieresis
 /Yacute
 /Thorn
 /germandbls
 /agrave
 /aacute
 /acircumflex
 /atilde
 /adieresis
 /aring
 /ae
 /ccedilla
 /egrave
 /eacute
 /ecircumflex
 /edieresis
 /igrave
 /iacute
 /icircumflex
 /idieresis
 /eth
 /ntilde
 /ograve
 /oacute
 /ocircumflex
 /otilde
 /odieresis
 /divide
 /oslash
 /ugrave
 /uacute
 /ucircumflex
 /udieresis
 /yacute
 /thorn
 /ydieresis
] def
%%EndProlog
%%BeginSetup
PAGE_OFFSET_X PAGE_OFFSET_Y translate
612.00 612.00 scale
%%EndSetup
%%Page: 1 1
n
0.0000 0.0000 m
0.0000 1.2941 l
1.0000 1.2941 l
1.0000 0.0000 l
c
[/DeviceRGB] SCS
Color0 SC
fill
[/DeviceRGB] SCS
Color3 SC
[] 0 SD
0.0015 SLW
0 SLC
0 SLJ
n
0.1000 0.7000 m
0.1042 0.6719 l
0.1083 0.6471 l
0.1125 0.6250 l
0.1167 0.6053 l
0.1208 0.5876 l
0.1250 0.5716 l
0.1292 0.5570 l
0.1333 0.5438 l
0.1375 0.5317 l
0.1417 0.5207 l
0.1458 0.5105 l
0.1500 0.5011 l
0.1542 0.4924 l
0.1583 0.4843 l
0.1625 0.4769 l
0.1667 0.4699 l
0.1708 0.4634 l
0.1750 0.4574 l
0.1792 0.4517 l
0.1833 0.4464 l
0.1875 0.4414 l
0.1917 0.4368 l
0.1958 0.4324 l
0.2000 0.4282 l
0.2042 0.4243 l
0.2083 0.4206 l
0.2125 0.4172 l
0.2167 0.4139 l
0.2208 0.4108 l
0.2250 0.4078 l
0.2458 0.3951 l
0.2667 0.3851 l
0.2875 0.3772 l
0.3083 0.3707 l
0.3292 0.3654 l
0.3500 0.3610 l
0.3708 0.3573 l
0.3917 0.3541 l
0.4125 0.3514 l
0.4333 0.3491 l
0.4542 0.3471 l
0.4750 0.3454 l
0.4958 0.3439 l
0.5167 0.3425 l
0.5375 0.3413 l
0.5583 0.3402 l
0.5792 0.3393 l
0.6000 0.3384 l
0.6208 0.3376 l
0.6417 0.3369 l
0.6625 0.3363 l
0.6833 0.3357 l
0.7042 0.3352 l
0.7250 0.3347 l
0.7458 0.3343 l
0.7667 0.3339 l
0.7875 0.3335 l
0.8083 0.3332 l
0.8292 0.3328 l
0.8500 0.3325 l
s
[/DeviceRGB] SCS
Color2 SC
[0.0015 0.0045 ] 0 SD
0.0015 SLW
n
0.1000 0.7000 m
0.1042 0.6999 l
0.1083 0.6994 l
0.1125 0.6980 l
0.1167 0.6957 l
0.1208 0.6922 l
0.1250 0.6876 l
0.1292 0.6818 l
0.1333 0.6749 l
0.1375 0.6669 l
0.1417 0.6579 l
0.1458 0.6479 l
0.1500 0.6371 l
0.1542 0.6256 l
0.1583 0.6134 l
0.1625 0.6007 l
0.1667 0.5876 l
0.1708 0.5741 l
0.1750 0.5604 l
0.1792 0.5465 l
0.1833 0.5325 l
0.1875 0.5185 l
0.1917 0.5045 l
0.1958 0.4906 l
0.2000 0.4769 l
0.2042 0.4633 l
0.2083 0.4500 l
0.2125 0.4369 l
0.2167 0.4241 l
0.2208 0.4116 l
0.2250 0.3994 l
0.2458 0.3437 l
0.2667 0.2970 l
0.2875 0.2587 l
0.3083 0.2278 l
0.3292 0.2030 l
0.3500 0.1833 l
0.3708 0.1675 l
0.3917 0.1550 l
0.4125 0.1450 l
0.4333 0.1370 l
0.4542 0.1306 l
0.4750 0.1254 l
0.4958 0.1212 l
0.5167 0.1178 l
0.5375 0.1150 l
0.5583 0.1127 l
0.5792 0.1108 l
0.6000 0.1092 l
0.6208 0.1079 l
0.6417 0.1068 l
0.6625 0.1059 l
0.6833 0.1051 l
0.7042 0.1044 l
0.7250 0.1039 l
0.7458 0.1034 l
0.7667 0.1030 l
0.7875 0.1026 l
0.8083 0.1023 l
0.8292 0.1021 l
0.8500 0.1018 l
s
[/DeviceRGB] SCS
Color1 SC
[] 0 SD
0.0015 SLW
n
0.1000 0.1000 m
0.8500 0.1000 l
s
n
0.1000 0.7000 m
0.8500 0.7000 l
s
n
0.1417 0.1000 m
0.1417 0.1100 l
s
n
0.1417 0.7000 m
0.1417 0.6900 l
s
n
0.2250 0.1000 m
0.2250 0.1100 l
s
n
0.2250 0.7000 m
0.2250 0.6900 l
s
n
0.3083 0.1000 m
0.3083 0.1100 l
s
n
0.3083 0.7000 m
0.3083 0.6900 l
s
n
0.3917 0.1000 m
0.3917 0.1100 l
s
n
0.3917 0.7000 m
0.3917 0.6900 l
s
n
0.4750 0.1000 m
0.4750 0.1100 l
s
n
0.4750 0.7000 m
0.4750 0.6900 l
s
n
0.5583 0.1000 m
0.5583 0.1100 l
s
n
0.5583 0.7000 m
0.5583 0.6900 l
s
n
0.6417 0.1000 m
0.6417 0.1100 l
s
n
0.6417 0.7000 m
0.6417 0.6900 l
s
n
0.7250 0.1000 m
0.7250 0.1100 l
s
n
0.7250 0.7000 m
0.7250 0.6900 l
s
n
0.8083 0.1000 m
0.8083 0.1100 l
s
n
0.8083 0.7000 m
0.8083 0.6900 l
s
n
0.1000 0.1000 m
0.1000 0.1200 l
s
n
0.1000 0.7000 m
0.1000 0.6800 l
s
n
0.1833 0.1000 m
0.1833 0.1200 l
s
n
0.1833 0.7000 m
0.1833 0.6800 l
s
n
0.2667 0.1000 m
0.2667 0.1200 l
s
n
0.2667 0.7000 m
0.2667 0.6800 l
s
n
0.3500 0.1000 m
0.3500 0.1200 l
s
n
0.3500 0.7000 m
0.3500 0.6800 l
s
n
0.4333 0.1000 m
0.4333 0.1200 l
s
n
0.4333 0.7000 m
0.4333 0.6800 l
s
n
0.5167 0.1000 m
0.5167 0.1200 l
s
n
0.5167 0.7000 m
0.5167 0.6800 l
s
n
0.6000 0.1000 m
0.6000 0.1200 l
s
n
0.6000 0.7000 m
0.6000 0.6800 l
s
n
0.6833 0.1000 m
0.6833 0.1200 l
s
n
0.6833 0.7000 m
0.6833 0.6800 l
s
n
0.7667 0.1000 m
0.7667 0.1200 l
s
n
0.7667 0.7000 m
0.7667 0.6800 l
s
n
0.8500 0.1000 m
0.8500 0.1200 l
s
n
0.8500 0.7000 m
0.8500 0.6800 l
s
/Times-Roman findfont
dup length dict begin
 {1 index /FID ne {def} {pop pop} ifelse} forall
 /Encoding DefEncoding def
 currentdict
end
/Font0 exch definefont pop
/Font0 FFSF
0.0945 0.0712 m
GS
[0.0280 0.0000 0.0000 0.0280 0 0] CC
(1) show
GR
/Font0 FFSF
0.1767 0.0712 m
GS
[0.0280 0.0000 0.0000 0.0280 0 0] CC
(2) show
GR
/Font0 FFSF
0.2606 0.0712 m
GS
[0.0280 0.0000 0.0000 0.0280 0 0] CC
(3) show
GR
/Font0 FFSF
0.3433 0.0712 m
GS
[0.0280 0.0000 0.0000 0.0280 0 0] CC
(4) show
GR
/Font0 FFSF
0.4273 0.0708 m
GS
[0.0280 0.0000 0.0000 0.0280 0 0] CC
(5) show
GR
/Font0 FFSF
0.5102 0.0708 m
GS
[0.0280 0.0000 0.0000 0.0280 0 0] CC
(6) show
GR
/Font0 FFSF
0.5937 0.0716 m
GS
[0.0280 0.0000 0.0000 0.0280 0 0] CC
(7) show
GR
/Font0 FFSF
0.6771 0.0712 m
GS
[0.0280 0.0000 0.0000 0.0280 0 0] CC
(8) show
GR
/Font0 FFSF
0.7602 0.0712 m
GS
[0.0280 0.0000 0.0000 0.0280 0 0] CC
(9) show
GR
/Font0 FFSF
0.8363 0.0712 m
GS
[0.0280 0.0000 0.0000 0.0280 0 0] CC
(10) show
GR
n
0.1000 0.1000 m
0.1000 0.7000 l
s
n
0.8500 0.1000 m
0.8500 0.7000 l
s
n
0.1000 0.1200 m
0.1100 0.1200 l
s
n
0.8500 0.1200 m
0.8400 0.1200 l
s
n
0.1000 0.1400 m
0.1100 0.1400 l
s
n
0.8500 0.1400 m
0.8400 0.1400 l
s
n
0.1000 0.1800 m
0.1100 0.1800 l
s
n
0.8500 0.1800 m
0.8400 0.1800 l
s
n
0.1000 0.2000 m
0.1100 0.2000 l
s
n
0.8500 0.2000 m
0.8400 0.2000 l
s
n
0.1000 0.2400 m
0.1100 0.2400 l
s
n
0.8500 0.2400 m
0.8400 0.2400 l
s
n
0.1000 0.2600 m
0.1100 0.2600 l
s
n
0.8500 0.2600 m
0.8400 0.2600 l
s
n
0.1000 0.3000 m
0.1100 0.3000 l
s
n
0.8500 0.3000 m
0.8400 0.3000 l
s
n
0.1000 0.3200 m
0.1100 0.3200 l
s
n
0.8500 0.3200 m
0.8400 0.3200 l
s
n
0.1000 0.3600 m
0.1100 0.3600 l
s
n
0.8500 0.3600 m
0.8400 0.3600 l
s
n
0.1000 0.3800 m
0.1100 0.3800 l
s
n
0.8500 0.3800 m
0.8400 0.3800 l
s
n
0.1000 0.4200 m
0.1100 0.4200 l
s
n
0.8500 0.4200 m
0.8400 0.4200 l
s
n
0.1000 0.4400 m
0.1100 0.4400 l
s
n
0.8500 0.4400 m
0.8400 0.4400 l
s
n
0.1000 0.4800 m
0.1100 0.4800 l
s
n
0.8500 0.4800 m
0.8400 0.4800 l
s
n
0.1000 0.5000 m
0.1100 0.5000 l
s
n
0.8500 0.5000 m
0.8400 0.5000 l
s
n
0.1000 0.5400 m
0.1100 0.5400 l
s
n
0.8500 0.5400 m
0.8400 0.5400 l
s
n
0.1000 0.5600 m
0.1100 0.5600 l
s
n
0.8500 0.5600 m
0.8400 0.5600 l
s
n
0.1000 0.6000 m
0.1100 0.6000 l
s
n
0.8500 0.6000 m
0.8400 0.6000 l
s
n
0.1000 0.6200 m
0.1100 0.6200 l
s
n
0.8500 0.6200 m
0.8400 0.6200 l
s
n
0.1000 0.6600 m
0.1100 0.6600 l
s
n
0.8500 0.6600 m
0.8400 0.6600 l
s
n
0.1000 0.6800 m
0.1100 0.6800 l
s
n
0.8500 0.6800 m
0.8400 0.6800 l
s
n
0.1000 0.1000 m
0.1200 0.1000 l
s
n
0.8500 0.1000 m
0.8300 0.1000 l
s
n
0.1000 0.1600 m
0.1200 0.1600 l
s
n
0.8500 0.1600 m
0.8300 0.1600 l
s
n
0.1000 0.2200 m
0.1200 0.2200 l
s
n
0.8500 0.2200 m
0.8300 0.2200 l
s
n
0.1000 0.2800 m
0.1200 0.2800 l
s
n
0.8500 0.2800 m
0.8300 0.2800 l
s
n
0.1000 0.3400 m
0.1200 0.3400 l
s
n
0.8500 0.3400 m
0.8300 0.3400 l
s
n
0.1000 0.4000 m
0.1200 0.4000 l
s
n
0.8500 0.4000 m
0.8300 0.4000 l
s
n
0.1000 0.4600 m
0.1200 0.4600 l
s
n
0.8500 0.4600 m
0.8300 0.4600 l
s
n
0.1000 0.5200 m
0.1200 0.5200 l
s
n
0.8500 0.5200 m
0.8300 0.5200 l
s
n
0.1000 0.5800 m
0.1200 0.5800 l
s
n
0.8500 0.5800 m
0.8300 0.5800 l
s
n
0.1000 0.6400 m
0.1200 0.6400 l
s
n
0.8500 0.6400 m
0.8300 0.6400 l
s
n
0.1000 0.7000 m
0.1200 0.7000 l
s
n
0.8500 0.7000 m
0.8300 0.7000 l
s
/Font0 FFSF
0.0767 0.0908 m
GS
[0.0280 0.0000 0.0000 0.0280 0 0] CC
(0) show
GR
/Font0 FFSF
0.0578 0.1508 m
GS
[0.0280 0.0000 0.0000 0.0280 0 0] CC
(0.1) show
GR
/Font0 FFSF
0.0555 0.2108 m
GS
[0.0280 0.0000 0.0000 0.0280 0 0] CC
(0.2) show
GR
/Font0 FFSF
0.0567 0.2708 m
GS
[0.0280 0.0000 0.0000 0.0280 0 0] CC
(0.3) show
GR
/Font0 FFSF
0.0555 0.3308 m
GS
[0.0280 0.0000 0.0000 0.0280 0 0] CC
(0.4) show
GR
/Font0 FFSF
0.0567 0.3906 m
GS
[0.0280 0.0000 0.0000 0.0280 0 0] CC
(0.5) show
GR
/Font0 FFSF
0.0559 0.4506 m
GS
[0.0280 0.0000 0.0000 0.0280 0 0] CC
(0.6) show
GR
/Font0 FFSF
0.0563 0.5108 m
GS
[0.0280 0.0000 0.0000 0.0280 0 0] CC
(0.7) show
GR
/Font0 FFSF
0.0563 0.5708 m
GS
[0.0280 0.0000 0.0000 0.0280 0 0] CC
(0.8) show
GR
/Font0 FFSF
0.0559 0.6310 m
GS
[0.0280 0.0000 0.0000 0.0280 0 0] CC
(0.9) show
GR
/Font0 FFSF
0.0790 0.6906 m
GS
[0.0280 0.0000 0.0000 0.0280 0 0] CC
(1) show
GR
/Font0 FFSF
0.0396 0.3810 m
GS
[0.0000 0.0280 -0.0280 0.0000 0 0] CC
(My) show
GR
n
0.1000 0.1000 m
0.1000 0.7000 l
0.8500 0.7000 l
0.8500 0.1000 l
0.1000 0.1000 l
c
s
n
0.5500 0.6000 m
0.5500 0.5210 l
0.7249 0.5210 l
0.7249 0.6000 l
c
[/DeviceRGB] SCS
Color0 SC
fill
/Font0 FFSF
[/DeviceRGB] SCS
Color1 SC
0.6208 0.5716 m
GS
[0.0280 0.0000 0.0000 0.0280 0 0] CC
(My) show
GR
[/DeviceRGB] SCS
Color3 SC
n
0.5608 0.5778 m
0.6008 0.5778 l
s
/Font0 FFSF
[/DeviceRGB] SCS
Color1 SC
0.6208 0.5369 m
GS
[0.0280 0.0000 0.0000 0.0280 0 0] CC
(P0y/P0x) show
GR
[/DeviceRGB] SCS
Color2 SC
[0.0015 0.0045 ] 0 SD
0.0015 SLW
n
0.5608 0.5433 m
0.6008 0.5433 l
s
/Font0 FFSF
[/DeviceRGB] SCS
Color1 SC
0.2646 0.7690 m
GS
[0.0420 0.0000 0.0000 0.0420 0 0] CC
(Shock Wave relationship) show
GR
/Font0 FFSF
0.1962 0.7259 m
GS
[0.0280 0.0000 0.0000 0.0280 0 0] CC
(My and ratio of total pressure as a function of Mx) show
GR
/Font0 FFSF
0.0300 0.0300 m
GS
[0.0280 0.0000 0.0000 0.0280 0 0] CC
(Thu Jun 17 15:31:35 2004) show
GR
showpage
%%PageTrailer
%%Trailer
%%DocumentNeededResources: font Times-Roman
%%EOF
