%!PS-Adobe-3.0
%%BoundingBox: 0 0 612 792
%%LanguageLevel: 2
%%Creator: Grace-5.1.16
%%CreationDate: Mon Jun  5 17:39:51 2006
%%DocumentData: Clean8Bit
%%Orientation: Portrait
%%Pages: 1
%%PageOrder: Ascend
%%Title: calculations/stagnation.agr
%%For: genick
%%DocumentNeededResources: (atend)
%%EndComments
%%BeginProlog
/PAGE_OFFSET_X 0 def
/PAGE_OFFSET_Y 0 def
/m {moveto} def
/l {lineto} def
/s {stroke} def
/n {newpath} def
/c {closepath} def
/RL {rlineto} def
/SLW {setlinewidth} def
/GS {gsave} def
/GR {grestore} def
/SC {setcolor} def
/SGRY {setgray} def
/SRGB {setrgbcolor} def
/SD {setdash} def
/SLC {setlinecap} def
/SLJ {setlinejoin} def
/SCS {setcolorspace} def
/FFSF {findfont setfont} def
/CC {concat} def
/PXL {n m 0 0 RL s} def
/Color0 {1.0000 1.0000 1.0000} def
/Color1 {0.0000 0.0000 0.0000} def
/Color2 {1.0000 0.0000 0.0000} def
/Color3 {0.0000 1.0000 0.0000} def
/Color4 {0.0000 0.0000 1.0000} def
/Color5 {1.0000 1.0000 0.0000} def
/Color6 {0.7373 0.5608 0.5608} def
/Color7 {0.8627 0.8627 0.8627} def
/Color8 {0.5804 0.0000 0.8275} def
/Color9 {0.0000 1.0000 1.0000} def
/Color10 {1.0000 0.0000 1.0000} def
/Color11 {1.0000 0.6471 0.0000} def
/Color12 {0.4471 0.1294 0.7373} def
/Color13 {0.4039 0.0275 0.2824} def
/Color14 {0.2510 0.8784 0.8157} def
/Color15 {0.0000 0.5451 0.0000} def
/Color16 {0.7529 0.7529 0.7529} def
/Color17 {0.5059 0.5059 0.5059} def
/Color18 {0.2588 0.2588 0.2588} def
/PTRN {
 /pat_bits exch def 
 <<
  /PaintType 2
  /PatternType 1 /TilingType 1
  /BBox[0 0 16 16]
  /XStep 16 /YStep 16
  /PaintProc {
   pop
   16 16 true [-1 0 0 -1 16 16] pat_bits imagemask
  }
 >>
 [0.0016 0 0 0.0016 0 0]
 makepattern
} def
/Pattern0 {<0000000000000000000000000000000000000000000000000000000000000000> PTRN} bind def
/Pattern1 {<ffffffffffffffffffffffffffffffffffffffffffffffffffffffffffffffff> PTRN} bind def
/Pattern2 {<eeeeffffbbbbffffeeeeffffbbbbffffeeeeffffbbbbffffeeeeffffbbbbffff> PTRN} bind def
/Pattern3 {<eeeebbbbeeeebbbbeeeebbbbeeeebbbbeeeebbbbeeeebbbbeeeebbbbeeeebbbb> PTRN} bind def
/Pattern4 {<5555aaaa5555aaaa5555aaaa5555aaaa5555aaaa5555aaaa5555aaaa5555aaaa> PTRN} bind def
/Pattern5 {<1111444411114444111144441111444411114444111144441111444411114444> PTRN} bind def
/Pattern6 {<1111000044440000111100004444000011110000444400001111000044440000> PTRN} bind def
/Pattern7 {<1010000000000000010100000000000010100000000000000101000000000000> PTRN} bind def
/Pattern8 {<0000000000000000000000000000000000000000000000000000000000000000> PTRN} bind def
/Pattern9 {<1e1e0f0f8787c3c3e1e1f0f078783c3c1e1e0f0f8787c3c3e1e1f0f078783c3c> PTRN} bind def
/Pattern10 {<7878f0f0e1e1c3c387870f0f1e1e3c3c7878f0f0e1e1c3c387870f0f1e1e3c3c> PTRN} bind def
/Pattern11 {<3333333333333333333333333333333333333333333333333333333333333333> PTRN} bind def
/Pattern12 {<ffffffff00000000ffffffff00000000ffffffff00000000ffffffff00000000> PTRN} bind def
/Pattern13 {<8181424224241818181824244242818181814242242418181818242442428181> PTRN} bind def
/Pattern14 {<8080404020201010080804040202010180804040202010100808040402020101> PTRN} bind def
/Pattern15 {<0101020204040808101020204040808001010202040408081010202040408080> PTRN} bind def
/Pattern16 {<2222222222222222222222222222222222222222222222222222222222222222> PTRN} bind def
/Pattern17 {<0000ffff000000000000ffff000000000000ffff000000000000ffff00000000> PTRN} bind def
/Pattern18 {<2222ffff222222222222ffff222222222222ffff222222222222ffff22222222> PTRN} bind def
/Pattern19 {<ffffffff33333333ffffffff33333333ffffffff33333333ffffffff33333333> PTRN} bind def
/Pattern20 {<0f0f0f0f0f0f0f0ff0f0f0f0f0f0f0f00f0f0f0f0f0f0f0ff0f0f0f0f0f0f0f0> PTRN} bind def
/Pattern21 {<ff00ff00ff00ff00ff00ff00ff00ff0000ff00ff00ff00ff00ff00ff00ff00ff> PTRN} bind def
/Pattern22 {<8001800180018001800180018001ffffffff8001800180018001800180018001> PTRN} bind def
/Pattern23 {<c003c003c003c003c003c003ffffffffffffffffc003c003c003c003c003c003> PTRN} bind def
/Pattern24 {<040404040404ffff404040404040ffff040404040404ffff404040404040ffff> PTRN} bind def
/Pattern25 {<180018001800180018001800ffffffff001800180018001800180018ffffffff> PTRN} bind def
/Pattern26 {<1111b8b87c7c3a3a1111a3a3c7c78b8b1111b8b87c7c3a3a1111a3a3c7c78b8b> PTRN} bind def
/Pattern27 {<101010102828c7c70101010182827c7c101010102828c7c70101010182827c7c> PTRN} bind def
/Pattern28 {<1c1c121211112121c1c12121111112121c1c121211112121c1c1212111111212> PTRN} bind def
/Pattern29 {<3e3e414180808080e3e31414080808083e3e414180808080e3e3141408080808> PTRN} bind def
/Pattern30 {<4848888884848383848488884848383848488888848483838484888848483838> PTRN} bind def
/Pattern31 {<03030404080808080c0c12122121c0c003030404080808080c0c12122121c0c0> PTRN} bind def
/ellipsedict 8 dict def
ellipsedict /mtrx matrix put
/EARC {
 ellipsedict begin
  /endangle exch def
  /startangle exch def
  /yrad exch def
  /xrad exch def
  /y exch def
  /x exch def
  /savematrix mtrx currentmatrix def
  x y translate
  xrad yrad scale
  0 0 1 startangle endangle arc
  savematrix setmatrix
 end
} def
/TL {
  /kcomp exch def
  /linewidth exch def
  /offset exch def
  GS
  0 offset rmoveto
  linewidth SLW
  dup stringwidth exch kcomp add exch RL s
  GR
} def
/KINIT
{
 /kvector exch def
 /kid 0 def
} def
/KPROC
{
 pop pop
 kvector kid get
 0 rmoveto
 /kid 1 kid add def
} def
/DefEncoding [
 /.notdef
 /.notdef
 /.notdef
 /.notdef
 /.notdef
 /.notdef
 /.notdef
 /.notdef
 /.notdef
 /.notdef
 /.notdef
 /.notdef
 /.notdef
 /.notdef
 /.notdef
 /.notdef
 /.notdef
 /.notdef
 /.notdef
 /.notdef
 /.notdef
 /.notdef
 /.notdef
 /.notdef
 /.notdef
 /.notdef
 /.notdef
 /.notdef
 /.notdef
 /.notdef
 /.notdef
 /.notdef
 /space
 /exclam
 /quotedbl
 /numbersign
 /dollar
 /percent
 /ampersand
 /quoteright
 /parenleft
 /parenright
 /asterisk
 /plus
 /comma
 /hyphen
 /period
 /slash
 /zero
 /one
 /two
 /three
 /four
 /five
 /six
 /seven
 /eight
 /nine
 /colon
 /semicolon
 /less
 /equal
 /greater
 /question
 /at
 /A
 /B
 /C
 /D
 /E
 /F
 /G
 /H
 /I
 /J
 /K
 /L
 /M
 /N
 /O
 /P
 /Q
 /R
 /S
 /T
 /U
 /V
 /W
 /X
 /Y
 /Z
 /bracketleft
 /backslash
 /bracketright
 /asciicircum
 /underscore
 /grave
 /a
 /b
 /c
 /d
 /e
 /f
 /g
 /h
 /i
 /j
 /k
 /l
 /m
 /n
 /o
 /p
 /q
 /r
 /s
 /t
 /u
 /v
 /w
 /x
 /y
 /z
 /braceleft
 /bar
 /braceright
 /asciitilde
 /.notdef
 /.notdef
 /.notdef
 /.notdef
 /.notdef
 /.notdef
 /.notdef
 /.notdef
 /.notdef
 /.notdef
 /.notdef
 /.notdef
 /.notdef
 /.notdef
 /.notdef
 /.notdef
 /.notdef
 /.notdef
 /.notdef
 /.notdef
 /.notdef
 /.notdef
 /.notdef
 /.notdef
 /.notdef
 /.notdef
 /.notdef
 /.notdef
 /.notdef
 /.notdef
 /.notdef
 /.notdef
 /.notdef
 /space
 /exclamdown
 /cent
 /sterling
 /currency
 /yen
 /brokenbar
 /section
 /dieresis
 /copyright
 /ordfeminine
 /guillemotleft
 /logicalnot
 /hyphen
 /registered
 /macron
 /degree
 /plusminus
 /twosuperior
 /threesuperior
 /acute
 /mu
 /paragraph
 /periodcentered
 /cedilla
 /onesuperior
 /ordmasculine
 /guillemotright
 /onequarter
 /onehalf
 /threequarters
 /questiondown
 /Agrave
 /Aacute
 /Acircumflex
 /Atilde
 /Adieresis
 /Aring
 /AE
 /Ccedilla
 /Egrave
 /Eacute
 /Ecircumflex
 /Edieresis
 /Igrave
 /Iacute
 /Icircumflex
 /Idieresis
 /Eth
 /Ntilde
 /Ograve
 /Oacute
 /Ocircumflex
 /Otilde
 /Odieresis
 /multiply
 /Oslash
 /Ugrave
 /Uacute
 /Ucircumflex
 /Udieresis
 /Yacute
 /Thorn
 /germandbls
 /agrave
 /aacute
 /acircumflex
 /atilde
 /adieresis
 /aring
 /ae
 /ccedilla
 /egrave
 /eacute
 /ecircumflex
 /edieresis
 /igrave
 /iacute
 /icircumflex
 /idieresis
 /eth
 /ntilde
 /ograve
 /oacute
 /ocircumflex
 /otilde
 /odieresis
 /divide
 /oslash
 /ugrave
 /uacute
 /ucircumflex
 /udieresis
 /yacute
 /thorn
 /ydieresis
] def
%%EndProlog
%%BeginSetup
PAGE_OFFSET_X PAGE_OFFSET_Y translate
612.00 612.00 scale
%%EndSetup
%%Page: 1 1
n
0.0000 0.0000 m
0.0000 1.2941 l
1.0000 1.2941 l
1.0000 0.0000 l
c
[/DeviceRGB] SCS
Color0 SC
fill
[/DeviceRGB] SCS
Color2 SC
[0.0037 0.0023 ] 0 SD
0.0008 SLW
0 SLC
0 SLJ
n
0.1042 0.6990 m
0.1083 0.6958 l
0.1125 0.6906 l
0.1167 0.6835 l
0.1208 0.6745 l
0.1250 0.6637 l
0.1292 0.6513 l
0.1333 0.6374 l
0.1375 0.6222 l
0.1417 0.6058 l
0.1458 0.5885 l
0.1500 0.5704 l
0.1542 0.5517 l
0.1583 0.5326 l
0.1625 0.5131 l
0.1667 0.4936 l
0.1708 0.4741 l
0.1750 0.4548 l
0.1792 0.4357 l
0.1833 0.4170 l
0.1875 0.3987 l
0.1917 0.3810 l
0.1958 0.3639 l
0.2000 0.3474 l
0.2042 0.3316 l
0.2083 0.3165 l
0.2125 0.3022 l
0.2167 0.2885 l
0.2208 0.2756 l
0.2250 0.2634 l
0.2292 0.2520 l
0.2333 0.2412 l
0.2375 0.2310 l
0.2417 0.2216 l
0.2458 0.2127 l
0.2500 0.2044 l
0.2542 0.1967 l
0.2583 0.1895 l
0.2625 0.1829 l
0.2667 0.1767 l
0.2708 0.1709 l
0.2750 0.1656 l
0.2792 0.1607 l
0.2833 0.1561 l
0.2875 0.1519 l
0.2917 0.1480 l
0.2958 0.1444 l
0.3000 0.1410 l
0.3042 0.1380 l
0.3083 0.1351 l
0.3125 0.1325 l
0.3167 0.1301 l
0.3208 0.1278 l
0.3250 0.1258 l
0.3292 0.1239 l
0.3333 0.1221 l
0.3375 0.1205 l
0.3433 0.1190 l
0.3463 0.1176 l
0.3500 0.1163 l
0.3917 0.1079 l
0.4333 0.1040 l
0.4750 0.1021 l
0.5167 0.1011 l
0.5583 0.1006 l
0.6000 0.1004 l
0.6417 0.1002 l
0.6833 0.1001 l
0.7250 0.1001 l
0.7667 0.1001 l
0.8083 0.1000 l
s
[/DeviceRGB] SCS
Color3 SC
[0.0015 0.0045 0.0075 0.0045 0.0015 0.0045 ] 0 SD
0.0015 SLW
n
0.1042 0.6998 m
0.1117 0.6983 l
0.1192 0.6955 l
0.1268 0.6913 l
0.1343 0.6859 l
0.1418 0.6793 l
0.1494 0.6716 l
0.1569 0.6630 l
0.1644 0.6535 l
0.1720 0.6433 l
0.1795 0.6324 l
0.1870 0.6211 l
0.1946 0.6094 l
0.2021 0.5974 l
0.2096 0.5852 l
0.2172 0.5729 l
0.2247 0.5606 l
0.2322 0.5484 l
0.2398 0.5362 l
0.2473 0.5242 l
0.2548 0.5124 l
0.2624 0.5008 l
0.2699 0.4894 l
0.2774 0.4784 l
0.2850 0.4676 l
0.2925 0.4572 l
0.3000 0.4470 l
0.3076 0.4372 l
0.3151 0.4276 l
0.3226 0.4184 l
0.3302 0.4095 l
0.3377 0.4009 l
0.3452 0.3927 l
0.3528 0.3847 l
0.3603 0.3770 l
0.3678 0.3695 l
0.3754 0.3624 l
0.3829 0.3554 l
0.3904 0.3488 l
0.3980 0.3424 l
0.4055 0.3362 l
0.4130 0.3303 l
0.4206 0.3245 l
0.4281 0.3190 l
0.4356 0.3136 l
0.4432 0.3085 l
0.4507 0.3035 l
0.4582 0.2988 l
0.4658 0.2941 l
0.4733 0.2897 l
0.4809 0.2854 l
0.4884 0.2812 l
0.4959 0.2772 l
0.5035 0.2733 l
0.5110 0.2696 l
0.5185 0.2660 l
0.5261 0.2625 l
0.5336 0.2591 l
0.5411 0.2558 l
0.5487 0.2526 l
0.5562 0.2496 l
0.5637 0.2466 l
0.5713 0.2437 l
0.5788 0.2409 l
0.5863 0.2382 l
0.5939 0.2356 l
0.6014 0.2330 l
0.6089 0.2305 l
0.6165 0.2281 l
0.6240 0.2258 l
0.6315 0.2236 l
0.6391 0.2214 l
0.6466 0.2192 l
0.6541 0.2172 l
0.6617 0.2151 l
0.6692 0.2132 l
0.6767 0.2113 l
0.6843 0.2094 l
0.6918 0.2076 l
0.6993 0.2059 l
0.7069 0.2041 l
0.7144 0.2025 l
0.7219 0.2009 l
0.7295 0.1993 l
0.7370 0.1977 l
0.7445 0.1962 l
0.7521 0.1948 l
0.7596 0.1933 l
0.7671 0.1920 l
0.7747 0.1906 l
0.7822 0.1893 l
0.7897 0.1880 l
0.7973 0.1867 l
0.8048 0.1855 l
0.8123 0.1843 l
0.8199 0.1831 l
0.8274 0.1819 l
0.8349 0.1808 l
0.8425 0.1797 l
0.8500 0.1786 l
s
[/DeviceRGB] SCS
Color4 SC
[] 0 SD
0.0015 SLW
n
0.1042 0.6997 m
0.1117 0.6976 l
0.1192 0.6937 l
0.1268 0.6879 l
0.1343 0.6803 l
0.1418 0.6712 l
0.1494 0.6606 l
0.1569 0.6488 l
0.1644 0.6359 l
0.1720 0.6221 l
0.1795 0.6076 l
0.1870 0.5925 l
0.1946 0.5771 l
0.2021 0.5615 l
0.2096 0.5457 l
0.2172 0.5300 l
0.2247 0.5144 l
0.2322 0.4990 l
0.2398 0.4840 l
0.2473 0.4692 l
0.2548 0.4549 l
0.2624 0.4410 l
0.2699 0.4276 l
0.2774 0.4147 l
0.2850 0.4022 l
0.2925 0.3902 l
0.3000 0.3787 l
0.3076 0.3677 l
0.3151 0.3572 l
0.3226 0.3472 l
0.3302 0.3375 l
0.3377 0.3284 l
0.3452 0.3196 l
0.3528 0.3113 l
0.3603 0.3033 l
0.3678 0.2957 l
0.3754 0.2884 l
0.3829 0.2815 l
0.3904 0.2750 l
0.3980 0.2687 l
0.4055 0.2627 l
0.4130 0.2570 l
0.4206 0.2515 l
0.4281 0.2463 l
0.4356 0.2414 l
0.4432 0.2366 l
0.4507 0.2321 l
0.4582 0.2278 l
0.4658 0.2236 l
0.4733 0.2197 l
0.4809 0.2159 l
0.4884 0.2123 l
0.4959 0.2088 l
0.5035 0.2055 l
0.5110 0.2023 l
0.5185 0.1993 l
0.5261 0.1963 l
0.5336 0.1935 l
0.5411 0.1909 l
0.5487 0.1883 l
0.5562 0.1858 l
0.5637 0.1834 l
0.5713 0.1811 l
0.5788 0.1789 l
0.5863 0.1768 l
0.5939 0.1748 l
0.6014 0.1728 l
0.6089 0.1709 l
0.6165 0.1691 l
0.6240 0.1674 l
0.6315 0.1657 l
0.6391 0.1640 l
0.6466 0.1625 l
0.6541 0.1610 l
0.6617 0.1595 l
0.6692 0.1581 l
0.6767 0.1567 l
0.6843 0.1554 l
0.6918 0.1541 l
0.6993 0.1529 l
0.7069 0.1517 l
0.7144 0.1505 l
0.7219 0.1494 l
0.7295 0.1483 l
0.7370 0.1473 l
0.7445 0.1463 l
0.7521 0.1453 l
0.7596 0.1443 l
0.7671 0.1434 l
0.7747 0.1425 l
0.7822 0.1417 l
0.7897 0.1408 l
0.7973 0.1400 l
0.8048 0.1392 l
0.8123 0.1384 l
0.8199 0.1377 l
0.8274 0.1369 l
0.8349 0.1362 l
0.8425 0.1356 l
0.8500 0.1349 l
s
[/DeviceRGB] SCS
Color1 SC
n
0.1000 0.1000 m
0.8500 0.1000 l
s
n
0.1000 0.7000 m
0.8500 0.7000 l
s
n
0.1417 0.1000 m
0.1417 0.1100 l
s
n
0.1417 0.7000 m
0.1417 0.6900 l
s
n
0.2250 0.1000 m
0.2250 0.1100 l
s
n
0.2250 0.7000 m
0.2250 0.6900 l
s
n
0.3083 0.1000 m
0.3083 0.1100 l
s
n
0.3083 0.7000 m
0.3083 0.6900 l
s
n
0.3917 0.1000 m
0.3917 0.1100 l
s
n
0.3917 0.7000 m
0.3917 0.6900 l
s
n
0.4750 0.1000 m
0.4750 0.1100 l
s
n
0.4750 0.7000 m
0.4750 0.6900 l
s
n
0.5583 0.1000 m
0.5583 0.1100 l
s
n
0.5583 0.7000 m
0.5583 0.6900 l
s
n
0.6417 0.1000 m
0.6417 0.1100 l
s
n
0.6417 0.7000 m
0.6417 0.6900 l
s
n
0.7250 0.1000 m
0.7250 0.1100 l
s
n
0.7250 0.7000 m
0.7250 0.6900 l
s
n
0.8083 0.1000 m
0.8083 0.1100 l
s
n
0.8083 0.7000 m
0.8083 0.6900 l
s
n
0.1000 0.1000 m
0.1000 0.1200 l
s
n
0.1000 0.7000 m
0.1000 0.6800 l
s
n
0.1833 0.1000 m
0.1833 0.1200 l
s
n
0.1833 0.7000 m
0.1833 0.6800 l
s
n
0.2667 0.1000 m
0.2667 0.1200 l
s
n
0.2667 0.7000 m
0.2667 0.6800 l
s
n
0.3500 0.1000 m
0.3500 0.1200 l
s
n
0.3500 0.7000 m
0.3500 0.6800 l
s
n
0.4333 0.1000 m
0.4333 0.1200 l
s
n
0.4333 0.7000 m
0.4333 0.6800 l
s
n
0.5167 0.1000 m
0.5167 0.1200 l
s
n
0.5167 0.7000 m
0.5167 0.6800 l
s
n
0.6000 0.1000 m
0.6000 0.1200 l
s
n
0.6000 0.7000 m
0.6000 0.6800 l
s
n
0.6833 0.1000 m
0.6833 0.1200 l
s
n
0.6833 0.7000 m
0.6833 0.6800 l
s
n
0.7667 0.1000 m
0.7667 0.1200 l
s
n
0.7667 0.7000 m
0.7667 0.6800 l
s
n
0.8500 0.1000 m
0.8500 0.1200 l
s
n
0.8500 0.7000 m
0.8500 0.6800 l
s
/Times-Roman findfont
dup length dict begin
 {1 index /FID ne {def} {pop pop} ifelse} forall
 /Encoding DefEncoding def
 currentdict
end
/Font0 exch definefont pop
/Font0 FFSF
0.0933 0.0712 m
GS
[0.0280 0.0000 0.0000 0.0280 0 0] CC
(0) show
GR
/Font0 FFSF
0.1778 0.0712 m
GS
[0.0280 0.0000 0.0000 0.0280 0 0] CC
(1) show
GR
/Font0 FFSF
0.2600 0.0712 m
GS
[0.0280 0.0000 0.0000 0.0280 0 0] CC
(2) show
GR
/Font0 FFSF
0.3439 0.0712 m
GS
[0.0280 0.0000 0.0000 0.0280 0 0] CC
(3) show
GR
/Font0 FFSF
0.4267 0.0712 m
GS
[0.0280 0.0000 0.0000 0.0280 0 0] CC
(4) show
GR
/Font0 FFSF
0.5106 0.0708 m
GS
[0.0280 0.0000 0.0000 0.0280 0 0] CC
(5) show
GR
/Font0 FFSF
0.5935 0.0708 m
GS
[0.0280 0.0000 0.0000 0.0280 0 0] CC
(6) show
GR
/Font0 FFSF
0.6771 0.0716 m
GS
[0.0280 0.0000 0.0000 0.0280 0 0] CC
(7) show
GR
/Font0 FFSF
0.7604 0.0712 m
GS
[0.0280 0.0000 0.0000 0.0280 0 0] CC
(8) show
GR
/Font0 FFSF
0.8435 0.0712 m
GS
[0.0280 0.0000 0.0000 0.0280 0 0] CC
(9) show
GR
/Font0 FFSF
0.3968 0.0412 m
GS
[0.0280 0.0000 0.0000 0.0280 0 0] CC
(Mach number) show
GR
n
0.1000 0.1000 m
0.1000 0.7000 l
s
n
0.8500 0.1000 m
0.8500 0.7000 l
s
n
0.1000 0.1300 m
0.1100 0.1300 l
s
n
0.8500 0.1300 m
0.8400 0.1300 l
s
n
0.1000 0.1900 m
0.1100 0.1900 l
s
n
0.8500 0.1900 m
0.8400 0.1900 l
s
n
0.1000 0.2500 m
0.1100 0.2500 l
s
n
0.8500 0.2500 m
0.8400 0.2500 l
s
n
0.1000 0.3100 m
0.1100 0.3100 l
s
n
0.8500 0.3100 m
0.8400 0.3100 l
s
n
0.1000 0.3700 m
0.1100 0.3700 l
s
n
0.8500 0.3700 m
0.8400 0.3700 l
s
n
0.1000 0.4300 m
0.1100 0.4300 l
s
n
0.8500 0.4300 m
0.8400 0.4300 l
s
n
0.1000 0.4900 m
0.1100 0.4900 l
s
n
0.8500 0.4900 m
0.8400 0.4900 l
s
n
0.1000 0.5500 m
0.1100 0.5500 l
s
n
0.8500 0.5500 m
0.8400 0.5500 l
s
n
0.1000 0.6100 m
0.1100 0.6100 l
s
n
0.8500 0.6100 m
0.8400 0.6100 l
s
n
0.1000 0.6700 m
0.1100 0.6700 l
s
n
0.8500 0.6700 m
0.8400 0.6700 l
s
n
0.1000 0.1000 m
0.1200 0.1000 l
s
n
0.8500 0.1000 m
0.8300 0.1000 l
s
n
0.1000 0.1600 m
0.1200 0.1600 l
s
n
0.8500 0.1600 m
0.8300 0.1600 l
s
n
0.1000 0.2200 m
0.1200 0.2200 l
s
n
0.8500 0.2200 m
0.8300 0.2200 l
s
n
0.1000 0.2800 m
0.1200 0.2800 l
s
n
0.8500 0.2800 m
0.8300 0.2800 l
s
n
0.1000 0.3400 m
0.1200 0.3400 l
s
n
0.8500 0.3400 m
0.8300 0.3400 l
s
n
0.1000 0.4000 m
0.1200 0.4000 l
s
n
0.8500 0.4000 m
0.8300 0.4000 l
s
n
0.1000 0.4600 m
0.1200 0.4600 l
s
n
0.8500 0.4600 m
0.8300 0.4600 l
s
n
0.1000 0.5200 m
0.1200 0.5200 l
s
n
0.8500 0.5200 m
0.8300 0.5200 l
s
n
0.1000 0.5800 m
0.1200 0.5800 l
s
n
0.8500 0.5800 m
0.8300 0.5800 l
s
n
0.1000 0.6400 m
0.1200 0.6400 l
s
n
0.8500 0.6400 m
0.8300 0.6400 l
s
n
0.1000 0.7000 m
0.1200 0.7000 l
s
n
0.8500 0.7000 m
0.8300 0.7000 l
s
/Font0 FFSF
0.0767 0.0908 m
GS
[0.0280 0.0000 0.0000 0.0280 0 0] CC
(0) show
GR
/Font0 FFSF
0.0578 0.1508 m
GS
[0.0280 0.0000 0.0000 0.0280 0 0] CC
(0.1) show
GR
/Font0 FFSF
0.0555 0.2108 m
GS
[0.0280 0.0000 0.0000 0.0280 0 0] CC
(0.2) show
GR
/Font0 FFSF
0.0567 0.2708 m
GS
[0.0280 0.0000 0.0000 0.0280 0 0] CC
(0.3) show
GR
/Font0 FFSF
0.0555 0.3308 m
GS
[0.0280 0.0000 0.0000 0.0280 0 0] CC
(0.4) show
GR
/Font0 FFSF
0.0567 0.3906 m
GS
[0.0280 0.0000 0.0000 0.0280 0 0] CC
(0.5) show
GR
/Font0 FFSF
0.0559 0.4506 m
GS
[0.0280 0.0000 0.0000 0.0280 0 0] CC
(0.6) show
GR
/Font0 FFSF
0.0563 0.5108 m
GS
[0.0280 0.0000 0.0000 0.0280 0 0] CC
(0.7) show
GR
/Font0 FFSF
0.0563 0.5708 m
GS
[0.0280 0.0000 0.0000 0.0280 0 0] CC
(0.8) show
GR
/Font0 FFSF
0.0559 0.6310 m
GS
[0.0280 0.0000 0.0000 0.0280 0 0] CC
(0.9) show
GR
/Font0 FFSF
0.0790 0.6906 m
GS
[0.0280 0.0000 0.0000 0.0280 0 0] CC
(1) show
GR
n
0.1000 0.1000 m
0.1000 0.7000 l
0.8500 0.7000 l
0.8500 0.1000 l
0.1000 0.1000 l
c
s
n
0.5500 0.6000 m
0.5500 0.4688 l
0.6821 0.4688 l
0.6821 0.6000 l
c
[/DeviceRGB] SCS
Color0 SC
fill
/Font0 FFSF
[/DeviceRGB] SCS
Color1 SC
0.6208 0.5712 m
GS
[0.0280 0.0000 0.0000 0.0280 0 0] CC
(P/P) show
GR
/Font0 FFSF
0.6596 0.5600 m
GS
[0.0198 0.0000 0.0000 0.0198 0 0] CC
(0) show
GR
[/DeviceRGB] SCS
Color2 SC
[0.0037 0.0023 ] 0 SD
0.0008 SLW
n
0.5608 0.5748 m
0.6008 0.5748 l
s
/Symbol findfont
/Font12 exch definefont pop
/Font12 FFSF
[/DeviceRGB] SCS
Color1 SC
0.6208 0.5308 m
GS
[0.0280 0.0000 0.0000 0.0280 0 0] CC
(r/r) show
GR
/Font12 FFSF
0.6592 0.5196 m
GS
[0.0198 0.0000 0.0000 0.0198 0 0] CC
(0) show
GR
[/DeviceRGB] SCS
Color3 SC
[0.0015 0.0045 0.0075 0.0045 0.0015 0.0045 ] 0 SD
0.0015 SLW
n
0.5608 0.5344 m
0.6008 0.5344 l
s
/Font0 FFSF
[/DeviceRGB] SCS
Color1 SC
0.6208 0.4903 m
GS
[0.0280 0.0000 0.0000 0.0280 0 0] CC
(T/T) show
GR
/Font0 FFSF
0.6627 0.4791 m
GS
[0.0198 0.0000 0.0000 0.0198 0 0] CC
(0) show
GR
[/DeviceRGB] SCS
Color4 SC
[] 0 SD
0.0015 SLW
n
0.5608 0.4940 m
0.6008 0.4940 l
s
/Font0 FFSF
[/DeviceRGB] SCS
Color1 SC
0.0579 0.7690 m
GS
[0.0420 0.0000 0.0000 0.0420 0 0] CC
(Static Properties As A Function of Mach Number) show
GR
/Font0 FFSF
0.0300 0.0300 m
GS
[0.0280 0.0000 0.0000 0.0280 0 0] CC
(Mon Jun  5 17:39:34 2006) show
GR
showpage
%%PageTrailer
%%Trailer
%%DocumentNeededResources: font Times-Roman
%%+ font Symbol
%%EOF
