%!PS-Adobe-2.0 EPSF-1.2
%%BoundingBox: 57 334 387 555
%%BeginPreview: 331 222 1 222
% 000000000006380000000000000000000000000000000000000000000000000000000000000000000000
% 00000000000c280000000000000000000000000000000000000000000000000000000000000000000000
% 0000000000062807fffffffffffffffffffffffffffffffffffffffffffffffffffffffffffffffffe00
% 00000000000229fc00000000000000000000000000000000000000000000000000000000000000000200
% 00000000000eb80400000000000000000000000000000000000000000000000000000000000000000200
% 000000000000000400000000000000000000000000000000000000000000000000000000000000000200
% 000000000000000400000000000000000000000000000000000000000000000000000000000000000200
% 000000000000000400000000000000000000000000000000000000000000000000000000000000000200
% 000000000000000400000000000000000000000000000000000000000000000000000000000000000200
% 0000000000000004001a8000080200000000000000000000000000000000000000000000000000000200
% 00000000000000040009000000020000000000000000000000000000000180001c000000000000000200
% 000000000000000400099f5acaaaad800000000000000000000000000001800014000000000000000200
% 00000000000000040009954acaaa8d800000000000000000000000000000000014000000000000000200
% 0000000000000004001a957acbaaed80000000000000000000000000000000001c000000000000000200
% 000000000000000400000000000000000000000000000000000000000000000000000000000000000200
% 000000000000000400000000000000000000000000000000000000000000000000000000000000000200
% 000000000000000400000000000000000000000000000000000000000000000000000000000000000200
% 000000000000000400000000000000000000000000000000000000000000000000000000000000000200
% 000000000006100400040000848000000000000000000000000000000000000000000000000000000200
% 0000000000063004000c0001858000000000000000000000000000000000000000000000000000000200
% 00000000000a3804000ad541458000000000000000000000000000000000000000000000000000000200
% 00000000000e29fc000e9141ca8000000000000000000000000000000000000000000000000000000200
% 000000000002b80400139de26ed000000000000000000000000000000000000000000000000000000200
% 0000000000000004000000200818000000000000000000000000000000000000000000001c0000000200
% 0000000000000004000000000000000000000000000000000000000000000000000000001c0000000200
% 0000000000000004000000000000000000000000000000000000000000000000000000000c0000000200
% 000000000000000400000000000000000000000000000000000000000000000000000000080000000200
% 000000000000000400000000000000000000000000000000000000000000000000000000000000000200
% 000000000000000400000000000000000000000000000000000000000000000000000000000000000200
% 000000000000000400000000000000000000000000000000000000000000000000000000000000000200
% 000000000000000400000000000000000000000000000000000000000000000000000000000000000200
% 000000000000000400000000000000000000000000000000000000000000000000000000000000000200
% 0000000000000004000000000000000000000000000000000000000000c0000e00000000000000000200
% 0000000000000004000000000000000000000000000000000000000000c0000a00000000000000000200
% 000000000000000400000000000000000000000000000000000000000000000a00000000000000000200
% 000000000000000400000000000000000000000000000000000000000000000e00000000000000000200
% 0000000000063804001c7000000000000000000000000000000000000000000000000000000000000200
% 000000000006280400145000000000000000000000000000000000000000000000000000000000000200
% 00000000000a080400145000000c00000000000000000000000000000000000000000000000000000200
% 00000000000e11fc00145000000c00000000000000000000000000000000000000000000000000000200
% 000000000002b804001d7000000000000000000000000000000000000000000000000000000000000200
% 000000000000000400000000000000000000000000000000000000000000000000000000000000000200
% 000000000000000400000000000000000000000000000000000000000000000000000000000000000200
% 000000000000000400000000000000000000000000000000000000000000000000000000000000000200
% 000000000000000400000000000000000000000000000000000000000000000000000007000000000200
% 0000000000000004001c7000000000000000000000000000000000000000000000000007000000000200
% 000000000000000400145000000000000000000000000000000000000000000000000003000000000200
% 000000000000000400141000000e00000000000000000000000000000000000000000002000000000200
% 000000000000000400142000000a00000000000000000000000000000000000000000000000000000200
% 0000000000000004001d7000000a00000000000000000000000000000000038000000000000000000200
% 000000000000000400000000000e00000000000000000000000000003000028000000000000000000200
% 000000000000000400000000000000000000000000000000000000003000028000000000000000000200
% 000000000000000400000000000000000000000000000000000000000000038000000000000000000200
% 000000000000000400000000000000000000000000000000000000000000000000000000000000000200
% 00000000000e3804001c3000000000000000000000000000000000000000000000000000000000000200
% 000000000002280400146000001c00000000000000000000000000000000000000000000000000000200
% 000000000006180400143000001c00000000000000000000000000000000000000000000000000000200
% 00000000000229fc00141000000c00000000000000000000000000000000000000000000000000000200
% 00000000000ea804001d7000000800000000000000000000000000000000000000000000000000000200
% 000000000000000400000000000000000000000000000000000000000000000000000000000000000200
% 000000000000000400000000000000000000000000000000000000000000000000000000000000000200
% 000000000000000400000000000000000000000000000000000000000000000000000380000000000200
% 000000000000000400000000000000000000000000000000000000000000000000000380000000000200
% 000000000000000400087000000000000000000000000000000000000000000000000180000000000200
% 000000000000000400085000000000000000000000000000000000000001c00000000100000000000200
% 000000000000000400085000000000000000000000000000000000000001400000000000000000000200
% 00000000000000040008500001ffe0000000000000000000000000180001400000000000000000000200
% 000000000000000400097000000000000000000000000000000000180001c00000000000000000000200
% 000000000000000400000000000000000000000000000000000000000000000000000000000000000200
% 000000000000000400000000000000000000000000000000000000000000000000000000000000000200
% 000000000000000400000000000000000000000000000000000000000000000000000000000000000200
% 000000000000000400000000000000000000000000000000000000000000000000000000000000000200
% 00000000000e180400087000000000000000000000000000000000000000000000000000000000000200
% 000000000002180400085000000000000000000000000000000000000000000000000000000000000200
% 00000000000628040008100000000000000000000000000000000000000000000000e000000000000200
% 00000000000239fc00082000000c0000000000000000000000000000000000000000e000000000000200
% 00000000000e880400097000000c00000000000000000000000000000000000000006000000000000200
% 0000000000000004000000000000000000000000000000000000000000e0000000004000000000000200
% 0000000000000004000000000000000000000000000000000000000000a0000000000000000000000200
% 00000000000000040000000000000000000000000000000000000c0000a0000000000000000000000200
% 00000000000000040000000000000000000000000000000000000c0000e0000000000000000000000200
% 0000000000000004001c7000000000000000000000000000000000000000000000000000000000000200
% 000000000000000400145000000000000000000000000000000000000000000000000000000000000200
% 000000000000000400045000000c00000000000000000000000000000000000000000000000000000200
% 000000000000000400085000000800000000000000000000000000000000000000000000000000000200
% 0000000000000004001d7000000c00000000000000000000000000000000000000700000000000000200
% 000000000000000400000000000000000000000000000000000000000000000000700000000000000200
% 387e00000000000400000000000000000000000000000000000000000000000000300000000000000200
% 2c9200000000000400000000000000000000000000000000000000003800000000200000000000000200
% 389200000000000400000000000000000000000000000000000000002800000000000000000000000200
% 20a2000000000004000c7000000000000000000000000000000300002800000000000000000000000200
% 60b20000000e380400185000000000000000000000000000000300003800000000000000000000000200
% ffff800000022804000c5000000e00000000000000000000000000000000000000000000000000000200
% 000000000006280400045000000e00000000000000000000000000000000000000000000000000000200
% 00000000000229fc001d7000000c00000000000000000000000000000000000038000000000000000200
% 38ba0000000eb80400000000000000000000000000000000000000000000000038000000000000000200
% 2d2900000000000400000000000000000000000000000000000000000000000018000000000000000200
% 392900000000000400000000000000000000000000000000000000000000000010000000000000000200
% 2129000000000004000000000000000000000000000000000000001c0000000000000000000000000200
% 613900000000000400000000000000000000000000000000000000140000000000000000000000000200
% 008200000000000400000000000000000000000000000000018000140000000000000000000000000200
% 0000000000000004000000000000000000000000000000000180001c0000000000000000000000000200
% 000000000000000400000000000000000000000000000000000000000000000e00000000000000000200
% 000000000000000400000000000000000000000000000000000000000000000e00000000000000000200
% 000000000000000400000000000000000000000000000000000000000000000600000000000000000200
% 000000000000000400000334000000000000000000000000000000000000000400000000000000000200
% 00000000000000040000032400000000000000000000000000000e000000000000000000000000000200
% 00000000000000040000052c0000031c000000000000000000000a000000000000000000000000000200
% 00000000000000040000076800000614000000000000000000000a000000000000000000000000000200
% 00000000000e100400003fffe01e0314000000000000000060000e000000070000000000000000000200
% 00000000000a300400000040000001140000000000000000600000000000070000000000000000000200
% 0000000000023804000000800000075c0000000000000000000000000000030000000000000000000200
% 00000000000429fc00000058000000000000000000000000000000000000020000000000000000000200
% 00000000000eb80400000048000000000000000000000000000000000000000000000000000000000200
% 000000000000000400000048000000000000000000000000000380000000000000000000000000000200
% 0000000000000004000000c8000000000000000000000000000280000003800000000000000000000200
% 0000000000000004000000f0000000000000000000000000000280000003800000000000000000000200
% 000000000000000400000000000000000000000000000030000380000001800000000000000000000200
% 000000000000000400000000000000000000000000000030000000000001000000000000000000000200
% 000000000000000400000000000000000000000000000000000000000000000000000000000000000200
% 00000000000000040000000000000000000000000000000001c000000000000000000000000000000200
% 0000000000000004000000000000000000000000000000000140000000e0000000000000000000000200
% 0000000000000004000000000000000000000000000000000140000000e0000000000000000000000200
% 00000000000000040000000000000000000000000000000001c000000060000000000000000000000200
% 000000000000000400000000000000000000000000001800000000000040000000000000000000000200
% 000000000000000400000000000000000000000000001800000000007000000000000000000000000200
% 000000000000000400000000000000000000000000000000700000007000000000000000000000000200
% 00000000000e380400000000000000000000000000000000500000003000000000000000000000000200
% 00000000000a280400000000000000000000000000000000500000002000000000000000000000000200
% 000000000002080400000000000000000000000000000000700000000000000000000000000000000200
% 00000000000411fc000000000000000000000000000000000000001c0000000000000000000000000200
% 00000000000eb804000000000000000000000000000600000000001c0000000000000000000000000200
% 0000000000000004000000000000000000000000000600380000000c0000000000000000000000000200
% 000000000000000400000000000000000000000000000028000000080000000000000000000000000200
% 00000000000000040000000000000000000000000000002800000e000000000000000000000000000200
% 00000000000000040000000000000000000000000000003800000e000000000000000000000000000200
% 000000000000000400000000000000000000000003000000000006000000000000000000000000000200
% 000000000000000400000000000000000000000003001c00000004000000000000000000000000000200
% 000000000000000400000000000000000000000000001400000700000000000000000000000000000200
% 000000000000000400000000000000000000000000001400000700000000000000000000000000000200
% 000000000000000400000000000000000000000000001c00000300000000000000000000000000000200
% 00000000000000040000000000000000000000000007000001c200000000000000000000000000000200
% 0000000000000004000000000000000000000000c005000001c000000000000000000000000000000200
% 0000000000000004000000000000000000000000c005000000c000000000000000000000000000000200
% 000000000000000400000000000000000000000000070000e08000000000000000000000000000000200
% 000000000004380400000000000000000000000003800000e00000000000000000000000000000000200
% 000000000004280400000000000000000000006002800000600000000000000000000000000020000200
% 0000000000041804000000000000000000000060028000704000000000000000000000000003c0000200
% 00000000000429fc00000000000000000000000003800070000000000000000000000000003c00000200
% 000000000004a804000000000000000000000001c000003000000000000000000000000003c000000200
% 000000000000000400000000000000000000300140001c200000000000000000000000007c0000000200
% 000000000000000400000000000000000000300140001c0000000000000000000000000f800000000200
% 0000000000000004000000000000000000000001c0000c000000000000000000000001f0000000000200
% 0000000000000004000000000000000000000070000e0800000000000000000000003e00000000000200
% 00000000000000040000000000000000000c0050000e00000000000000000000000f8000000000000200
% 00000000000000040000000000000000000c005003860000000000000000000003f00000000000000200
% 0000000000000004000000000000000000003870038400000000000000000000fc000000000000000200
% 0000000000000004000000000000000000002801c1800000000000000000003f00000000000000000200
% 0000000000000004000000000000000006002801c10000000000000000001fc000000000000000000200
% 00000000000000040000000000000000060e3800c0000000000000000007e00000000000000000000200
% 00000000000000040000000000000000000a00e0800000000000000003f8000000000000000000000200
% 00000000000000040000000000000003000a00e00000000000000001fc00000000000000000000000200
% 00000000000000040000000000000003070e386000000000000000f60000000000000000000000000200
% 00000000000418040000000000000000050038400000000000007f000000000000000000000000000200
% 000000000004180400000000000000c3851c180000000000007f800000000000000000030c1860000200
% 000000000004280400000000000000c28f1c1000000000003f800000000000000030c1830c1860000200
% 00000000000439fc00000000000000028e0c00000000001fc00000000000000c1830c180000000000200
% 000000000004880400000000000060e38608000000001ff0000000000061830c18000000000000000200
% 000000000000000400000000000060a384000000000fe000000000183061830000000000000000000200
% 000000000000000400000000000071e1800000000ef00000000306183000000000000000000000000200
% 000000000000000400000000001851e100000007f0000000618306000000000000000000000000000200
% 000000000000000400000000003870c0000007f800000c30618000000000000000000000000000000200
% 0000000000000004000000000c3870800003f80003060c30000000000000000000000000000000000200
% 0000000000000004000000000e38300003fc0060c3060000000000000000000000000000000000000200
% 0000000000000004000000061e382001fe003060c0000000000000000000000000000000000000000200
% 0000000000000004000000071e1001fe060c300000000000000000000000000000000000000000000200
% 0000000000000004000000070e00de01860c000000000000000000000000000000000000000000000200
% 0000000000000004000003c7087f60c18000000000000000000000000000000000000000000000000200
% 00000000000000040001c3c73f9860c0000000000000000000030c1830c1830c1860c1860c1860000200
% 00000000000000040001e1cfcc1800c3060c306183061830618208102081020810408104081040000200
% 00000000000000040070e7f60c306082040820410204102041030c1830c1830c1860c1860c1860000200
% 00000000000438043871f986082040c3060c306183061830618000000000000000000000000000000200
% 00000000000428043c7ee1860c3060000000000000000000000000000000000000000000000000000200
% 000000000004280e1ff8e1c38e1c70e1c70e1c70e3870e3870e3871c3871c3871c38e1c38e1c38000200
% 00000000000429fffffffffffffffffffffffffffffffffffffffffffffffffffffffffffffffffffe00
% 000000000004b80e1c30c1830c1860c1860c1860c3060c3060c30618306183061830c1830c1830000200
% 000000000000000e00000080000020000004000001000000200000080000010000004000000800000200
% 000000000000000e00000080000020000004000001000000200000080000010000004000000800000200
% 000000000000000400000080000020000004000001000000200000080000010000004000000800000200
% 000000000000000400000080000020000004000001000000200000080000010000004000000800000200
% 000000000000000400000080000020000004000001000000200000080000010000004000000800000200
% 000000000000000000000000000000000000000000000000000000000000000000000000000000000000
% 000000000000000000000000000000000000000000000000000000000000000000000000000000000000
% 000000000000000000000000000000000000000000000000000000000000000000000000000000000000
% 0000000000000071c0001c2000038e0000e380001c3000070c0000e1000038e000071c0001c5000010e0
% 00000000000000514000142000028a0000a0800014300005180000a300002820000514000145000010a0
% 0000000000000051400014200002820000a18000145000050c0000a38000282000050c000145000010a0
% 0000000000000051400014200002840000a0800014700005040000a280002840000514000141000010a0
% 0000000000000075c0001d200003ae0000eb80001d1000075c0000eb80003a400007540001d2000012e0
% 000000000000000000000000000000000000000000000000000000000000000000000000000000000000
% 000000000000000000000000000000000000000000000000000000000000000000000000000000000000
% 000000000000000000000000000000000000000000000000000000000000000000000000000000000000
% 000000000000000000000000000000000000000000000000000000000000000000000000000000000000
% 000000000000000000000000000000000000000000000000000000000000000000000000000000000000
% 000000000000000000000000000000000000000000000000000000000000000000000000000000000000
% 0000000000000000000000000000000000000006900002008002d0003e00000000000000000000000000
% 000000000000000000000000000000000000000240000000800080000800000000000000000000000000
% 000000000000000000000000000000000000000257d55aaaab6097d40800000000000000000000000000
% 000000000000000000000000000000000000000255515aaaa36095501000000000000000000000000000
% 0000000000000000000000000000000000000006955d5aeabb61955d1c00000000000000000000000000
% 000000000000000000000000000000000000000000000000000000010400000000000000000000000000
% 000000000000000000000000000000000000000000000000000000000000000000000000000000000000
% 000000000000000000000000000000000000000000000000000000000000000000000000000000000000
% 000000000000000000000000000000000000000000000000000000000000000000000000000000000000
% 000000000000000000000000000000000000000000000000000000000000000000000000000000000000
% 0000000000000000000000000000000000000002c240401b040001a00100000000000000000000000000
% 00000000000000000000000000000000000000044200400a040000800400000000000000000000000000
% 0000000000000000000000000000000000002b043a55570a555f509aad2a800000000000000000000000
% 0000000000000000000000000000000000002a041a55520c55554092a52a800000000000000000000000
% 0000000000000000000000000000000000003a42d255de0475d57193bf3a800000000000000000000000
% 000000000000000000000000000000000000004010000000000000000000000000000000000000000000
% 000000000000000000000000000000000000000020000000000000000000000000000000000000000000
%%EndImage
%%EndPreview
/InitDictCount countdictstack def
gsave
save
mark
newpath
/showpage {} def
%!PS-Adobe-3.0
%%Creator: psdit
%%For: i2.msi.umn.edu:meyerson (Genick Meyerson)
%%Title: stdin (ditroff)
%%CreationDate: Thu Oct 20 17:45:13 1994
%%DocumentNeededResources: (atend)
%%DocumentSuppliedResources: DIThacks
%%Pages: (atend)
%%EndComments
% psdit.pro -- prolog for ditroff translator
% Copyright (c) 1985,1987,1992 Adobe Systems Incorporated. All Rights
% Reserved.  
% GOVERNMENT END USERS: See Notice file in TranScript library directory
% -- probably /usr/lib/ps/Notice
% RCS: $Header: /disks/hobo/vp6/snichols/rel4.0/src/transcript/lib/RCS/psdit.pro,v 4.0 1992/08/21 15:38:20 snichols Exp $
/$DITroff 180 dict def $DITroff begin

% Psfig additions
/DocumentInitState [ matrix currentmatrix currentlinewidth currentlinecap
currentlinejoin currentdash currentgray currentmiterlimit ] cvx def

/startFig {
	/SavedState save def
	userdict maxlength dict begin
	currentpoint transform

	DocumentInitState setmiterlimit setgray setdash setlinejoin setlinecap
		setlinewidth setmatrix

	itransform moveto

	/ury exch def
	/urx exch def
	/lly exch def
	/llx exch def
	/y exch 72 mul resolution div def
	/x exch 72 mul resolution div def
	
	currentpoint /cy exch def /cx exch def

	/sx x urx llx sub div def 	% scaling for x
	/sy y ury lly sub div def	% scaling for y

	sx sy scale			% scale by (sx,sy)

	cx sx div llx sub
	cy sy div ury sub translate
	
	/DefFigCTM matrix currentmatrix def

	/initmatrix {
		DefFigCTM setmatrix
	} def
	/defaultmatrix {
		DefFigCTM exch copy
	} def

	/initgraphics {
		DocumentInitState setmiterlimit setgray setdash 
			setlinejoin setlinecap setlinewidth setmatrix
		DefFigCTM setmatrix
	} def

	/showpage {
		initgraphics
	} def

} def
% Args are llx lly urx ury (in figure coordinates)
/clipFig {
	currentpoint 6 2 roll
	newpath 4 copy
	4 2 roll moveto
	6 -1 roll exch lineto
	exch lineto
	exch lineto
	closepath clip
	newpath
	moveto
} def
% doclip, if called, will always be just after a `startfig'
/doclip { llx lly urx ury clipFig } def
/endFig {
	end SavedState restore
} def
/globalstart {
	% Push details about the enviornment on the stack.
	fontnum fontsize fontslant fontheight firstpage 
	mh my resolution slotno currentpoint 
	pagesave restore gsave 
} def
/globalend {
	grestore moveto
	/slotno exch def /resolution exch def /my exch def
	/mh exch def /firstpage exch def /fontheight exch def
	/fontslant exch def /fontsize exch def /fontnum exch def
	F
	/pagesave save def
} def

%% end XMOD additions
/fontnum 1 def /fontsize 10 def /fontheight 10 def /fontslant 0 def
/xi {/fontnum 1 def /fontsize 10 def /fontheight 10 def /fontslant 0 def F
  }def
/ps {/pagesave save def 72 mul 0 exch translate 72 resolution div dup neg
      scale 0 0 moveto } def
/PB{save /psv exch def currentpoint translate
  resolution 72 div dup neg scale 0 0 moveto}def
/PE{psv restore}def
/m1 matrix def /m2 matrix def /m3 matrix def /oldmat matrix def
/tan{dup sin exch cos div}bind def
/point{resolution 72 div mul}bind def
/dround	{transform round exch round exch itransform}bind def
/xT{/devname exch def}def
/xr{/mh exch def /my exch def /resolution exch def}def
/xp{}def
/xs{docsave restore end}def
/xt{}def
/xf{/fontname exch def /slotno exch def fontnames slotno get fontname eq not
 {fonts slotno fontname findfont put fontnames slotno fontname put}if}def
/xH{/fontheight exch def F}bind def
/xS{/fontslant exch def F}bind def
/s{/fontsize exch def /fontheight fontsize def F}bind def
/f{/fontnum exch def F}bind def
/F{fontheight 0 le {/fontheight fontsize def}if
   fonts fontnum get fontsize point 0 0 fontheight point neg 0 0 m1 astore
   fontslant 0 ne{1 0 fontslant neg tan 1 0 0 m2 astore m3 concatmatrix}if
   makefont setfont .04 fontsize point mul 0 dround pop setlinewidth}bind def
/X{exch currentpoint exch pop moveto show}bind def
/N{3 1 roll moveto show}bind def
/Y{exch currentpoint pop exch moveto show}bind def
/S /show load def
/ditpush{}def/ditpop{}def
/AX{3 -1 roll currentpoint exch pop moveto 0 exch ashow}bind def
/AN{4 2 roll moveto 0 exch ashow}bind def
/AY{3 -1 roll currentpoint pop exch moveto 0 exch ashow}bind def
/AS{0 exch ashow}bind def
/MX{currentpoint exch pop moveto}bind def
/MY{currentpoint pop exch moveto}bind def
/MXY /moveto load def
/cb{pop}def	% action on unknown char -- nothing for now
/n{}def/w{}def
/p{pop pagesave restore showpage}def
/abspoint{currentpoint exch pop add exch currentpoint pop add exch}def
/dstroke{currentpoint stroke moveto}bind def
/Dl{2 copy gsave rlineto stroke grestore rmoveto}bind def
/arcellipse{oldmat currentmatrix pop
 currentpoint translate 1 diamv diamh div scale /rad diamh 2 div def
 rad 0 rad -180 180 arc oldmat setmatrix}def
/Dc{gsave dup /diamv exch def /diamh exch def arcellipse dstroke 
    grestore diamh 0 rmoveto}def
/De{gsave /diamv exch def /diamh exch def arcellipse dstroke
    grestore diamh 0 rmoveto}def
/Da{currentpoint /by exch def /bx exch def /fy exch def /fx exch def
   /cy exch def /cx exch def /rad cx cx mul cy cy mul add sqrt def
   /ang1 cy neg cx neg atan def /ang2 fy fx atan def cx bx add cy by add
   2 copy rad ang1 ang2 arcn stroke exch fx add exch fy add moveto}def
/Barray 200 array def % 200 values in a wiggle
/D~{mark}def
/D~~{counttomark Barray exch 0 exch getinterval astore /Bcontrol exch def pop
 /Blen Bcontrol length def Blen 4 ge Blen 2 mod 0 eq and
 {Bcontrol 0 get Bcontrol 1 get abspoint /Ycont exch def /Xcont exch def
  Bcontrol 0 2 copy get 2 mul put Bcontrol 1 2 copy get 2 mul put
  Bcontrol Blen 2 sub 2 copy get 2 mul put
  Bcontrol Blen 1 sub 2 copy get 2 mul put
  /Ybi /Xbi currentpoint 3 1 roll def def 0 2 Blen 4 sub
  {/i exch def
   Bcontrol i get 3 div Bcontrol i 1 add get 3 div
   Bcontrol i get 3 mul Bcontrol i 2 add get add 6 div
   Bcontrol i 1 add get 3 mul Bcontrol i 3 add get add 6 div
   /Xbi Xcont Bcontrol i 2 add get 2 div add def
   /Ybi Ycont Bcontrol i 3 add get 2 div add def
   /Xcont Xcont Bcontrol i 2 add get add def
   /Ycont Ycont Bcontrol i 3 add get add def
   Xbi currentpoint pop sub Ybi currentpoint exch pop sub rcurveto
  }for dstroke}if}def
end
/ditstart{$DITroff begin
 /nfonts 60 def			% NFONTS makedev/ditroff dependent!
 /fonts[nfonts{0}repeat]def
 /fontnames[nfonts{()}repeat]def
/docsave save def
}def

% character outcalls
/oc {/pswid exch def /cc exch def /name exch def
   /ditwid pswid fontsize mul resolution mul 72000 div def
   /ditsiz fontsize resolution mul 72 div def
   ocprocs name known{ocprocs name get exec}{name cb}
   ifelse}def
/fractm [.65 0 0 .6 0 0] def
/fraction
 {/fden exch def /fnum exch def gsave /cf currentfont def
  cf fractm makefont setfont 0 .3 dm 2 copy neg rmoveto
  fnum show rmoveto currentfont cf setfont(\244)show setfont fden show 
  grestore ditwid 0 rmoveto} def
/oce {grestore ditwid 0 rmoveto}def
/dm {ditsiz mul}def
/ocprocs 50 dict def ocprocs begin
(14){(1)(4)fraction}def
(12){(1)(2)fraction}def
(34){(3)(4)fraction}def
(13){(1)(3)fraction}def
(23){(2)(3)fraction}def
(18){(1)(8)fraction}def
(38){(3)(8)fraction}def
(58){(5)(8)fraction}def
(78){(7)(8)fraction}def
(sr){gsave .05 dm .16 dm rmoveto(\326)show oce}def
(is){gsave 0 .15 dm rmoveto(\362)show oce}def
(->){gsave 0 .02 dm rmoveto(\256)show oce}def
(<-){gsave 0 .02 dm rmoveto(\254)show oce}def
(==){gsave 0 .05 dm rmoveto(\272)show oce}def
end
%%BeginResource: font DIThacks
% DIThacks fonts for some special chars
50 dict dup begin
/FontType 3 def
/FontName /DIThacks def
/FontMatrix [.001 0.0 0.0 .001 0.0 0.0] def
/FontBBox [-220 -280 900 900] def% a lie but ...
/Encoding 256 array def
0 1 255{Encoding exch /.notdef put}for
Encoding
 dup 8#040/space put %space
 dup 8#110/rc put %right ceil
 dup 8#111/lt put %left  top curl
 dup 8#112/bv put %bold vert
 dup 8#113/lk put %left  mid curl
 dup 8#114/lb put %left  bot curl
 dup 8#115/rt put %right top curl
 dup 8#116/rk put %right mid curl
 dup 8#117/rb put %right bot curl
 dup 8#120/rf put %right floor
 dup 8#121/lf put %left  floor
 dup 8#122/lc put %left  ceil
 dup 8#140/sq put %square
 dup 8#141/bx put %box
 dup 8#142/ci put %circle
 dup 8#143/br put %box rule
 dup 8#144/rn put %root extender
 dup 8#145/vr put %vertical rule
 dup 8#146/ob put %outline bullet
 dup 8#147/bu put %bullet
 dup 8#150/ru put %rule
 dup 8#151/ul put %underline
 pop
/DITfd 100 dict def
/BuildChar{0 begin
 /cc exch def /fd exch def
 /charname fd /Encoding get cc get def
 /charwid fd /Metrics get charname get def
 /charproc fd /CharProcs get charname get def
 charwid 0 fd /FontBBox get aload pop setcachedevice
 40 setlinewidth
 newpath 0 0 moveto gsave charproc grestore
 end}def
/BuildChar load 0 DITfd put
%/UniqueID 5 def
/CharProcs 50 dict def
CharProcs begin
/space{}def
/.notdef{}def
/ru{500 0 rls}def
/rn{0 750 moveto 500 0 rls}def
/vr{20 800 moveto 0 -770 rls}def
/bv{20 800 moveto 0 -1000 rls}def
/br{20 770 moveto 0 -1040 rls}def
/ul{0 -250 moveto 500 0 rls}def
/ob{200 250 rmoveto currentpoint newpath 200 0 360 arc closepath stroke}def
/bu{200 250 rmoveto currentpoint newpath 200 0 360 arc closepath fill}def
/sq{80 0 rmoveto currentpoint dround newpath moveto
    640 0 rlineto 0 640 rlineto -640 0 rlineto closepath stroke}def
/bx{80 0 rmoveto currentpoint dround newpath moveto
    640 0 rlineto 0 640 rlineto -640 0 rlineto closepath fill}def
/ci{355 333 rmoveto currentpoint newpath 333 0 360 arc
    50 setlinewidth stroke}def

/lt{20 -200 moveto 0 550 rlineto currx 800 2cx s4 add exch s4 a4p stroke}def
/lb{20 800 moveto 0 -550 rlineto currx -200 2cx s4 add exch s4 a4p stroke}def
/rt{20 -200 moveto 0 550 rlineto currx 800 2cx s4 sub exch s4 a4p stroke}def
/rb{20 800 moveto 0 -500 rlineto currx -200 2cx s4 sub exch s4 a4p stroke}def
/lk{20 800 moveto 20 300 -280 300 s4 arcto pop pop 1000 sub
    currentpoint stroke moveto
    20 300 4 2 roll s4 a4p 20 -200 lineto stroke}def
/rk{20 800 moveto 20 300 320 300 s4 arcto pop pop 1000 sub
    currentpoint stroke moveto
    20 300 4 2 roll s4 a4p 20 -200 lineto stroke}def
/lf{20 800 moveto 0 -1000 rlineto s4 0 rls}def
/rf{20 800 moveto 0 -1000 rlineto s4 neg 0 rls}def
/lc{20 -200 moveto 0 1000 rlineto s4 0 rls}def
/rc{20 -200 moveto 0 1000 rlineto s4 neg 0 rls}def
end

/Metrics 50 dict def Metrics begin
/.notdef 0 def
/space 500 def
/ru 500 def
/br 0 def
/lt 250 def
/lb 250 def
/rt 250 def
/rb 250 def
/lk 250 def
/rk 250 def
/rc 250 def
/lc 250 def
/rf 250 def
/lf 250 def
/bv 250 def
/ob 350 def
/bu 350 def
/ci 750 def
/bx 750 def
/sq 750 def
/rn 500 def
/ul 500 def
/vr 0 def
end

DITfd begin
/s2 500 def /s4 250 def /s3 333 def
/a4p{arcto pop pop pop pop}def
/2cx{2 copy exch}def
/rls{rlineto stroke}def
/currx{currentpoint pop}def
/dround{transform round exch round exch itransform} def
end
end
/DIThacks exch definefont pop
%%EndResource 
%%EndProlog
%%BeginSetup
ditstart
(psc)xT
576 1 1 xr
%%IncludeResource: font Times-Roman
1(Times-Roman)xf 1 f
%%IncludeResource: font Times-Italic
2(Times-Italic)xf 2 f
%%IncludeResource: font Times-Bold
3(Times-Bold)xf 3 f
%%IncludeResource: font Times-BoldItalic
4(Times-BoldItalic)xf 4 f
%%IncludeResource: font Helvetica
5(Helvetica)xf 5 f
%%IncludeResource: font Helvetica-Bold
6(Helvetica-Bold)xf 6 f
%%IncludeResource: font Courier
7(Courier)xf 7 f
%%IncludeResource: font Courier-Bold
8(Courier-Bold)xf 8 f
%%IncludeResource: font Symbol
9(Symbol)xf 9 f
10(DIThacks)xf 10 f
10 s
1 f
%%IncludeFeature: *PageSize Letter
xi
%%EndSetup

%%Page: 1 1
0.8 0.8 scale
11.00 ps
10 s 10 xH 0 xS 1 f
1185 2630 MXY
0 -1814 Dl
815 MY
2649 0 Dl
3835 MX
0 1814 Dl
2630 MY
-2649 0 Dl
7 s
9 f
1648 1194(*)N
5 s
10 f
1647 1285(`)N
7 s
9 f
1642 1376(\321)N
10 s
1609 1451 MXY
105 0 Dl
4 s
10 f
1650 1557(a)N
5 f
7 s
1647 1648(o)N
1 f
8 s
10 f
1651 1739(g)N
10 s
1 f
1317 922(Dimensionless)N
1317 1013(Area,)N
1514(A/)X
2 f
(A)S
7 s
1643 1029(c)N
1 f
10 s
1317 1194(0.0)N
1317 1285(0.2)N
1317 1376(0.5)N
1317 1467(1.0)N
1317 1557(1.2)N
1317 1648(2.0)N
1317 1739(5.0)N
1423 1884(4)N
2 f
(fL)S
1447 1956(D)N
1 f
1397 1886 MXY
158 0 Dl
1635 1902(=)N
2139 2890(Dimensionless)N
2630(Time,)X
2 f
2839(t)X
1 f
10 f
2832 2836(h)N
1 f
2861 2890(,)N
2034 2986(or,)N
2141(Cylinder)X
2441(Volume)X
2719(Fraction)X
1185 2634 MXY
-57 0 Dl
1007 2650(1.0)N
1185 2452 MXY
-57 0 Dl
1007 2468(1.4)N
1185 2271 MXY
-57 0 Dl
1007 2287(1.8)N
1185 2089 MXY
-57 0 Dl
1007 2105(2.2)N
1185 1908 MXY
-57 0 Dl
1007 1924(2.6)N
1185 1727 MXY
-57 0 Dl
1007 1743(3.0)N
1185 1545 MXY
-57 0 Dl
1007 1561(3.4)N
1185 1364 MXY
-57 0 Dl
1007 1380(3.8)N
1185 1182 MXY
-57 0 Dl
1007 1198(4.2)N
1185 1001 MXY
-57 0 Dl
1007 1017(4.6)N
1185 819 MXY
-57 0 Dl
1007 835(5.0)N
1185 2634 MXY
0 57 Dl
1135 2779(0.0)N
1450 2634 MXY
0 57 Dl
1400 2779(0.1)N
1715 2634 MXY
0 57 Dl
1665 2779(0.2)N
1980 2634 MXY
0 57 Dl
1930 2779(0.3)N
2245 2634 MXY
0 57 Dl
2195 2779(0.4)N
2510 2634 MXY
0 57 Dl
2460 2779(0.5)N
2775 2634 MXY
0 57 Dl
2725 2779(0.6)N
3040 2634 MXY
0 57 Dl
2990 2779(0.7)N
3305 2634 MXY
0 57 Dl
3255 2779(0.8)N
3570 2634 MXY
0 57 Dl
3520 2779(0.9)N
3835 2634 MXY
0 57 Dl
3785 2779(1.0)N
2 f
583 1710(P)N
1 f
645(\()X
2 f
672(t)X
1 f
10 f
665 1656(h)N
1 f
700 1710(\))N
2 f
577 1783(P)N
1 f
639(\(0\))X
734 1713 MXY
-158 0 Dl
1741 1910(5.0)N
7 s
9 f
1171 2654(*)N
1237 2638(*)N
1303 2620(*)N
1370 2602(*)N
1436 2582(*)N
1502 2560(*)N
1568 2538(*)N
1635 2514(*)N
1701 2488(*)N
1767 2460(*)N
1833 2429(*)N
1900 2396(*)N
1966 2360(*)N
2032 2321(*)N
2098 2278(*)N
2165 2232(*)N
2231 2180(*)N
2297 2123(*)N
2363 2060(*)N
2429 1990(*)N
2496 1911(*)N
2562 1821(*)N
2628 1720(*)N
2694 1605(*)N
2761 1472(*)N
2827 1317(*)N
2893 1135(*)N
2959 919(*)N
5 s
10 f
1170 2654(`)N
1236 2638(`)N
1302 2622(`)N
1369 2605(`)N
1435 2587(`)N
1501 2569(`)N
1567 2550(`)N
1634 2529(`)N
1700 2507(`)N
1766 2484(`)N
1832 2460(`)N
1899 2434(`)N
1965 2405(`)N
2031 2376(`)N
2097 2343(`)N
2164 2308(`)N
2230 2270(`)N
2296 2229(`)N
2362 2184(`)N
2428 2134(`)N
2495 2080(`)N
2561 2020(`)N
2627 1953(`)N
2693 1878(`)N
2760 1793(`)N
2826 1697(`)N
2892 1586(`)N
2958 1459(`)N
3025 1310(`)N
3091 1133(`)N
3157 920(`)N
7 s
9 f
1165 2654(\321)N
1231 2639(\321)N
1297 2625(\321)N
1364 2611(\321)N
1430 2596(\321)N
1496 2581(\321)N
1562 2566(\321)N
1629 2550(\321)N
1695 2534(\321)N
1761 2517(\321)N
1827 2500(\321)N
1894 2481(\321)N
1960 2462(\321)N
2026 2443(\321)N
2092 2422(\321)N
2159 2400(\321)N
2225 2377(\321)N
2291 2352(\321)N
2357 2327(\321)N
2423 2299(\321)N
2490 2270(\321)N
2556 2237(\321)N
2622 2203(\321)N
2688 2166(\321)N
2755 2126(\321)N
2821 2081(\321)N
2887 2032(\321)N
2953 1977(\321)N
3020 1915(\321)N
3086 1846(\321)N
3152 1767(\321)N
3218 1674(\321)N
3285 1564(\321)N
3351 1433(\321)N
3417 1269(\321)N
3483 1059(\321)N
4 s
10 f
1173 2654(a)N
5 f
7 s
1170(o)X
1 f
8 s
10 f
1174(g)X
10 s
1185 2638 MXY
66 -13 Dl
4 s
1239 2641(a)N
5 f
7 s
1236 2643(o)N
1 f
8 s
10 f
1240 2649(g)N
10 s
1251 2624 MXY
66 -11 Dl
4 s
1305 2630(a)N
5 f
7 s
1302 2636(o)N
1 f
8 s
10 f
1306 2647(g)N
10 s
1317 2613 MXY
66 -10 Dl
4 s
1372 2620(a)N
5 f
7 s
1369 2630(o)N
1 f
8 s
10 f
1373 2647(g)N
10 s
1384 2602 MXY
66 -10 Dl
4 s
1438 2612(a)N
5 f
7 s
1435 2625(o)N
1 f
8 s
10 f
1439 2647(g)N
10 s
1450 2592 MXY
66 -9 Dl
4 s
1504 2603(a)N
5 f
7 s
1501 2621(o)N
1 f
8 s
10 f
1505 2647(g)N
10 s
1516 2581 MXY
66 -9 Dl
4 s
1570 2595(a)N
5 f
7 s
1567 2617(o)N
1 f
8 s
10 f
1571 2647(g)N
10 s
1582 2571 MXY
66 -9 Dl
4 s
1637 2587(a)N
5 f
7 s
1634 2615(o)N
1 f
8 s
10 f
1638 2647(g)N
10 s
1649 2562 MXY
66 -9 Dl
4 s
1703 2580(a)N
5 f
7 s
1700 2612(o)N
1 f
8 s
10 f
1704 2647(g)N
10 s
1715 2552 MXY
66 -9 Dl
4 s
1769 2573(a)N
5 f
7 s
1766 2611(o)N
1 f
8 s
10 f
1770 2647(g)N
10 s
1781 2544 MXY
66 -9 Dl
4 s
1835 2566(a)N
5 f
7 s
1832 2609(o)N
1 f
8 s
10 f
1836 2647(g)N
10 s
1847 2535 MXY
66 -9 Dl
4 s
1902 2560(a)N
5 f
7 s
1899 2608(o)N
1 f
8 s
10 f
1903 2647(g)N
10 s
1914 2525 MXY
66 -8 Dl
4 s
1968 2553(a)N
5 f
7 s
1965 2606(o)N
1 f
8 s
10 f
1969 2647(g)N
10 s
1980 2517 MXY
66 -8 Dl
4 s
2034 2547(a)N
5 f
7 s
2031 2605(o)N
1 f
8 s
10 f
2035 2647(g)N
10 s
2046 2508 MXY
66 -8 Dl
4 s
2100 2541(a)N
5 f
7 s
2097 2605(o)N
1 f
8 s
10 f
2101 2647(g)N
10 s
2112 2499 MXY
66 -8 Dl
4 s
2167 2536(a)N
5 f
7 s
2164 2604(o)N
1 f
8 s
10 f
2168 2647(g)N
10 s
2179 2490 MXY
66 -8 Dl
4 s
2233 2530(a)N
5 f
7 s
2230 2603(o)N
1 f
8 s
10 f
2234 2647(g)N
10 s
2245 2482 MXY
66 -8 Dl
4 s
2299 2525(a)N
5 f
7 s
2296 2603(o)N
1 f
8 s
10 f
2300 2647(g)N
10 s
2311 2472 MXY
66 -8 Dl
4 s
2365 2519(a)N
5 f
7 s
2362 2602(o)N
1 f
8 s
10 f
2366 2647(g)N
10 s
2377 2464 MXY
66 -8 Dl
4 s
2431 2514(a)N
5 f
7 s
2428 2602(o)N
1 f
8 s
10 f
2432 2647(g)N
10 s
2443 2455 MXY
66 -9 Dl
4 s
2498 2509(a)N
5 f
7 s
2495 2602(o)N
1 f
8 s
10 f
2499 2647(g)N
10 s
2510 2446 MXY
66 -9 Dl
4 s
2564 2504(a)N
5 f
7 s
2561 2602(o)N
1 f
8 s
10 f
2565 2647(g)N
10 s
2576 2437 MXY
66 -9 Dl
4 s
2630 2499(a)N
5 f
7 s
2627 2601(o)N
1 f
8 s
10 f
2631 2647(g)N
10 s
2642 2428 MXY
66 -9 Dl
4 s
2696 2495(a)N
5 f
7 s
2693 2601(o)N
1 f
8 s
10 f
2697 2647(g)N
10 s
2708 2419 MXY
66 -9 Dl
4 s
2763 2490(a)N
5 f
7 s
2760 2601(o)N
1 f
8 s
10 f
2764 2647(g)N
10 s
2775 2410 MXY
66 -9 Dl
4 s
2829 2486(a)N
5 f
7 s
2826 2601(o)N
1 f
8 s
10 f
2830 2647(g)N
10 s
2841 2400 MXY
66 -9 Dl
4 s
2895 2481(a)N
5 f
7 s
2892 2601(o)N
1 f
8 s
10 f
2896 2647(g)N
10 s
2907 2390 MXY
66 -9 Dl
4 s
2961 2477(a)N
5 f
7 s
2958 2601(o)N
1 f
8 s
10 f
2962 2647(g)N
10 s
2973 2380 MXY
66 -10 Dl
4 s
3028 2473(a)N
5 f
7 s
3025 2601(o)N
1 f
8 s
10 f
3029 2647(g)N
10 s
3040 2370 MXY
66 -10 Dl
4 s
3094 2469(a)N
5 f
7 s
3091 2601(o)N
1 f
8 s
10 f
3095 2647(g)N
10 s
3106 2360 MXY
66 -10 Dl
4 s
3160 2465(a)N
5 f
7 s
3157 2601(o)N
1 f
8 s
10 f
3161 2647(g)N
10 s
3172 2349 MXY
66 -10 Dl
4 s
3226 2461(a)N
5 f
7 s
3223 2601(o)N
1 f
8 s
10 f
3227 2647(g)N
10 s
3238 2338 MXY
66 -11 Dl
4 s
3293 2458(a)N
5 f
7 s
3290 2601(o)N
1 f
8 s
10 f
3294 2647(g)N
10 s
3305 2326 MXY
66 -12 Dl
4 s
3359 2454(a)N
5 f
7 s
3356 2601(o)N
1 f
8 s
10 f
3360 2647(g)N
10 s
3371 2314 MXY
66 -13 Dl
4 s
3425 2451(a)N
5 f
7 s
3422 2601(o)N
1 f
8 s
10 f
3426 2647(g)N
10 s
3437 2301 MXY
66 -13 Dl
4 s
3491 2448(a)N
5 f
7 s
3488 2601(o)N
1 f
8 s
10 f
3492 2647(g)N
10 s
3503 2287 MXY
66 -15 Dl
4 s
3558 2445(a)N
5 f
7 s
3555 2601(o)N
1 f
8 s
10 f
3559 2647(g)N
10 s
3570 2272 MXY
66 -17 Dl
4 s
3624 2442(a)N
5 f
7 s
3621 2601(o)N
1 f
8 s
10 f
3625 2646(g)N

1 p
%%Trailer
xt
%%Pages: 1
%%DocumentNeededResources: font Times-Roman Times-Italic Times-Bold 
%%+ Times-BoldItalic Helvetica Helvetica-Bold Courier Courier-Bold Symbol 

xs
countdictstack InitDictCount sub { end } repeat
cleartomark
restore
grestore
