%!PS-Adobe-2.0 EPSF-1.2
%%Creator: SuperPaint
%%Title: ROOT.ps
%%CreationDate: 10/27/97
%%BoundingBox: 0 0 576 776 
%%Pages 1
%%DocumentFonts: Symbol
%%+Times-Roman
%%DocumentNeededFonts: Symbol
%%+Times-Roman
%%DocumentProcSets: BeachHead 1 0
%%+gr_d 1 0
%%DocumentSuppliedProcSets: BeachHead 1 0
%%+gr_d 1 0
%%BeginProcSet: BeachHead 1 0
% BeachHead - v1 Copyright 1991 Silicon Beach Software, inc.
userdict begin/BeachHead 100 dict def BeachHead end begin
/BeachHead_version 1 def/c 75 string def/oldmatrix 6 array def/newmatrix 6 array def/a{bind def}bind def/b{exch def}a
/_doTexturePat false def/nulld{counttomark{null def}repeat pop}a mark/l/m/o/q/r/u/v/w/x/y/z/A
/B/D/E/F/G/H/I/J/K/M/N/O/P/Q/R/S/T/V/W/X/Y/ba/ca/da/ea/fa/ga/ha/ia/ja/ka/la/ma/_strtxtmatrix nulld
/d{0 1 74{c exch 0 put}for dup c cvs pop c}a/e{d 74 1 put}a/f{d 74 2 put}a/g{d 73 1 put}a
/h{d 72 1 put}a/i{d 71 1 put}a/j{1 currentrgbcolor 1 index eq 3 1 roll eq and{currentgray sub}if setgray}a
/k{/FontInfo 2 dict def FontInfo /FullName c dup length string copy put FontInfo/UnderlinePosition
100 l/FontInfo known{l/FontInfo get/UnderlinePosition known{pop l/FontInfo get/UnderlinePosition get
}if}if put/m 1 string def/FontBBox[0 0 1 1]def/FontType 3 def/Encoding l/Encoding get def}a
/n{/o 13 dict def o begin/l b k/_isSBShadowFont l/_isSBShadowFont known{l/_isSBShadowFont get}
{false}ifelse def/BuildChar{exch begin m 0 3 -1 roll put l setfont m stringwidth setcharwidth
0 0 moveto m show end}def}a/p{/o 16 dict def o begin/q b/r b/l b/FontMatrix[1 0 0 1 0 0]def k}a/s{exch begin m 0 3 -1 roll put
l setfont m stringwidth FontMatrix 0 get dup 20 le{pop 1 index 0 ne{exch q add exch}if
}{40 le{1 index 0 ne{exch q 2 div add exch}if}if}ifelse setcharwidth 0 0 moveto gsave}a
/t{dup length 1 add dict/o b dup{1 index/FID ne 2 index/UniqueID ne and{o 3 1 roll put}
{pop pop}ifelse}forall o begin/PaintType 2 def/StrokeWidth 12 def end/_ o definefont}a
/findoutlinefont{userdict/BeachHead get begin e FontDirectory c known{pop c findfont}
{findfont t .02 p/_isSBShadowFont false def/BuildChar{userdict/BeachHead get begin s j
m show grestore gsave r setfont m show grestore end	end}def end c o definefont}ifelse end}a
/findshadowfont{userdict/BeachHead get begin f FontDirectory c known{pop c findfont}{findfont
t .05 p/_isSBShadowFont true def/BuildChar{userdict/BeachHead get begin s q dup neg rmoveto
m show grestore gsave j m show grestore gsave r setfont m show grestore end	end}def end
c o definefont}ifelse end}a/addheavy{userdict/BeachHead get begin dup/FontInfo known{dup/FontInfo get/FullName known
{dup/FontInfo get/FullName get h pop FontDirectory c known{pop c findfont}{n/FontMatrix[1 0 0 1 0 0]def
/BuildChar{exch begin m 0 3 -1 roll put l setfont m stringwidth exch .02 add exch setcharwidth
0 0 moveto m show .04 0 moveto m show end}def end c o definefont}ifelse}if}if end}a
/addoblique{userdict/BeachHead get begin dup/FontInfo known{dup/FontInfo get/FullName known
{dup/FontInfo get/FullName get g pop FontDirectory c known{pop c findfont}{n/FontMatrix[1 0 .17 1 0 0]def
end c o definefont}ifelse}if}if end}a/adduline{userdict/BeachHead get begin dup/FontInfo known
{dup/FontInfo get/FullName known{dup/FontInfo get/FullName get i pop FontDirectory c known
{pop c findfont}{n/FontMatrix[1 0 0 1 0 0]def/BuildChar{exch begin m 0 3 -1 roll put
l setfont m stringwidth setcharwidth 0 0 moveto m show .05 setlinewidth 0 setlinecap
FontInfo/UnderlinePosition get 1000 div dup 0 exch moveto 0 exch m stringwidth 3 -1 roll add
3 1 roll add exch lineto stroke end}def end c o definefont}ifelse}if}if end}a
/EPSBegin{save userdict/BeachHead get begin/la b count/ma b userdict/showpage{}put end
0 setgray 0 setlinecap 1 setlinewidth 0 setlinejoin 10 setmiterlimit [] 0 setdash newpath}a
/EPSEnd{userdict/BeachHead get begin count ma sub dup 0 gt{{pop}repeat}{pop}ifelse la end restore}a
/cimage{userdict/BeachHead get begin{{readstring}}{{readhexstring}}ifelse/u b/colorimage where
{pop 4 index dup string/v b dup string/w b dup string/x b dup string/y b string/z b
{currentfile v u pop}{currentfile w u pop}{currentfile x u pop}{currentfile y u pop
currentfile z u pop pop}5 -1 roll{true 4 A}{true 4/colorimage load exec}ifelse}{4 index
dup string/z b 4 mul string/B b{currentfile B u pop pop currentfile z u pop}
exch{transimage}{/image load exec}ifelse}ifelse end}a/C{D{gsave E F 3 index idtransform translate
G 1 4 index 4 index{H}/image load exec grestore/I 0 def/G 0 def/D false def}if}a
/transimage{userdict/BeachHead get begin 2 index 8 ne{/image load exec}{4 index cvi string
/H b/J 0 string def/K 0 def/D false def/I 0 def/G 0 def 0 1 5 index 1 sub{/F b 0 1 6 index 1 sub
{K J length ge{1 index dup type/stringtype ne{exec}if/J b/K 0 def}if J K get/K K 1 add def
dup 255 eq{pop pop C}{H I 3 -1 roll put/I I 1 add def/G G 1 add def D not{/E b/G 1 def
/D true def}{pop}ifelse}ifelse}for C}for 5{pop}repeat}ifelse end}a/L{D{gsave E F 8 index
idtransform translate I 1 8 9 index{M}{N}{O}{P}true 4/colorimage load exec grestore/I 0 def
/D false def}if}a/A{9 index cvi dup string/M b dup string/N b dup string/O b string/P b
/Q 0 string def/K 0 def/D false def/I 0 def/G 0 def 0 1 10 index 1 sub{/F b 0 1 11 index 1 sub
{K Q length ge{6 index exec/R b 5 index exec/S b 4 index exec/T b 3 index exec/Q b/K 0 def
}if R K get S K get T K get Q K get/K K 1 add def dup 0 eq 2 index 0 eq and 3 index 0 eq and
4 index 0 eq and{5{pop}repeat L}{M I 6 -1 roll put N I 5 -1 roll put O I 4 -1 roll put
P I 3 -1 roll put/I I 1 add def D not{/E b/D true def}{pop}ifelse}ifelse}for L}for 10{pop}repeat}a
/bps 8 string def/bpm[8 0 0 8 0 0]def/bpp{bps}def
/overlaybackpat{userdict/BeachHead get begin gsave setrgbcolor bps copy pop dup 0 get 8 div floor cvi
8 mul 1 index 2 get 8 div floor cvi 8 mul 2 index 1 get 8 div floor cvi 8 mul 8 4 index 3 get 8 div
floor cvi 8 mul{2 index 8 3 index{1 index gsave translate 8 8 scale 8 8 false bpm/bpp load imagemask
grestore}for pop}for pop pop pop grestore end}a
/U{userdict/BeachHead get begin/V b/W b countdictstack save V 2 add 2 roll count V sub /X b
/W load end{exec}stopped userdict/BeachHead get begin/Y b count X sub{pop}repeat Y 3 1 roll
restore countdictstack exch sub{end}repeat end}a/Z( )def/aa{moveto{ba setfont Z end gsave
0 setgray stringwidth grestore userdict/BeachHead get begin rmoveto/ca load null ne{/da da
1 add def da ea length le{fa ea da get ca}if}{ax ay rmoveto fa ga eq{cx cy rmoveto}if}ifelse}stopped
currentdict userdict/BeachHead get ne{userdict/BeachHead get begin}if}a
/filltextpath{userdict/BeachHead get begin/ea b dup type dup/integertype eq exch/realtype eq or
{/ay b/ax b/ga b/cy b/cx b/ca null def}{/ca b}ifelse/ha b/ia b ia{currentfont/_isSBShadowFont get
{gsave 0 setgray/ca load null ne{/ca load ea kshow}{cx cy ga ax ay ea awidthshow}ifelse
grestore}if}if gsave currentfont ia{begin r FontMatrix makefont l FontMatrix makefont end
}{null exch}ifelse/ja b/ka b/ba currentfont def _doTexturePat{systemdict/makepattern known}
{false}ifelse{matrix currentmatrix _strtxtmatrix null ne{_strtxtmatrix setmatrix}if 1 -1 scale
txTrnsX txTrnsY translate settexturepat setmatrix/da 0 def ea{/fa b Z 0 fa put ja setfont currentpoint
Z show aa{exit}if}forall}{10 setlinewidth/da 0 def currentpoint newpath 0 dup dup dup moveto lineto
closepath moveto ea{/fa b Z 0 fa put currentpoint ja setfont count 1 add dup 1 roll Z true{charpath}stopped
count count -1 roll sub{pop}repeat currentpoint{ha}0 U pop newpath 0 dup dup dup moveto
lineto closepath moveto aa{exit}if}forall}ifelse grestore ka null ne{gsave 0 setgray/da
0 def ea{/fa b Z 0 fa put ka setfont currentpoint Z show aa{exit}if}forall grestore}if
/_doTexturePat false def/_strtxtmatrix null def end}a end
%%EndProcSet
%%BeginProcSet: gr_d 1 0
% g! - v1 - Copyright 1991 Silicon Beach Software, Inc.
userdict/gr_d known not{userdict begin/gr_d 50 dict def/gr_b{gr_d begin}bind def/gr_e
{end end}bind def gr_b/bd{bind def}bind def/g_ea[]def/g_mg 60 def/g_xg 250 def/g_ss{currentscreen
/g_a exch def/g_b exch def/g_c exch def/g_a load type dup/arraytype eq exch/packedarraytype eq
or{/g_ng 72 g_c div dup matrix defaultmatrix dtransform mul abs def g_ng g_mg lt{/g_c g_c g_mg g_ng
div sqrt div def g_c g_b/g_a load setscreen/g_ng g_mg def}if g_ng g_xg gt{/g_ng g_xg def}if}
{/g_ng g_xg def}ifelse g_ea 0 setdash}bd/msc{0 index 2 index eq 2 index 4 index eq and{pop pop
setgray}{setrgbcolor}ifelse}bd/fmd{4 index 3 index add 2 div add exch 5 index
4 index add 2 div add 0 index 6 index sub dup mul 2 index 6 index sub dup mul add 1 index
5 index sub dup mul 3 index 7 index sub dup mul add 2 index 6 index sub dup mul 4 index 6
index sub dup mul add 3 index 9 index sub dup mul 5 index 7 index sub dup mul add 1 1 3{pop
2 copy lt{exch}if pop}for sqrt[8 2 roll cleartomark}bd/g_lf{gsave /g_noeo exch def dup/a exch def/b exch def
dup/c exch def/d exch def dup/e exch def/f exch def dup/g exch def/h exch def/i exch def/j
exch def/k exch def g_noeo{clip}{eoclip}ifelse newpath g_ss j 0 eq{i 0 lt{g i add/g exch def d i sub/d exch def}
{h i sub/h exch def c i add/c exch def}ifelse/l g def/m e def/n h def/o a def/p c g sub
def/q 0 def}{i 0 lt{f i add/f exch def a i sub/a exch def}{e i sub/e exch def b i add/b
exch def}ifelse/l g def/m e def/n c def/o f def/p 0 def/q a e sub def}ifelse k{/r exch def
r 0 get/s exch def r 1 get/t exch def r 2 get/u exch def/v s 0 get def/w s 1 get def/x s 2
get def/y t 0 get v sub g_ng div def/z t 1 get w sub g_ng div def/A t 2 get x sub g_ng div
def/B p u mul g_ng div def/C q u mul g_ng div def B C gt{B}{C}ifelse setlinewidth newpath
0 1 g_ng{pop v w x msc l m moveto n o lineto stroke v y add/v exch def w z add/w exch def
x A add/x exch def l B add/l exch def m C add/m exch def n B add/n exch def o C add /o exch
def}for}forall grestore}bd/g_bf{gsave/g_noeo exch def/a exch def/b exch def/c exch def/d exch def/e exch
def/f exch def/g exch def g_noeo{clip}{eoclip}ifelse newpath g_ss/h b d sub def/i a c sub def/j d c b a f e fmd
def d b add 2 div f add dup j sub/d exch def j add/b exch def c a add 2 div e add dup j
sub/c exch def j add/a exch def g{/k exch def k 0 get/l exch def k 1 get/m exch def k 2
get/n exch def/o l 0 get def/p l 1 get def/q l 2 get def/r m 0 get o sub g_ng div def/s m
1 get p sub g_ng div def/t m 2 get q sub g_ng div def/w j n mul g_ng div def 0 1 g_ng{pop
o p q msc newpath d c moveto b c lineto b a lineto d a lineto closepath fill o r add/o
exch def p s add/p exch def q t add/q exch def d w add/d exch def c w add/c exch def b w
sub/b exch def a w sub/a exch def}for}forall grestore}bd/g_cf{gsave/g_noeo exch def/a exch def/b exch def/c
exch def/d exch def/e exch def/f exch def/g exch def g_noeo{clip}{eoclip}ifelse newpath g_ss/h b d sub def/i a c
sub def/j d c b a f e fmd def/k j def/l d h 2 div add f add def/m c i 2 div add e add
def/n true def g{/o exch def o 0 get/p exch def o 1 get/q exch def o 2 get/r exch def/s p
0 get def/t p 1 get def/u p 2 get def/v q 0 get s sub g_ng div def/w q 1 get t sub g_ng div
def/x q 2 get u sub g_ng div def/A j r mul g_ng div def 0 1 g_ng{pop s t u msc newpath n{d
c moveto b c lineto b a lineto d a lineto/n false def}{l m k 0 360 arc}ifelse closepath
fill s v add/s exch def t w add/t exch def u x add/u exch def k A sub/k exch def}for}forall
grestore}bd/g_cvf{gsave/g_noeo exch def pop pop pop pop pop/a exch def/b exch def g_noeo{clip}{eoclip}ifelse g_ss g_c a mul 72
div dup g_ng gt{pop}{/g_ng exch def}ifelse/g_ng g_ng round def/c a 2 mul def/d true def b
length 1 sub -1 0{b exch get/e exch def e 0 get/f exch def e 1 get/g exch def e 2 get/h
exch def/i g 0 get def/j g 1 get def/k g 2 get def/l f 0 get i sub g_ng div def/m f 1 get j
sub g_ng div def/n f 2 get k sub g_ng div def/o a h mul g_ng div 2 mul def 0 1 g_ng{pop i j
k msc c setlinewidth gsave d{fill/d false def}{stroke}ifelse grestore i l add/i exch def j
m add/j exch def k n add/k exch def/c c o sub def c 0.001 le{/c 0.001 def}if}for}for
grestore}bd gr_e}if
%%EndProcSet
%%EndProlog
%%BeginSetup
userdict/BeachHead get begin
/setrgbcolor where pop systemdict ne{userdict begin gr_b/g_mg 0 def gr_e}if
%%EndSetup
%%Page One 1
newpath
0 0 moveto
0 776 lineto
576 776 lineto
576 0 lineto closepath clip
gsave
0 776 translate
1 -1 scale
newpath 274 74 moveto
260.64119 94.03844 266.4897 126.40756 279 144 curveto
299.93524 173.4399 349.62434 115.64194 372 154 curveto
378.12987 164.5083 376.78876 169.96547 388 160 curveto
404.16893 145.62773 412.51437 128.08669 409 107 curveto
406.51224 92.07314 416.36783 67.59906 396 63 curveto
354.29489 53.58298 319.18317 40.70418 282 50 curveto
273.7681 52.05798 277.32817 69.00768 274 74 curveto
closepath
userdict begin gr_b [[[1 1 1] [0 0 0] 1]] 0 -75 265 46 411 166 false g_lf
gr_e
newpath 274 74 moveto
260.64119 94.03844 266.4897 126.40756 279 144 curveto
299.93524 173.4399 349.62434 115.64194 372 154 curveto
378.12987 164.5083 376.78876 169.96547 388 160 curveto
404.16893 145.62773 412.51437 128.08669 409 107 curveto
406.51224 92.07314 416.36783 67.59906 396 63 curveto
354.29489 53.58298 319.18317 40.70418 282 50 curveto
273.7681 52.05798 277.32817 69.00768 274 74 curveto
closepath
0 setgray
2 setlinewidth stroke
newpath 98 33 moveto
170 57 lineto
0 setgray
currentlinecap 2 setlinecap
2 setlinewidth stroke
setlinecap
newpath 99 73 moveto
168 57 lineto
0 setgray
currentlinecap 2 setlinecap
2 setlinewidth stroke
setlinecap
newpath 102 103 moveto
169 60 lineto
0 setgray
currentlinecap 2 setlinecap
2 setlinewidth stroke
setlinecap
newpath 104 137 moveto
187 114 lineto
0 setgray
currentlinecap 2 setlinecap
2 setlinewidth stroke
setlinecap
newpath 112 115 moveto
188 114 lineto
0 setgray
currentlinecap 2 setlinecap
2 setlinewidth stroke
setlinecap
newpath 115 171 moveto
187 116 lineto
0 setgray
currentlinecap 2 setlinecap
2 setlinewidth stroke
setlinecap
newpath 167 57 moveto
226 74 lineto
0 setgray
currentlinecap 2 setlinecap
2 setlinewidth stroke
setlinecap
newpath 189 114 moveto
228 75 lineto
0 setgray
currentlinecap 2 setlinecap
2 setlinewidth stroke
setlinecap
newpath 228 75 moveto
163 90 lineto
0 setgray
currentlinecap 2 setlinecap
2 setlinewidth stroke
setlinecap
newpath 128 199 moveto
188 152 lineto
0 setgray
currentlinecap 2 setlinecap
2 setlinewidth stroke
setlinecap
newpath 187 151 moveto
149 163 lineto
0 setgray
currentlinecap 2 setlinecap
2 setlinewidth stroke
setlinecap
newpath 188 152 moveto
211 127 lineto
0 setgray
currentlinecap 2 setlinecap
2 setlinewidth stroke
setlinecap
newpath 214 121 moveto
198 116 lineto
0 setgray
currentlinecap 2 setlinecap
2 setlinewidth stroke
setlinecap
newpath 211 126 moveto
237 98 lineto
0 setgray
currentlinecap 2 setlinecap
2 setlinewidth stroke
setlinecap
newpath 227 74 moveto
241 84 lineto
0 setgray
currentlinecap 2 setlinecap
2 setlinewidth stroke
setlinecap
newpath 243 85 moveto
237 96 lineto
0 setgray
currentlinecap 2 setlinecap
2 setlinewidth stroke
setlinecap
newpath 245 85 moveto
266 84 lineto
0 setgray
currentlinecap 2 setlinecap
2 setlinewidth stroke
setlinecap
newpath 274 131 moveto
240 124 lineto
0 setgray
currentlinecap 2 setlinecap
2 setlinewidth stroke
setlinecap
newpath 274 133 moveto
248 147 lineto
0 setgray
currentlinecap 2 setlinecap
2 setlinewidth stroke
setlinecap
newpath 238 124 moveto
204 134 lineto
0 setgray
currentlinecap 2 setlinecap
2 setlinewidth stroke
setlinecap
newpath 249 148 moveto
227 164 lineto
0 setgray
currentlinecap 2 setlinecap
2 setlinewidth stroke
setlinecap
newpath 226 164 moveto
188 152 lineto
0 setgray
currentlinecap 2 setlinecap
2 setlinewidth stroke
setlinecap
newpath 226 166 moveto
207 194 lineto
0 setgray
currentlinecap 2 setlinecap
2 setlinewidth stroke
setlinecap
newpath 223 168 moveto
185 172 lineto
0 setgray
currentlinecap 2 setlinecap
2 setlinewidth stroke
setlinecap
newpath 207 194 moveto
171 196 lineto
0 setgray
currentlinecap 2 setlinecap
2 setlinewidth stroke
setlinecap
newpath 206 196 moveto
189 222 lineto
0 setgray
currentlinecap 2 setlinecap
2 setlinewidth stroke
setlinecap
/Times-Roman findfont 14 scalefont setfont
gsave
316 88 translate 1 -1 scale 0 0 moveto
0 setgray
(MOLD)show
grestore
newpath 410 77 moveto
497 55 lineto
0 setgray
currentlinecap 2 setlinecap
2 setlinewidth stroke
setlinecap
newpath 405 138 moveto
482 125 lineto
0 setgray
currentlinecap 2 setlinecap
2 setlinewidth stroke
setlinecap
newpath 497 55 moveto
533 94 lineto
0 setgray
currentlinecap 2 setlinecap
2 setlinewidth stroke
setlinecap
newpath 482 124 moveto
532 94 lineto
0 setgray
currentlinecap 2 setlinecap
2 setlinewidth stroke
setlinecap
newpath 530 94 moveto
560 96 lineto
0 setgray
currentlinecap 2 setlinecap
2 setlinewidth stroke
setlinecap
gsave
174 50 translate 1 -1 scale 0 0 moveto
0 setgray
(GOOD DESIGN)show
grestore
gsave
434 156 translate 1 -1 scale 0 0 moveto
0 setgray
(BAD DESIGN)show
grestore
grestore
showpage
%%Trailer
end
