%!PS-Adobe-3.0 EPSF-3.0
%%BoundingBox: 97 493 393 754
%%Title: t
%%CreationDate: Wed Jan  2 11:50:55 2013
%%Creator: Tgif-4.2.2-QPL written by William Chia-Wei Cheng (bill.cheng@acm.org)
%%ProducedBy: (unknown)
%%Pages: 1
%%DocumentFonts: (atend)
%%EndComments
%%BeginProlog

/tgifdict 87 dict def
tgifdict begin

/tgifarrowtipdict 8 dict def
tgifarrowtipdict /mtrx matrix put

/TGAT % tgifarrowtip
 { tgifarrowtipdict begin
      /dy exch def
      /dx exch def
      /h exch def
      /w exch def
      /y exch def
      /x exch def
      /savematrix mtrx currentmatrix def
      x y translate
      dy dx atan rotate
      0 0 moveto
      w neg h lineto
      w neg h neg lineto
      savematrix setmatrix
   end
 } def

/tgifpatdict 12 dict def

/tgifpatbyte
 { currentdict /retstr get exch
   bytesperrow mul
   pat i cellh mod bytesperrow mul bytesperrow getinterval putinterval
 } def

/tgifpatproc
 { 0 1 cells_wd 1 sub {tgifpatbyte} for retstr
   /i i 1 add def
 } def

/TGPF % tgifpatfill
 { tgifpatdict begin
      /h exch def
      /w exch def
      /lty exch def
      /ltx exch def
      /cellh exch def
      /cellw exch def
      /pat exch def

      /cells_wd w cellw div cvi def
      /bytesperrow cellw 8 div ceiling cvi def
      /retstr cells_wd bytesperrow mul string def
      /i 0 def

      tgiforigctm setmatrix
      ltx lty translate
      w h true [1 0 0 1 0 0] {tgifpatproc} imagemask
      ltx neg lty neg translate
   end
 } def

/pat3 <8000000008000000> def
/pat4 <8800000022000000> def
/pat5 <8800220088002200> def
/pat6 <8822882288228822> def
/pat7 <aa55aa55aa55aa55> def
/pat8 <77dd77dd77dd77dd> def
/pat9 <77ffddff77ffddff> def
/pat10 <77ffffffddffffff> def
/pat11 <7ffffffff7ffffff> def
/pat12 <8040200002040800> def
/pat13 <40a00000040a0000> def
/pat14 <ff888888ff888888> def
/pat15 <ff808080ff080808> def
/pat16 <f87422478f172271> def
/pat17 <038448300c020101> def
/pat18 <081c22c180010204> def
/pat19 <8080413e080814e3> def
/pat20 <8040201008040201> def
/pat21 <8844221188442211> def
/pat22 <77bbddee77bbddee> def
/pat23 <c1e070381c0e0783> def
/pat24 <7fbfdfeff7fbfdfe> def
/pat25 <3e1f8fc7e3f1f87c> def
/pat26 <0102040810204080> def
/pat27 <1122448811224488> def
/pat28 <eeddbb77eeddbb77> def
/pat29 <83070e1c3870e0c1> def
/pat30 <fefdfbf7efdfbf7f> def
/pat31 <7cf8f1e3c78f1f3e> def

/TGMAX
 { exch dup 3 1 roll exch dup 3 1 roll gt { pop } { exch pop } ifelse
 } def
/TGMIN
 { exch dup 3 1 roll exch dup 3 1 roll lt { pop } { exch pop } ifelse
 } def
/TGSW { stringwidth pop } def
/tgifstrw 0 def

/bd { bind def } bind def

/GS { gsave } bd
/GR { grestore } bd
/NP { newpath } bd
/CP { closepath } bd
/CHP { charpath } bd
/CT { curveto } bd
/L { lineto } bd
/RL { rlineto } bd
/M { moveto } bd
/RM { rmoveto } bd
/S { stroke } bd
/F { fill } bd
/TR { translate } bd
/RO { rotate } bd
/SC { scale } bd
/MU { mul } bd
/DI { div } bd
/DU { dup } bd
/NE { neg } bd
/AD { add } bd
/SU { sub } bd
/PO { pop } bd
/EX { exch } bd
/CO { concat } bd
/CL { clip } bd
/EC { eoclip } bd
/EF { eofill } bd
/IM { image } bd
/IMM { imagemask } bd
/ARY { array } bd
/SG { setgray } bd
/RG { setrgbcolor } bd
/SD { setdash } bd
/W { setlinewidth } bd
/SM { setmiterlimit } bd
/SLC { setlinecap } bd
/SLJ { setlinejoin } bd
/SH { show } bd
/FF { findfont } bd
/MS { makefont setfont } bd
/AR { arcto 4 {pop} repeat } bd
/CURP { currentpoint } bd
/FLAT { flattenpath strokepath clip newpath } bd
/TGSM { tgiforigctm setmatrix } def
/TGRM { savematrix setmatrix } def

end

%%EndProlog
%%Page: 1 1

%%PageBoundingBox: 97 493 393 754
tgifdict begin
/tgifsavedpage save def

1 SM
1 W

0 SG

72 0 MU 72 11 MU TR
72 128 DI 100.000 MU 100 DI DU NE SC

GS

/tgiforigctm matrix currentmatrix def

% POLY/OPEN-SPLINE
0.000 1.000 0.000 RG
GS
   NP
      467 202 M
      393 375 L
      564 356 L
      467 202 L
   CP EC NP
   pat31 8 8 392 200 176 176 TGPF
GR
GS
   NP
      467 202 M
      393 375 L
      564 356 L
      467 202 L
   TGSM
   1 W
   S
GR

% POLY/OPEN-SPLINE
0.000 0.000 1.000 RG
GS
   NP
      419 216 M
      433.00 237.33 443.83 250.17 451.50 254.50 CT
      459.17 258.83 466.83 262.50 474.50 265.50 CT
      482.17 268.50 489.17 271.33 495.50 274.00 CT
      501.83 276.67 509.33 279.00 518.00 281.00 CT
      526.67 283.00 534.33 285.83 541.00 289.50 CT
      547.67 293.17 549.50 292.33 546.50 287.00 CT
      543.50 281.67 540.83 273.17 538.50 261.50 CT
      536.17 249.83 535.17 240.33 535.50 233.00 CT
      535.83 225.67 533.33 218.83 528.00 212.50 CT
      522.67 206.17 512.67 197.67
      498 187 CT
   CP 1 SG EF
   0.000 0.000 1.000 RG
   NP
      419 216 M
      433.00 237.33 443.83 250.17 451.50 254.50 CT
      459.17 258.83 466.83 262.50 474.50 265.50 CT
      482.17 268.50 489.17 271.33 495.50 274.00 CT
      501.83 276.67 509.33 279.00 518.00 281.00 CT
      526.67 283.00 534.33 285.83 541.00 289.50 CT
      547.67 293.17 549.50 292.33 546.50 287.00 CT
      543.50 281.67 540.83 273.17 538.50 261.50 CT
      536.17 249.83 535.17 240.33 535.50 233.00 CT
      535.83 225.67 533.33 218.83 528.00 212.50 CT
      522.67 206.17 512.67 197.67
      498 187 CT
   CP EC NP
   pat13 8 8 416 184 136 112 TGPF
GR
GS
   NP
      419 216 M
      433.00 237.33 443.83 250.17 451.50 254.50 CT
      459.17 258.83 466.83 262.50 474.50 265.50 CT
      482.17 268.50 489.17 271.33 495.50 274.00 CT
      501.83 276.67 509.33 279.00 518.00 281.00 CT
      526.67 283.00 534.33 285.83 541.00 289.50 CT
      547.67 293.17 549.50 292.33 546.50 287.00 CT
      543.50 281.67 540.83 273.17 538.50 261.50 CT
      536.17 249.83 535.17 240.33 535.50 233.00 CT
      535.83 225.67 533.33 218.83 528.00 212.50 CT
      522.67 206.17 512.67 197.67
      498 187 CT
   TGSM
   1 W
   S
GR

% POLY/OPEN-SPLINE
0 SG
GS
   NP
      309 253 M
      601 153 L
   TGSM
   1 W
   S
GR

% POLY/OPEN-SPLINE
0 SG
GS
   NP
      309 254 M
      235 427 L
      406 408 L
      309 254 L
   TGSM
   1 W
   S
GR

% POLY/OPEN-SPLINE
0 SG
GS
   NP
      405 408 M
      697 309 L
   TGSM
   1 W
   S
GR

% POLY/OPEN-SPLINE
0 SG
GS
   [4 4] 0 SD
   NP
      236 426 M
      527 328 L
   TGSM
   1 W
   S
   [] 0 SD
GR

% POLY/OPEN-SPLINE
0 SG
GS
   [4 4] 0 SD
   NP
      601 153 M
      526 328 L
   TGSM
   1 W
   S
   [] 0 SD
GR

% POLY/OPEN-SPLINE
0 SG
GS
   NP
      601 153 M
      697 309 L
   TGSM
   1 W
   S
GR

% POLY/OPEN-SPLINE
0 SG
GS
   [4 4] 0 SD
   NP
      526 328 M
      697 309 L
   TGSM
   1 W
   S
   [] 0 SD
GR

% POLY/OPEN-SPLINE
1.000 0.000 1.000 RG
GS
   NP
      465 196 M
      651 344 L
   TGSM
   1 W
   S
GR

% POLY/OPEN-SPLINE
1.000 0.000 1.000 RG
GS
   [4 4] 0 SD
   NP
      466 197 M
      309 371 L
   TGSM
   1 W
   S
   [] 0 SD
GR

% TEXT
NP
1.000 0.000 1.000 RG
   GS
      1 W
      488 445 M
      GS
            0 SG
            /Courier FF [14 0 0 -14 0 0] MS
            (2-D oblique shock) SH
      GR
      0 16 RM
      GS
            0 SG
            /Courier FF [14 0 0 -14 0 0] MS
            (on both sides) SH
      GR
   GR

% POLY/OPEN-SPLINE
0 SG
GS
   NP
      550 431 M
      -179 -19 atan DU cos 8.000 MU 531 exch SU
      exch sin 8.000 MU 252 exch SU L
   TGSM
   1 W
   S
GR
GS
   TGSM
   NP
      531 252 8.000 3.000 -19 -179 TGAT
   1 SG CP F
   0 SG
   NP
      531 252 8.000 3.000 -19 -179 TGAT
   CP F
GR

% POLY/OPEN-SPLINE
0 SG
GS
   NP
      549 430 M
      -160 -140 atan DU cos 8.000 MU 409 exch SU
      exch sin 8.000 MU 270 exch SU L
   TGSM
   1 W
   S
GR
GS
   TGSM
   NP
      409 270 8.000 3.000 -140 -160 TGAT
   1 SG CP F
   0 SG
   NP
      409 270 8.000 3.000 -140 -160 TGAT
   CP F
GR

% TEXT
NP
0 SG
GS
   415 180 TR
   [0.776 2.898 -5.433 1.456 77 -16] CO
   415 NE 180 NE TR
GR
   GS
      1 W
      415 180 TR
      [0.776 2.898 -5.433 1.456 77 -16] CO
      0 13 M
      GS
            0 SG
            /Courier FF [14 0 0 -14 0 0] MS
            ({) SH
      GR
   GR

% TEXT
NP
0 SG
GS
   426 148 TR
   [0.966 -0.259 0.259 0.966 0 0] CO
   426 NE 148 NE TR
GR
   GS
      1 W
      426 148 TR
      [0.966 -0.259 0.259 0.966 0 0] CO
      0 13 M
      GS
        GS
        0
            /Courier FF [14 0 0 -14 0 0] MS
            (normal analysis) TGSW 
        AD
        GR
      2 DI NE 0 RM
            0 SG
            /Courier FF [14 0 0 -14 0 0] MS
            (normal analysis) SH
      GR
      0 16 RM
      GS
        GS
        0
            /Courier FF [14 0 0 -14 0 0] MS
            (range) TGSW 
        AD
        GR
      2 DI NE 0 RM
            0 SG
            /Courier FF [14 0 0 -14 0 0] MS
            (range) SH
      GR
   GR

% TEXT
NP
0 SG
GS
   344 199 TR
   [0.776 2.898 -5.433 1.456 77 -16] CO
   344 NE 199 NE TR
GR
   GS
      1 W
      344 199 TR
      [0.776 2.898 -5.433 1.456 77 -16] CO
      0 13 M
      GS
            0 SG
            /Courier FF [14 0 0 -14 0 0] MS
            ({) SH
      GR
   GR

% TEXT
NP
0 SG
GS
   486 160 TR
   [0.776 2.898 -5.433 1.456 77 -16] CO
   486 NE 160 NE TR
GR
   GS
      1 W
      486 160 TR
      [0.776 2.898 -5.433 1.456 77 -16] CO
      0 13 M
      GS
            0 SG
            /Courier FF [14 0 0 -14 0 0] MS
            ({) SH
      GR
   GR

% TEXT
NP
0 SG
GS
   355 101 TR
   [0.966 -0.259 0.259 0.966 0 0] CO
   355 NE 101 NE TR
GR
   GS
      1 W
      355 101 TR
      [0.966 -0.259 0.259 0.966 0 0] CO
      0 13 M
      GS
        GS
        0
            /Courier FF [14 0 0 -14 0 0] MS
            (intermidiate analysis) TGSW 
        AD
        GR
      2 DI NE 0 RM
            0 SG
            /Courier FF [14 0 0 -14 0 0] MS
            (intermidiate analysis) SH
      GR
      0 16 RM
      GS
        GS
        0
            /Courier FF [14 0 0 -14 0 0] MS
            (range) TGSW 
        AD
        GR
      2 DI NE 0 RM
            0 SG
            /Courier FF [14 0 0 -14 0 0] MS
            (range) SH
      GR
   GR

% POLY/OPEN-SPLINE
0 SG
GS
   NP
      361 134 M
      73 14 atan DU cos 8.000 MU 375 exch SU
      exch sin 8.000 MU 207 exch SU L
   TGSM
   1 W
   S
GR
GS
   TGSM
   NP
      375 207 8.000 3.000 14 73 TGAT
   1 SG CP F
   0 SG
   NP
      375 207 8.000 3.000 14 73 TGAT
   CP F
GR

% POLY/OPEN-SPLINE
0 SG
GS
   NP
      444 93 M
      68 71 atan DU cos 8.000 MU 515 exch SU
      exch sin 8.000 MU 161 exch SU L
   TGSM
   1 W
   S
GR
GS
   TGSM
   NP
      515 161 8.000 3.000 71 68 TGAT
   1 SG CP F
   0 SG
   NP
      515 161 8.000 3.000 71 68 TGAT
   CP F
GR

% TEXT
NP
0 SG
GS
   278 216 TR
   [0.776 2.898 -5.433 1.456 77 -16] CO
   278 NE 216 NE TR
GR
   GS
      1 W
      278 216 TR
      [0.776 2.898 -5.433 1.456 77 -16] CO
      0 13 M
      GS
            0 SG
            /Courier FF [14 0 0 -14 0 0] MS
            ({) SH
      GR
   GR

% TEXT
NP
0 SG
GS
   551 137 TR
   [0.776 2.898 -5.433 1.456 77 -16] CO
   551 NE 137 NE TR
GR
   GS
      1 W
      551 137 TR
      [0.776 2.898 -5.433 1.456 77 -16] CO
      0 13 M
      GS
            0 SG
            /Courier FF [14 0 0 -14 0 0] MS
            ({) SH
      GR
   GR

% TEXT
NP
0 SG
GS
   338 482 TR
   [0.966 -0.259 0.259 0.966 0 0] CO
   338 NE 482 NE TR
GR
   GS
      1 W
      338 482 TR
      [0.966 -0.259 0.259 0.966 0 0] CO
      0 13 M
      GS
        GS
        0
            /Courier FF [14 0 0 -14 0 0] MS
            (edge analysis) TGSW 
        AD
        GR
      2 DI NE 0 RM
            0 SG
            /Courier FF [14 0 0 -14 0 0] MS
            (edge analysis) SH
      GR
      0 16 RM
      GS
        GS
        0
            /Courier FF [14 0 0 -14 0 0] MS
            (range) TGSW 
        AD
        GR
      2 DI NE 0 RM
            0 SG
            /Courier FF [14 0 0 -14 0 0] MS
            (range) SH
      GR
   GR

% POLY/OPEN-SPLINE
1.000 1.000 0.000 RG
GS
   NP
      325 487 M
      -253 -6 atan DU cos 8.000 MU 319 exch SU
      exch sin 8.000 MU 234 exch SU L
   TGSM
   1 W
   S
GR
GS
   TGSM
   NP
      319 234 8.000 3.000 -6 -253 TGAT
   1 SG CP F
   1.000 1.000 0.000 RG
   NP
      319 234 8.000 3.000 -6 -253 TGAT
   CP F
GR

% POLY/OPEN-SPLINE
1.000 1.000 0.000 RG
GS
   NP
      354 479 M
      -327 224 atan DU cos 8.000 MU 578 exch SU
      exch sin 8.000 MU 152 exch SU L
   TGSM
   1 W
   S
GR
GS
   TGSM
   NP
      578 152 8.000 3.000 224 -327 TGAT
   1 SG CP F
   1.000 1.000 0.000 RG
   NP
      578 152 8.000 3.000 224 -327 TGAT
   CP F
GR

% TEXT
NP
1.000 1.000 0.000 RG
   GS
      1 W
      176 199 M
      GS
            0 SG
            /Courier FF [14 0 0 -14 0 0] MS
            (no shock) SH
      GR
   GR

% POLY/OPEN-SPLINE
0 SG
GS
   NP
      219 209 M
      39 22 atan DU cos 8.000 MU 241 exch SU
      exch sin 8.000 MU 248 exch SU L
   TGSM
   1 W
   S
GR
GS
   TGSM
   NP
      241 248 8.000 3.000 22 39 TGAT
   1 SG CP F
   0 SG
   NP
      241 248 8.000 3.000 22 39 TGAT
   CP F
GR

% TEXT
NP
1.000 1.000 0.000 RG
   GS
      1 W
      604 82 M
      GS
            0 SG
            /Courier FF [14 0 0 -14 0 0] MS
            (no shock) SH
      GR
   GR

% POLY/OPEN-SPLINE
0 SG
GS
   NP
      646 94 M
      28 15 atan DU cos 8.000 MU 661 exch SU
      exch sin 8.000 MU 122 exch SU L
   TGSM
   1 W
   S
GR
GS
   TGSM
   NP
      661 122 8.000 3.000 15 28 TGAT
   1 SG CP F
   0 SG
   NP
      661 122 8.000 3.000 15 28 TGAT
   CP F
GR

% POLY/OPEN-SPLINE
0 SG
GS
   NP
      252 97 M
      105 4 atan DU cos 8.000 MU 256 exch SU
      exch sin 8.000 MU 202 exch SU L
   TGSM
   1 W
   S
GR
GS
   TGSM
   NP
      256 202 8.000 3.000 4 105 TGAT
   1 SG CP F
   0 SG
   NP
      256 202 8.000 3.000 4 105 TGAT
   CP F
GR

% TEXT
NP
0 SG
   GS
      1 W
      200 95 M
      GS
            0 SG
            /Courier FF [14 0 0 -14 0 0] MS
            (flow direction) SH
      GR
   GR

GR
tgifsavedpage restore
end
showpage

%%Trailer
%MatchingCreationDate: Wed Jan  2 11:50:55 2013
%%DocumentFonts: Courier
%%EOF
